%YAML 1.1
%TAG !u! tag:unity3d.com,2011:
--- !u!43 &4300000
Mesh:
  m_ObjectHideFlags: 0
  m_CorrespondingSourceObject: {fileID: 0}
  m_PrefabInstance: {fileID: 0}
  m_PrefabAsset: {fileID: 0}
  m_Name: Plane_0
  serializedVersion: 10
  m_SubMeshes:
  - serializedVersion: 2
    firstByte: 0
    indexCount: 6
    topology: 0
    baseVertex: 0
    firstVertex: 0
    vertexCount: 4
    localAABB:
      m_Center: {x: 0, y: 0, z: 0}
      m_Extent: {x: 0.01, y: 0.01, z: 0}
  m_Shapes:
    vertices: []
    shapes: []
    channels: []
    fullWeights: []
  m_BindPose:
  - e00: 0.0642816
    e01: -0.000000001538334
    e02: 0.04364371
    e03: 0.001146212
    e10: -0.002939129
    e11: 0.0354265
    e12: 0.0158111
    e13: 0.03146633
    e20: -0.02264673
    e21: -0.004597711
    e22: 0.1218284
    e23: 0.01035468
    e30: 0
    e31: 0
    e32: 0
    e33: 1
  - e00: 0.01590563
    e01: 0.004880709
    e02: -0.1255215
    e03: -0.01029668
    e10: -0.06583821
    e11: 0.005492226
    e12: -0.02762686
    e13: 0.002277598
    e20: 0.008122679
    e21: 0.03495984
    e22: 0.02186414
    e23: 0.01379743
    e30: 0
    e31: 0
    e32: 0
    e33: 1
  - e00: -0.05557251
    e01: 0.0008438168
    e02: -0.07554949
    e03: -0.008061447
    e10: -0.03011586
    e11: -0.02405084
    e12: 0.07733221
    e13: -0.0009611798
    e20: -0.02565865
    e21: 0.02640118
    e22: 0.07286244
    e23: 0.01532051
    e30: 0
    e31: 0
    e32: 0
    e33: 1
  - e00: 0.05356128
    e01: -0.00419937
    e02: 0.07927182
    e03: 0.006147914
    e10: 0.01105209
    e11: -0.03245991
    e12: -0.05017631
    e13: -0.01916829
    e20: 0.04077593
    e21: 0.01431417
    e22: -0.09052762
    e23: 0.008150958
    e30: 0
    e31: 0
    e32: 0
    e33: 1
  - e00: -0.06755829
    e01: -0.001197837
    e02: -0.01754497
    e03: -0.007119535
    e10: -0.008018232
    e11: -0.01115088
    e12: 0.1229067
    e13: -0.0008395654
    e20: -0.005022008
    e21: 0.03391754
    e22: 0.03978771
    e23: 0.03045821
    e30: 0
    e31: 0
    e32: 0
    e33: 1
  - e00: 0.0642816
    e01: -0.000000001538334
    e02: 0.04364371
    e03: 0.001146212
    e10: -0.002939129
    e11: 0.0354265
    e12: 0.0158111
    e13: 0.01389406
    e20: -0.02264673
    e21: -0.004597711
    e22: 0.1218284
    e23: 0.01035468
    e30: 0
    e31: 0
    e32: 0
    e33: 1
  - e00: 0.06428159
    e01: -0.000000002690957
    e02: 0.04364374
    e03: 0.001146215
    e10: -0.00292745
    e11: 0.03542887
    e12: 0.01574828
    e13: 0.007306196
    e20: -0.02264826
    e21: -0.004579443
    e22: 0.1218366
    e23: 0.01035845
    e30: 0
    e31: 0
    e32: 0
    e33: 1
  - e00: -0.0642816
    e01: -0.00000001244854
    e02: -0.04364371
    e03: -0.001146212
    e10: -0.0226987
    e11: 0.003920767
    e12: 0.122108
    e13: 0.01023009
    e20: 0.002506366
    e21: 0.03550781
    e22: -0.01348317
    e23: -0.001769161
    e30: 0
    e31: 0
    e32: 0
    e33: 1
  - e00: -0.0642816
    e01: -0.00000001051164
    e02: -0.04364373
    e03: -0.001146213
    e10: -0.02099166
    e11: -0.01406688
    e12: 0.1129249
    e13: 0.0048158
    e20: -0.008992412
    e21: 0.03283747
    e22: 0.04837468
    e23: 0.0006910898
    e30: 0
    e31: 0
    e32: 0
    e33: 1
  - e00: 0.02264675
    e01: 0.004597711
    e02: -0.1218284
    e03: -0.004822079
    e10: -0.06210767
    e11: -0.007696589
    e12: -0.04603635
    e13: -0.0009785267
    e20: -0.01683443
    e21: 0.03458034
    e22: 0.005951622
    e23: -0.00087942
    e30: 0
    e31: 0
    e32: 0
    e33: 1
  - e00: 0.02458488
    e01: 0.004595596
    e02: -0.1204495
    e03: -0.004653618
    e10: -0.06267616
    e11: -0.004365468
    e12: -0.04894274
    e13: -0.005622915
    e20: -0.01099626
    e21: 0.03515678
    e22: 0.009667526
    e23: -0.0003983565
    e30: 0
    e31: 0
    e32: 0
    e33: 1
  - e00: 0.02371346
    e01: 0.00456541
    e02: -0.1211011
    e03: -0.004864316
    e10: -0.06363478
    e11: -0.001898634
    e12: -0.04646461
    e13: -0.01529179
    e20: -0.006474908
    e21: 0.03537978
    e22: 0.01313341
    e23: 0.0007030163
    e30: 0
    e31: 0
    e32: 0
    e33: 1
  - e00: 0.02198878
    e01: 0.004597471
    e02: -0.122268
    e03: -0.005504588
    e10: -0.06352466
    e11: -0.004821898
    e12: -0.04414101
    e13: -0.02392807
    e20: -0.01160795
    e21: 0.03509685
    e22: 0.00995189
    e23: -0.001187475
    e30: 0
    e31: 0
    e32: 0
    e33: 1
  - e00: 0.0004435657
    e01: 0.004346312
    e02: -0.129401
    e03: -0.0123261
    e10: -0.06657238
    e11: -0.007709435
    e12: -0.004282253
    e13: -0.02384492
    e20: -0.01488482
    e21: 0.03460998
    e22: 0.01529627
    e23: -0.001819164
    e30: 0
    e31: 0
    e32: 0
    e33: 1
  - e00: 0.001763235
    e01: 0.004374536
    e02: -0.1293472
    e03: -0.01181864
    e10: -0.06653652
    e11: -0.007660721
    e12: -0.006763436
    e13: -0.02640287
    e20: -0.01494721
    e21: 0.03461724
    e22: 0.01484871
    e23: -0.00188655
    e30: 0
    e31: 0
    e32: 0
    e33: 1
  - e00: 0.02235788
    e01: 0.004597662
    e02: -0.1220232
    e03: -0.005352432
    e10: -0.0627474
    e11: -0.0065273
    e12: -0.04526718
    e13: -0.02657349
    e20: -0.01471469
    e21: 0.03481999
    e22: 0.00762633
    e23: -0.002510071
    e30: 0
    e31: 0
    e32: 0
    e33: 1
  - e00: 0.02227783
    e01: 0.004597635
    e02: -0.1220766
    e03: -0.005388403
    e10: -0.06277461
    e11: -0.006533117
    e12: -0.04511807
    e13: -0.02896666
    e20: -0.01472014
    e21: 0.03481891
    e22: 0.007653949
    e23: -0.002509013
    e30: 0
    e31: 0
    e32: 0
    e33: 1
  - e00: 0.04558044
    e01: 0.004245715
    e02: -0.09575341
    e03: 0.004126496
    e10: -0.04946038
    e11: -0.004198196
    e12: -0.08847158
    e13: -0.02709096
    e20: -0.01138994
    e21: 0.03522108
    e22: 0.0009971409
    e23: -0.002170881
    e30: 0
    e31: 0
    e32: 0
    e33: 1
  - e00: 0.04209897
    e01: 0.004353942
    e02: -0.101347
    e03: 0.002157568
    e10: -0.05229055
    e11: -0.004645395
    e12: -0.08199242
    e13: -0.0296277
    e20: -0.0121248
    e21: 0.03515167
    e22: 0.001717469
    e23: -0.00234437
    e30: 0
    e31: 0
    e32: 0
    e33: 1
  - e00: -0.02264672
    e01: -0.00459771
    e02: 0.1218284
    e03: 0.004822078
    e10: 0.06338476
    e11: -0.007696594
    e12: 0.03916622
    e13: 0.001259143
    e20: 0.01109658
    e21: 0.03458034
    e22: 0.02491527
    e23: -0.0003813785
    e30: 0
    e31: 0
    e32: 0
    e33: 1
  - e00: -0.02068776
    e01: -0.004595594
    e02: 0.1230954
    e03: 0.004723107
    e10: 0.06478529
    e11: -0.004365441
    e12: 0.03759667
    e13: -0.003350138
    e20: 0.005340188
    e21: 0.03515679
    e22: 0.02075909
    e23: -0.0001070574
    e30: 0
    e31: 0
    e32: 0
    e33: 1
  - e00: -0.02157899
    e01: -0.004565408
    e02: 0.1225503
    e03: 0.004902374
    e10: 0.06471097
    e11: -0.001898586
    e12: 0.04067519
    e13: -0.01300324
    e20: 0.0006880317
    e21: 0.03537979
    e22: 0.01799665
    e23: 0.0008307621
    e30: 0
    e31: 0
    e32: 0
    e33: 1
  - e00: -0.02330232
    e01: -0.004597469
    e02: 0.1213761
    e03: 0.005481164
    e10: 0.06385848
    e11: -0.004821998
    e12: 0.04234517
    e13: -0.02165669
    e20: 0.005721137
    e21: 0.03509684
    e22: 0.0217174
    e23: -0.0008785427
    e30: 0
    e31: 0
    e32: 0
    e33: 1
  - e00: -0.0423733
    e01: -0.00434631
    e02: 0.100933
    e03: 0.01157844
    e10: 0.05306507
    e11: -0.007709445
    e12: 0.07694502
    e13: -0.02171165
    e20: 0.006499131
    e21: 0.03460998
    e22: 0.02981481
    e23: -0.001437873
    e30: 0
    e31: 0
    e32: 0
    e33: 1
  - e00: -0.04133165
    e01: -0.004374534
    e02: 0.1024824
    e03: 0.01111308
    e10: 0.05385632
    e11: -0.007660728
    e12: 0.0749767
    e13: -0.02425614
    e20: 0.00669528
    e21: 0.03461724
    e22: 0.02954278
    e23: -0.001500651
    e30: 0
    e31: 0
    e32: 0
    e33: 1
  - e00: -0.02293512
    e01: -0.004597661
    e02: 0.1216312
    e03: 0.005342136
    e10: 0.06362716
    e11: -0.006527534
    e12: 0.04053418
    e13: -0.02432009
    e20: 0.008899508
    e21: 0.03481996
    e22: 0.02365907
    e23: -0.002089163
    e30: 0
    e31: 0
    e32: 0
    e33: 1
  - e00: -0.02301488
    e01: -0.004597633
    e02: 0.1215762
    e03: 0.005375259
    e10: 0.06359905
    e11: -0.006533291
    e12: 0.04068267
    e13: -0.02671327
    e20: 0.008894516
    e21: 0.03481888
    e22: 0.023687
    e23: -0.002088079
    e30: 0
    e31: 0
    e32: 0
    e33: 1
  - e00: 0.003754602
    e01: -0.004245715
    e02: 0.1292492
    e03: -0.003246794
    e10: 0.06758072
    e11: -0.004198204
    e12: -0.009007027
    e13: -0.02500399
    e20: 0.008507933
    e21: 0.03522108
    e22: 0.01450671
    e23: -0.001816081
    e30: 0
    e31: 0
    e32: 0
    e33: 1
  - e00: -0.0007931114
    e01: -0.004353942
    e02: 0.1293915
    e03: -0.001421037
    e10: 0.0676377
    e11: -0.004645395
    e12: -0.0005676586
    e13: -0.02748925
    e20: 0.008840283
    e21: 0.03515168
    e22: 0.01595162
    e23: -0.001970524
    e30: 0
    e31: 0
    e32: 0
    e33: 1
  - e00: -0.0290961
    e01: -0.004880709
    e02: 0.1165659
    e03: 0.01006148
    e10: 0.06020189
    e11: 0.005492223
    e12: 0.05794752
    e13: 0.004525034
    e20: -0.01351985
    e21: 0.03495984
    e22: 0.007170039
    e23: 0.01341152
    e30: 0
    e31: 0
    e32: 0
    e33: 1
  - e00: -0.06805713
    e01: -0.0008438145
    e02: -0.008388312
    e03: 0.005856992
    e10: -0.002162723
    e11: -0.02405083
    e12: 0.09631086
    e13: -0.0004627435
    e20: -0.004145383
    e21: 0.02640118
    e22: 0.08746879
    e23: 0.01570412
    e30: 0
    e31: 0
    e32: 0
    e33: 1
  - e00: 0.06772549
    e01: 0.004199367
    e02: 0.003075303
    e03: -0.003985236
    e10: 0.007989077
    e11: -0.03245991
    e12: -0.05225592
    e13: -0.0192229
    e20: -0.001752068
    e21: 0.01431417
    e22: -0.1194018
    e23: 0.007392637
    e30: 0
    e31: 0
    e32: 0
    e33: 1
  - e00: -0.05820825
    e01: 0.00119784
    e02: -0.06784368
    e03: 0.004876977
    e10: -0.03435248
    e11: -0.01115088
    e12: 0.1050272
    e13: -0.001309133
    e20: -0.009238171
    e21: 0.03391754
    e22: 0.03692516
    e23: 0.03038303
    e30: 0
    e31: 0
    e32: 0
    e33: 1
  m_BoneNameHashes: b4b1956ffe45834f68e5877b0c2f43fdcbd622d3862cc1e237cb6c3703861554b40cac4895a7a8973f4da7ed687f78a6e2cc4584968fda06fd3a76df7be3b80eb7e84fbffafc1bec89018a70ce16cfae3f4f0e823aa71ecc5f5c57b55b6627c61c8611779fa0adeb625598673715e62c68bdedd81d6c539061b872a711cb410d7d54849d
  m_RootBoneNameHash: 1872081332
  m_BonesAABB:
  - m_Min: {x: Infinity, y: Infinity, z: Infinity}
    m_Max: {x: -Infinity, y: -Infinity, z: -Infinity}
  - m_Min: {x: Infinity, y: Infinity, z: Infinity}
    m_Max: {x: -Infinity, y: -Infinity, z: -Infinity}
  - m_Min: {x: Infinity, y: Infinity, z: Infinity}
    m_Max: {x: -Infinity, y: -Infinity, z: -Infinity}
  - m_Min: {x: Infinity, y: Infinity, z: Infinity}
    m_Max: {x: -Infinity, y: -Infinity, z: -Infinity}
  - m_Min: {x: Infinity, y: Infinity, z: Infinity}
    m_Max: {x: -Infinity, y: -Infinity, z: -Infinity}
  - m_Min: {x: Infinity, y: Infinity, z: Infinity}
    m_Max: {x: -Infinity, y: -Infinity, z: -Infinity}
  - m_Min: {x: Infinity, y: Infinity, z: Infinity}
    m_Max: {x: -Infinity, y: -Infinity, z: -Infinity}
  - m_Min: {x: Infinity, y: Infinity, z: Infinity}
    m_Max: {x: -Infinity, y: -Infinity, z: -Infinity}
  - m_Min: {x: -0.0017890291, y: 0.004465215, z: 0.000272791}
    m_Max: {x: -0.00050339696, y: 0.0051663853, z: 0.0011093885}
  - m_Min: {x: Infinity, y: Infinity, z: Infinity}
    m_Max: {x: -Infinity, y: -Infinity, z: -Infinity}
  - m_Min: {x: Infinity, y: Infinity, z: Infinity}
    m_Max: {x: -Infinity, y: -Infinity, z: -Infinity}
  - m_Min: {x: Infinity, y: Infinity, z: Infinity}
    m_Max: {x: -Infinity, y: -Infinity, z: -Infinity}
  - m_Min: {x: Infinity, y: Infinity, z: Infinity}
    m_Max: {x: -Infinity, y: -Infinity, z: -Infinity}
  - m_Min: {x: Infinity, y: Infinity, z: Infinity}
    m_Max: {x: -Infinity, y: -Infinity, z: -Infinity}
  - m_Min: {x: Infinity, y: Infinity, z: Infinity}
    m_Max: {x: -Infinity, y: -Infinity, z: -Infinity}
  - m_Min: {x: Infinity, y: Infinity, z: Infinity}
    m_Max: {x: -Infinity, y: -Infinity, z: -Infinity}
  - m_Min: {x: Infinity, y: Infinity, z: Infinity}
    m_Max: {x: -Infinity, y: -Infinity, z: -Infinity}
  - m_Min: {x: Infinity, y: Infinity, z: Infinity}
    m_Max: {x: -Infinity, y: -Infinity, z: -Infinity}
  - m_Min: {x: Infinity, y: Infinity, z: Infinity}
    m_Max: {x: -Infinity, y: -Infinity, z: -Infinity}
  - m_Min: {x: Infinity, y: Infinity, z: Infinity}
    m_Max: {x: -Infinity, y: -Infinity, z: -Infinity}
  - m_Min: {x: Infinity, y: Infinity, z: Infinity}
    m_Max: {x: -Infinity, y: -Infinity, z: -Infinity}
  - m_Min: {x: Infinity, y: Infinity, z: Infinity}
    m_Max: {x: -Infinity, y: -Infinity, z: -Infinity}
  - m_Min: {x: Infinity, y: Infinity, z: Infinity}
    m_Max: {x: -Infinity, y: -Infinity, z: -Infinity}
  - m_Min: {x: Infinity, y: Infinity, z: Infinity}
    m_Max: {x: -Infinity, y: -Infinity, z: -Infinity}
  - m_Min: {x: Infinity, y: Infinity, z: Infinity}
    m_Max: {x: -Infinity, y: -Infinity, z: -Infinity}
  - m_Min: {x: Infinity, y: Infinity, z: Infinity}
    m_Max: {x: -Infinity, y: -Infinity, z: -Infinity}
  - m_Min: {x: Infinity, y: Infinity, z: Infinity}
    m_Max: {x: -Infinity, y: -Infinity, z: -Infinity}
  - m_Min: {x: Infinity, y: Infinity, z: Infinity}
    m_Max: {x: -Infinity, y: -Infinity, z: -Infinity}
  - m_Min: {x: Infinity, y: Infinity, z: Infinity}
    m_Max: {x: -Infinity, y: -Infinity, z: -Infinity}
  - m_Min: {x: Infinity, y: Infinity, z: Infinity}
    m_Max: {x: -Infinity, y: -Infinity, z: -Infinity}
  - m_Min: {x: Infinity, y: Infinity, z: Infinity}
    m_Max: {x: -Infinity, y: -Infinity, z: -Infinity}
  - m_Min: {x: Infinity, y: Infinity, z: Infinity}
    m_Max: {x: -Infinity, y: -Infinity, z: -Infinity}
  - m_Min: {x: Infinity, y: Infinity, z: Infinity}
    m_Max: {x: -Infinity, y: -Infinity, z: -Infinity}
  m_VariableBoneCountWeights:
    m_Data: 
  m_MeshCompression: 0
  m_IsReadable: 1
  m_KeepVertices: 1
  m_KeepIndices: 1
  m_IndexFormat: 0
  m_IndexBuffer: 000001000200000002000300
  m_VertexData:
    serializedVersion: 3
    m_VertexCount: 4
    m_Channels:
    - stream: 0
      offset: 0
      format: 0
      dimension: 3
    - stream: 0
      offset: 12
      format: 0
      dimension: 3
    - stream: 0
      offset: 24
      format: 0
      dimension: 4
    - stream: 0
      offset: 0
      format: 0
      dimension: 0
    - stream: 0
      offset: 0
      format: 0
      dimension: 0
    - stream: 0
      offset: 0
      format: 0
      dimension: 0
    - stream: 0
      offset: 0
      format: 0
      dimension: 0
    - stream: 0
      offset: 0
      format: 0
      dimension: 0
    - stream: 0
      offset: 0
      format: 0
      dimension: 0
    - stream: 0
      offset: 0
      format: 0
      dimension: 0
    - stream: 0
      offset: 0
      format: 0
      dimension: 0
    - stream: 0
      offset: 0
      format: 0
      dimension: 0
    - stream: 0
      offset: 0
      format: 0
      dimension: 0
    - stream: 1
      offset: 0
      format: 10
      dimension: 1
    m_DataSize: 176
    _typelessdata: 0ad7233c0ad723bc0000000000000000000000000000803f0000803f0000000000000000000080bf0ad7233c0ad7233c0000000000000000000000000000803f0000803f0000000000000000000080bf0ad723bc0ad7233c0000000000000000000000000000803f0000803f0000000000000000000080bf0ad723bc0ad723bc0000000000000000000000000000803f0000803f0000000000000000000080bf08000000080000000800000008000000
  m_CompressedMesh:
    m_Vertices:
      m_NumItems: 0
      m_Range: 0
      m_Start: 0
      m_Data: 
      m_BitSize: 0
    m_UV:
      m_NumItems: 0
      m_Range: 0
      m_Start: 0
      m_Data: 
      m_BitSize: 0
    m_Normals:
      m_NumItems: 0
      m_Range: 0
      m_Start: 0
      m_Data: 
      m_BitSize: 0
    m_Tangents:
      m_NumItems: 0
      m_Range: 0
      m_Start: 0
      m_Data: 
      m_BitSize: 0
    m_Weights:
      m_NumItems: 0
      m_Data: 
      m_BitSize: 0
    m_NormalSigns:
      m_NumItems: 0
      m_Data: 
      m_BitSize: 0
    m_TangentSigns:
      m_NumItems: 0
      m_Data: 
      m_BitSize: 0
    m_FloatColors:
      m_NumItems: 0
      m_Range: 0
      m_Start: 0
      m_Data: 
      m_BitSize: 0
    m_BoneIndices:
      m_NumItems: 0
      m_Data: 
      m_BitSize: 0
    m_Triangles:
      m_NumItems: 0
      m_Data: 
      m_BitSize: 0
    m_UVInfo: 0
  m_LocalAABB:
    m_Center: {x: 0, y: 0, z: 0}
    m_Extent: {x: 0.01, y: 0.01, z: 0}
  m_MeshUsageFlags: 1
  m_BakedConvexCollisionMesh: 
  m_BakedTriangleCollisionMesh: 
  m_MeshMetrics[0]: 1
  m_MeshMetrics[1]: 1
  m_MeshOptimizationFlags: -1
  m_StreamData:
    offset: 0
    size: 0
    path: 
