%YAML 1.1
%TAG !u! tag:unity3d.com,2011:
--- !u!74 &7400000
AnimationClip:
  m_ObjectHideFlags: 0
  m_CorrespondingSourceObject: {fileID: 0}
  m_PrefabInstance: {fileID: 0}
  m_PrefabAsset: {fileID: 0}
  m_Name: Attack_3
  serializedVersion: 6
  m_Legacy: 0
  m_Compressed: 0
  m_UseHighQualityCurve: 1
  m_RotationCurves:
  - curve:
      serializedVersion: 2
      m_Curve:
      - serializedVersion: 3
        time: 0
        value: {x: -0.04066548, y: -4.190131e-11, z: 0.0009024322, w: 0.9991874}
        inSlope: {x: 0, y: 0, z: 0, w: 0}
        outSlope: {x: 0.01392385, y: 1.637348e-10, z: -0.01035781, w: 0.0004749718}
        tangentMode: 1
        weightedMode: 0
        inWeight: {x: 0.3333333, y: 0.3333333, z: 0.3333333, w: 0.3333333}
        outWeight: {x: 0.3333333, y: 0.3333333, z: 0.3333333, w: 0.3333333}
      - serializedVersion: 3
        time: 0.208334
        value: {x: -0.03652209, y: 9.153138e-12, z: -0.002153429, w: 0.9993305}
        inSlope: {x: 0.02620123, y: 3.333154e-10, z: -0.01933067, w: 0.0009119441}
        outSlope: {x: 0.02620123, y: 3.333154e-10, z: -0.01933067, w: 0.0009119441}
        tangentMode: 1
        weightedMode: 0
        inWeight: {x: 0.3333333, y: 0.3333333, z: 0.3333333, w: 0.3333333}
        outWeight: {x: 0.3333333, y: 0.3333333, z: 0.3333333, w: 0.3333333}
      - serializedVersion: 3
        time: 1.500001
        value: {x: -0.002396192, y: 0.0000000039181, z: -0.02730474, w: 0.9996243}
        inSlope: {x: -0.01807611, y: 9.419044e-12, z: 0.01330856, w: 0.0003190055}
        outSlope: {x: -0.01807611, y: 9.419361e-12, z: 0.01330856, w: 0.0003190054}
        tangentMode: 1
        weightedMode: 0
        inWeight: {x: 0.3333333, y: 0.3333333, z: 0.3333333, w: 0.3333333}
        outWeight: {x: 0.3333333, y: 0.3333333, z: 0.3333333, w: 0.3333333}
      - serializedVersion: 3
        time: 2.916667
        value: {x: -0.03944062, y: -1.242346e-26, z: -8.757576e-18, w: 0.9992219}
        inSlope: {x: -0.001743105, y: -0.00000009373236, z: 0.001286212, w: -0.00006866557}
        outSlope: {x: 0, y: 0, z: 0, w: 0}
        tangentMode: 1
        weightedMode: 0
        inWeight: {x: 0.3333333, y: 0.3333333, z: 0.3333333, w: 0.3333333}
        outWeight: {x: 0.3333333, y: 0.3333333, z: 0.3333333, w: 0.3333333}
      m_PreInfinity: 2
      m_PostInfinity: 2
      m_RotationOrder: 4
    path: Armature/Root/Bone1
  - curve:
      serializedVersion: 2
      m_Curve:
      - serializedVersion: 3
        time: 0
        value: {x: -0.1269992, y: 0.02514743, z: -0.1964761, w: 0.9726114}
        inSlope: {x: 0, y: 0, z: 0, w: 0}
        outSlope: {x: -0.02595738, y: -0.0114338, z: 0.04085118, w: 0.005645306}
        tangentMode: 1
        weightedMode: 0
        inWeight: {x: 0.3333333, y: 0.3333333, z: 0.3333333, w: 0.3333333}
        outWeight: {x: 0.3333333, y: 0.3333333, z: 0.3333333, w: 0.3333333}
      - serializedVersion: 3
        time: 0.333334
        value: {x: -0.1531398, y: 0.01343564, z: -0.1543722, w: 0.97598}
        inSlope: {x: -0.1461147, y: -0.06576514, z: 0.2368149, w: 0.01529277}
        outSlope: {x: -0.1461147, y: -0.06576514, z: 0.2368149, w: 0.01529277}
        tangentMode: 1
        weightedMode: 0
        inWeight: {x: 0.3333333, y: 0.3333333, z: 0.3333333, w: 0.3333333}
        outWeight: {x: 0.3333333, y: 0.3333333, z: 0.3333333, w: 0.3333333}
      - serializedVersion: 3
        time: 0.916667
        value: {x: -0.2513639, y: -0.03238639, z: 0.01270394, w: 0.9672673}
        inSlope: {x: -0.1347015, y: -0.06521194, z: 0.2407219, w: -0.0402054}
        outSlope: {x: -0.1347015, y: -0.06521194, z: 0.2407219, w: -0.0402054}
        tangentMode: 1
        weightedMode: 0
        inWeight: {x: 0.3333333, y: 0.3333333, z: 0.3333333, w: 0.3333333}
        outWeight: {x: 0.3333333, y: 0.3333333, z: 0.3333333, w: 0.3333333}
      - serializedVersion: 3
        time: 1.208334
        value: {x: -0.2756584, y: -0.04425392, z: 0.05663827, w: 0.9585646}
        inSlope: {x: -0.02148469, y: -0.01048266, z: 0.03879219, w: -0.008909157}
        outSlope: {x: -0.02148469, y: -0.01048266, z: 0.03879218, w: -0.008909157}
        tangentMode: 1
        weightedMode: 0
        inWeight: {x: 0.3333333, y: 0.3333333, z: 0.3333333, w: 0.3333333}
        outWeight: {x: 0.3333333, y: 0.3333333, z: 0.3333333, w: 0.3333333}
      - serializedVersion: 3
        time: 1.250001
        value: {x: -0.2761253, y: -0.04447879, z: 0.05746692, w: 0.9583705}
        inSlope: {x: 0.7192015, y: 0.06498173, z: 0.01166237, w: 0.1849744}
        outSlope: {x: 0.7192015, y: 0.06498173, z: 0.01166237, w: 0.1849744}
        tangentMode: 1
        weightedMode: 0
        inWeight: {x: 0.3333333, y: 0.3333333, z: 0.3333333, w: 0.3333333}
        outWeight: {x: 0.3333333, y: 0.3333333, z: 0.3333333, w: 0.3333333}
      - serializedVersion: 3
        time: 1.291667
        value: {x: -0.2157259, y: -0.03883886, z: 0.05761014, w: 0.9739789}
        inSlope: {x: 2.665904, y: 0.2380223, z: -0.003934865, w: 0.458778}
        outSlope: {x: 2.665904, y: 0.2380223, z: -0.003934865, w: 0.458778}
        tangentMode: 1
        weightedMode: 0
        inWeight: {x: 0.3333333, y: 0.3333333, z: 0.3333333, w: 0.3333333}
        outWeight: {x: 0.3333333, y: 0.3333333, z: 0.3333333, w: 0.3333333}
      - serializedVersion: 3
        time: 1.333334
        value: {x: -0.0539663, y: -0.02464358, z: 0.05713901, w: 0.9966019}
        inSlope: {x: 4.591792, y: 0.379577, z: -0.03644652, w: 0.1254306}
        outSlope: {x: 4.591792, y: 0.379577, z: -0.03644652, w: 0.1254306}
        tangentMode: 1
        weightedMode: 0
        inWeight: {x: 0.3333333, y: 0.3333333, z: 0.3333333, w: 0.3333333}
        outWeight: {x: 0.3333333, y: 0.3333333, z: 0.3333333, w: 0.3333333}
      - serializedVersion: 3
        time: 1.375001
        value: {x: 0.1669264, y: -0.0072072, z: 0.0545729, w: 0.9844316}
        inSlope: {x: 5.210579, y: 0.3638351, z: -0.08299008, w: -0.8771982}
        outSlope: {x: 5.210579, y: 0.3638351, z: -0.08299008, w: -0.8771982}
        tangentMode: 1
        weightedMode: 0
        inWeight: {x: 0.3333333, y: 0.3333333, z: 0.3333333, w: 0.3333333}
        outWeight: {x: 0.3333333, y: 0.3333333, z: 0.3333333, w: 0.3333333}
      - serializedVersion: 3
        time: 1.416667
        value: {x: 0.380247, y: 0.005675948, z: 0.05022321, w: 0.9235029}
        inSlope: {x: 4.548025, y: 0.2168639, z: -0.09862254, w: -1.775431}
        outSlope: {x: 4.548025, y: 0.2168639, z: -0.09862255, w: -1.775431}
        tangentMode: 1
        weightedMode: 0
        inWeight: {x: 0.3333333, y: 0.3333333, z: 0.3333333, w: 0.3333333}
        outWeight: {x: 0.3333333, y: 0.3333333, z: 0.3333333, w: 0.3333333}
      - serializedVersion: 3
        time: 1.541667
        value: {x: 0.7417516, y: 0.01326054, z: 0.03695764, w: 0.6695244}
        inSlope: {x: 1.223755, y: 0.04580611, z: -0.1698263, w: -1.261881}
        outSlope: {x: 1.223755, y: 0.0458061, z: -0.1698263, w: -1.261881}
        tangentMode: 1
        weightedMode: 0
        inWeight: {x: 0.3333333, y: 0.3333333, z: 0.3333333, w: 0.3333333}
        outWeight: {x: 0.3333333, y: 0.3333333, z: 0.3333333, w: 0.3333333}
      - serializedVersion: 3
        time: 1.583334
        value: {x: 0.7685034, y: 0.01622986, z: 0.02832501, w: 0.6390124}
        inSlope: {x: 0.2178137, y: 0.1160149, z: -0.247846, w: -0.2411609}
        outSlope: {x: 0.2178137, y: 0.1160149, z: -0.247846, w: -0.2411609}
        tangentMode: 1
        weightedMode: 0
        inWeight: {x: 0.3333333, y: 0.3333333, z: 0.3333333, w: 0.3333333}
        outWeight: {x: 0.3333333, y: 0.3333333, z: 0.3333333, w: 0.3333333}
      - serializedVersion: 3
        time: 1.666667
        value: {x: 0.7375634, y: 0.03017685, z: 0.005163526, w: 0.6745837}
        inSlope: {x: -0.6287991, y: 0.1273973, z: -0.1927023, w: 0.6778361}
        outSlope: {x: -0.6287991, y: 0.1273973, z: -0.1927024, w: 0.6778361}
        tangentMode: 1
        weightedMode: 0
        inWeight: {x: 0.3333333, y: 0.3333333, z: 0.3333333, w: 0.3333333}
        outWeight: {x: 0.3333333, y: 0.3333333, z: 0.3333333, w: 0.3333333}
      - serializedVersion: 3
        time: 1.833334
        value: {x: 0.6090636, y: 0.02991355, z: 0.0001922977, w: 0.7925571}
        inSlope: {x: -0.806916, y: -0.05159398, z: -0.0002292614, w: 0.6226182}
        outSlope: {x: -0.806916, y: -0.05159397, z: -0.000229262, w: 0.6226182}
        tangentMode: 1
        weightedMode: 0
        inWeight: {x: 0.3333333, y: 0.3333333, z: 0.3333333, w: 0.3333333}
        outWeight: {x: 0.3333333, y: 0.3333333, z: 0.3333333, w: 0.3333333}
      - serializedVersion: 3
        time: 2.291667
        value: {x: 0.2377613, y: 0.004373741, z: 0.0001180033, w: 0.9713138}
        inSlope: {x: -0.8108236, y: -0.0009943687, z: -0.03110455, w: 0.1983313}
        outSlope: {x: -0.8108236, y: -0.0009943668, z: -0.03110455, w: 0.1983313}
        tangentMode: 1
        weightedMode: 0
        inWeight: {x: 0.3333333, y: 0.3333333, z: 0.3333333, w: 0.3333333}
        outWeight: {x: 0.3333333, y: 0.3333333, z: 0.3333333, w: 0.3333333}
      - serializedVersion: 3
        time: 2.625001
        value: {x: -0.02470366, y: 0.01643065, z: -0.1114141, w: 0.9933311}
        inSlope: {x: -0.6399723, y: 0.05048246, z: -0.4733239, w: -0.06883661}
        outSlope: {x: -0.6399723, y: 0.05048246, z: -0.4733239, w: -0.06883661}
        tangentMode: 1
        weightedMode: 0
        inWeight: {x: 0.3333333, y: 0.3333333, z: 0.3333333, w: 0.3333333}
        outWeight: {x: 0.3333333, y: 0.3333333, z: 0.3333333, w: 0.3333333}
      - serializedVersion: 3
        time: 2.916667
        value: {x: -0.1257461, y: 0.02564716, z: -0.1981928, w: 0.9717252}
        inSlope: {x: -0.05560323, y: 0.006014096, z: -0.05681112, w: -0.0187972}
        outSlope: {x: 0, y: 0, z: 0, w: 0}
        tangentMode: 1
        weightedMode: 0
        inWeight: {x: 0.3333333, y: 0.3333333, z: 0.3333333, w: 0.3333333}
        outWeight: {x: 0.3333333, y: 0.3333333, z: 0.3333333, w: 0.3333333}
      m_PreInfinity: 2
      m_PostInfinity: 2
      m_RotationOrder: 4
    path: Armature/Root/Bone1/Bone2
  - curve:
      serializedVersion: 2
      m_Curve:
      - serializedVersion: 3
        time: 0
        value: {x: -0.244486, y: 0.0899027, z: -0.1610819, w: 0.952413}
        inSlope: {x: 0, y: 0, z: 0, w: 0}
        outSlope: {x: -0.0340158, y: -0.005191167, z: 0.02501789, w: -0.003369032}
        tangentMode: 1
        weightedMode: 0
        inWeight: {x: 0.3333333, y: 0.3333333, z: 0.3333333, w: 0.3333333}
        outWeight: {x: 0.3333333, y: 0.3333333, z: 0.3333333, w: 0.3333333}
      - serializedVersion: 3
        time: 0.333334
        value: {x: -0.2794138, y: 0.08430893, z: -0.1346875, w: 0.9469315}
        inSlope: {x: -0.1970539, y: -0.03196919, z: 0.1500105, w: -0.03407595}
        outSlope: {x: -0.197054, y: -0.03196919, z: 0.1500105, w: -0.03407595}
        tangentMode: 1
        weightedMode: 0
        inWeight: {x: 0.3333333, y: 0.3333333, z: 0.3333333, w: 0.3333333}
        outWeight: {x: 0.3333333, y: 0.3333333, z: 0.3333333, w: 0.3333333}
      - serializedVersion: 3
        time: 0.958334
        value: {x: -0.4189245, y: 0.05945905, z: -0.02254379, w: 0.9057918}
        inSlope: {x: -0.1650172, y: -0.03224876, z: 0.1402994, w: -0.07058734}
        outSlope: {x: -0.1650172, y: -0.03224876, z: 0.1402994, w: -0.07058734}
        tangentMode: 1
        weightedMode: 0
        inWeight: {x: 0.3333333, y: 0.3333333, z: 0.3333333, w: 0.3333333}
        outWeight: {x: 0.3333333, y: 0.3333333, z: 0.3333333, w: 0.3333333}
      - serializedVersion: 3
        time: 1.208334
        value: {x: -0.4444694, y: 0.05437271, z: -0.0005729525, w: 0.8941422}
        inSlope: {x: -0.02857532, y: -0.005787581, z: 0.02484529, w: -0.01379861}
        outSlope: {x: -0.02857532, y: -0.005787582, z: 0.02484529, w: -0.01379861}
        tangentMode: 1
        weightedMode: 0
        inWeight: {x: 0.3333333, y: 0.3333333, z: 0.3333333, w: 0.3333333}
        outWeight: {x: 0.3333333, y: 0.3333333, z: 0.3333333, w: 0.3333333}
      - serializedVersion: 3
        time: 1.333334
        value: {x: -0.4249111, y: 0.08733065, z: -0.00009478007, w: 0.9010127}
        inSlope: {x: 0.5733182, y: 0.5466305, z: -0.0008466505, w: 0.2115288}
        outSlope: {x: 0.5733182, y: 0.5466305, z: -0.0008466511, w: 0.2115288}
        tangentMode: 1
        weightedMode: 0
        inWeight: {x: 0.3333333, y: 0.3333333, z: 0.3333333, w: 0.3333333}
        outWeight: {x: 0.3333333, y: 0.3333333, z: 0.3333333, w: 0.3333333}
      - serializedVersion: 3
        time: 1.416667
        value: {x: -0.3400076, y: 0.1208456, z: -0.0001465386, w: 0.932626}
        inSlope: {x: 1.559399, y: -0.0917652, z: -0.0001794899, w: 0.5568335}
        outSlope: {x: 1.559399, y: -0.0917652, z: -0.0001794899, w: 0.5568335}
        tangentMode: 1
        weightedMode: 0
        inWeight: {x: 0.3333333, y: 0.3333333, z: 0.3333333, w: 0.3333333}
        outWeight: {x: 0.3333333, y: 0.3333333, z: 0.3333333, w: 0.3333333}
      - serializedVersion: 3
        time: 1.500001
        value: {x: -0.1709119, y: 0.06087088, z: -0.0001292423, w: 0.9834042}
        inSlope: {x: 2.219203, y: -1.00255, z: 0.0007200417, w: 0.4492824}
        outSlope: {x: 2.219203, y: -1.00255, z: 0.0007200417, w: 0.4492824}
        tangentMode: 1
        weightedMode: 0
        inWeight: {x: 0.3333333, y: 0.3333333, z: 0.3333333, w: 0.3333333}
        outWeight: {x: 0.3333333, y: 0.3333333, z: 0.3333333, w: 0.3333333}
      - serializedVersion: 3
        time: 1.583334
        value: {x: 0.0000004066734, y: 0.00000002173524, z: 0.00000009257385, w: 1}
        inSlope: {x: 1.582184, y: -0.1854903, z: 0.1442125, w: 0.02055271}
        outSlope: {x: 1.582184, y: -0.1854903, z: 0.1442125, w: 0.02055272}
        tangentMode: 1
        weightedMode: 0
        inWeight: {x: 0.3333333, y: 0.3333333, z: 0.3333333, w: 0.3333333}
        outWeight: {x: 0.3333333, y: 0.3333333, z: 0.3333333, w: 0.3333333}
      - serializedVersion: 3
        time: 1.708334
        value: {x: 0.113488, y: 0.01350057, z: 0.04589777, w: 0.9923868}
        inSlope: {x: 0.5680809, y: 0.04090601, z: 0.1434241, w: -0.07049721}
        outSlope: {x: 0.5680809, y: 0.04090603, z: 0.1434241, w: -0.07049721}
        tangentMode: 1
        weightedMode: 0
        inWeight: {x: 0.3333333, y: 0.3333333, z: 0.3333333, w: 0.3333333}
        outWeight: {x: 0.3333333, y: 0.3333333, z: 0.3333333, w: 0.3333333}
      - serializedVersion: 3
        time: 1.875001
        value: {x: 0.1956056, y: 0.01190815, z: 0.04491455, w: 0.9795812}
        inSlope: {x: 0.4275788, y: -0.01708276, z: -0.02001769, w: -0.08394203}
        outSlope: {x: 0.4275788, y: -0.01708276, z: -0.02001768, w: -0.08394203}
        tangentMode: 1
        weightedMode: 0
        inWeight: {x: 0.3333333, y: 0.3333333, z: 0.3333333, w: 0.3333333}
        outWeight: {x: 0.3333333, y: 0.3333333, z: 0.3333333, w: 0.3333333}
      - serializedVersion: 3
        time: 2.291667
        value: {x: 0.2908237, y: 0.005349849, z: 0.0001443367, w: 0.9567617}
        inSlope: {x: -0.05692929, y: 0.01180016, z: -0.2368172, w: 0.0168419}
        outSlope: {x: -0.05692928, y: 0.01180016, z: -0.2368172, w: 0.0168419}
        tangentMode: 1
        weightedMode: 0
        inWeight: {x: 0.3333333, y: 0.3333333, z: 0.3333333, w: 0.3333333}
        outWeight: {x: 0.3333333, y: 0.3333333, z: 0.3333333, w: 0.3333333}
      - serializedVersion: 3
        time: 2.583334
        value: {x: 0.05296605, y: 0.04535102, z: -0.09642886, w: 0.9928945}
        inSlope: {x: -1.315765, y: 0.2110274, z: -0.3538138, w: 0.02550083}
        outSlope: {x: -1.315765, y: 0.2110274, z: -0.3538138, w: 0.02550082}
        tangentMode: 1
        weightedMode: 0
        inWeight: {x: 0.3333333, y: 0.3333333, z: 0.3333333, w: 0.3333333}
        outWeight: {x: 0.3333333, y: 0.3333333, z: 0.3333333, w: 0.3333333}
      - serializedVersion: 3
        time: 2.791667
        value: {x: -0.1897236, y: 0.08255603, z: -0.1524957, w: 0.9664029}
        inSlope: {x: -0.7885206, y: 0.1154316, z: -0.1566077, w: -0.1853501}
        outSlope: {x: -0.7885206, y: 0.1154316, z: -0.1566077, w: -0.1853501}
        tangentMode: 1
        weightedMode: 0
        inWeight: {x: 0.3333333, y: 0.3333333, z: 0.3333333, w: 0.3333333}
        outWeight: {x: 0.3333333, y: 0.3333333, z: 0.3333333, w: 0.3333333}
      - serializedVersion: 3
        time: 2.916667
        value: {x: -0.2424007, y: 0.09016827, z: -0.1624744, w: 0.9522151}
        inSlope: {x: -0.1519577, y: 0.02174124, z: -0.02752095, w: -0.04486153}
        outSlope: {x: 0, y: 0, z: 0, w: 0}
        tangentMode: 1
        weightedMode: 0
        inWeight: {x: 0.3333333, y: 0.3333333, z: 0.3333333, w: 0.3333333}
        outWeight: {x: 0.3333333, y: 0.3333333, z: 0.3333333, w: 0.3333333}
      m_PreInfinity: 2
      m_PostInfinity: 2
      m_RotationOrder: 4
    path: Armature/Root/Bone1/Bone2/Bone3
  - curve:
      serializedVersion: 2
      m_Curve:
      - serializedVersion: 3
        time: 0
        value: {x: -0.2470849, y: 0.1222551, z: -0.07509207, w: 0.9583335}
        inSlope: {x: 0, y: 0, z: 0, w: 0}
        outSlope: {x: -0.004006535, y: -0.02943611, z: -0.03399318, w: -0.0002235174}
        tangentMode: 1
        weightedMode: 0
        inWeight: {x: 0.3333333, y: 0.3333333, z: 0.3333333, w: 0.3333333}
        outWeight: {x: 0.3333333, y: 0.3333333, z: 0.3333333, w: 0.3333333}
      - serializedVersion: 3
        time: 0.08333397
        value: {x: -0.2476156, y: 0.1185883, z: -0.07927471, w: 0.9583}
        inSlope: {x: -0.00897818, y: -0.0599268, z: -0.06785427, w: -0.0006008102}
        outSlope: {x: -0.00897818, y: -0.0599268, z: -0.06785427, w: -0.0006008102}
        tangentMode: 1
        weightedMode: 0
        inWeight: {x: 0.3333333, y: 0.3333333, z: 0.3333333, w: 0.3333333}
        outWeight: {x: 0.3333333, y: 0.3333333, z: 0.3333333, w: 0.3333333}
      - serializedVersion: 3
        time: 0.750001
        value: {x: -0.2622314, y: -0.01324796, z: -0.2244155, w: 0.9384545}
        inSlope: {x: -0.01739293, y: -0.2407215, z: -0.257535, w: -0.06975918}
        outSlope: {x: -0.01739293, y: -0.2407215, z: -0.257535, w: -0.06975918}
        tangentMode: 1
        weightedMode: 0
        inWeight: {x: 0.3333333, y: 0.3333333, z: 0.3333333, w: 0.3333333}
        outWeight: {x: 0.3333333, y: 0.3333333, z: 0.3333333, w: 0.3333333}
      - serializedVersion: 3
        time: 1.208334
        value: {x: -0.2659105, y: -0.08537063, z: -0.3003431, w: 0.9120293}
        inSlope: {x: -0.0009348318, y: -0.03106967, z: -0.03218054, w: -0.01372994}
        outSlope: {x: -0.0009348321, y: -0.03106967, z: -0.03218054, w: -0.01372994}
        tangentMode: 1
        weightedMode: 0
        inWeight: {x: 0.3333333, y: 0.3333333, z: 0.3333333, w: 0.3333333}
        outWeight: {x: 0.3333333, y: 0.3333333, z: 0.3333333, w: 0.3333333}
      - serializedVersion: 3
        time: 1.291667
        value: {x: -0.2685166, y: -0.06911483, z: -0.2648428, w: 0.9235693}
        inSlope: {x: -0.07316652, y: 0.6669699, z: 1.462777, w: 0.3989283}
        outSlope: {x: -0.07316652, y: 0.6669699, z: 1.462777, w: 0.3989283}
        tangentMode: 1
        weightedMode: 0
        inWeight: {x: 0.3333333, y: 0.3333333, z: 0.3333333, w: 0.3333333}
        outWeight: {x: 0.3333333, y: 0.3333333, z: 0.3333333, w: 0.3333333}
      - serializedVersion: 3
        time: 1.333334
        value: {x: -0.2720273, y: -0.03045151, z: -0.1791296, w: 0.9449796}
        inSlope: {x: -0.03374908, y: 0.9402768, z: 2.16598, w: 0.4220392}
        outSlope: {x: -0.03374908, y: 0.9402767, z: 2.16598, w: 0.4220392}
        tangentMode: 1
        weightedMode: 0
        inWeight: {x: 0.3333333, y: 0.3333333, z: 0.3333333, w: 0.3333333}
        outWeight: {x: 0.3333333, y: 0.3333333, z: 0.3333333, w: 0.3333333}
      - serializedVersion: 3
        time: 1.375001
        value: {x: -0.2713291, y: 0.00924216, z: -0.08434316, w: 0.9587395}
        inSlope: {x: 0.07253928, y: 0.689387, z: 1.811559, w: 0.2185009}
        outSlope: {x: 0.07253928, y: 0.689387, z: 1.811558, w: 0.2185009}
        tangentMode: 1
        weightedMode: 0
        inWeight: {x: 0.3333333, y: 0.3333333, z: 0.3333333, w: 0.3333333}
        outWeight: {x: 0.3333333, y: 0.3333333, z: 0.3333333, w: 0.3333333}
      - serializedVersion: 3
        time: 1.416667
        value: {x: -0.2659824, y: 0.02699744, z: -0.02816657, w: 0.9631881}
        inSlope: {x: 0.4008796, y: 0.1597253, z: 0.8693438, w: 0.1465202}
        outSlope: {x: 0.4008796, y: 0.1597253, z: 0.8693438, w: 0.1465202}
        tangentMode: 1
        weightedMode: 0
        inWeight: {x: 0.3333333, y: 0.3333333, z: 0.3333333, w: 0.3333333}
        outWeight: {x: 0.3333333, y: 0.3333333, z: 0.3333333, w: 0.3333333}
      - serializedVersion: 3
        time: 1.458334
        value: {x: -0.2379223, y: 0.0225523, z: -0.01189858, w: 0.9709495}
        inSlope: {x: 1.080384, y: -0.1641171, z: 0.2920257, w: 0.2533602}
        outSlope: {x: 1.080384, y: -0.1641171, z: 0.2920257, w: 0.2533602}
        tangentMode: 1
        weightedMode: 0
        inWeight: {x: 0.3333333, y: 0.3333333, z: 0.3333333, w: 0.3333333}
        outWeight: {x: 0.3333333, y: 0.3333333, z: 0.3333333, w: 0.3333333}
      - serializedVersion: 3
        time: 1.541667
        value: {x: -0.09230819, y: 0.004158912, z: -0.0008345475, w: 0.9957215}
        inSlope: {x: 2.111412, y: -0.1598519, z: 0.04597158, w: 0.1883829}
        outSlope: {x: 2.111412, y: -0.1598519, z: 0.04597158, w: 0.1883829}
        tangentMode: 1
        weightedMode: 0
        inWeight: {x: 0.3333333, y: 0.3333333, z: 0.3333333, w: 0.3333333}
        outWeight: {x: 0.3333333, y: 0.3333333, z: 0.3333333, w: 0.3333333}
      - serializedVersion: 3
        time: 1.625001
        value: {x: 0.08783057, y: 0.004121595, z: 0.0009627182, w: 0.9961265}
        inSlope: {x: 1.905246, y: 0.1413301, z: 0.02405781, w: -0.1530824}
        outSlope: {x: 1.905246, y: 0.1413301, z: 0.02405781, w: -0.1530824}
        tangentMode: 1
        weightedMode: 0
        inWeight: {x: 0.3333333, y: 0.3333333, z: 0.3333333, w: 0.3333333}
        outWeight: {x: 0.3333333, y: 0.3333333, z: 0.3333333, w: 0.3333333}
      - serializedVersion: 3
        time: 1.708334
        value: {x: 0.2006335, y: 0.0159069, z: 0.002493984, w: 0.9795341}
        inSlope: {x: 0.7625011, y: 0.04790843, z: 0.005882688, w: -0.1487821}
        outSlope: {x: 0.7625011, y: 0.04790843, z: 0.005882688, w: -0.1487821}
        tangentMode: 1
        weightedMode: 0
        inWeight: {x: 0.3333333, y: 0.3333333, z: 0.3333333, w: 0.3333333}
        outWeight: {x: 0.3333333, y: 0.3333333, z: 0.3333333, w: 0.3333333}
      - serializedVersion: 3
        time: 1.833334
        value: {x: 0.2564481, y: 0.01471338, z: 0.002473398, w: 0.9664429}
        inSlope: {x: 0.3429423, y: -0.01760539, z: -0.0005822442, w: -0.09024027}
        outSlope: {x: 0.3429423, y: -0.01760538, z: -0.0005822445, w: -0.09024027}
        tangentMode: 1
        weightedMode: 0
        inWeight: {x: 0.3333333, y: 0.3333333, z: 0.3333333, w: 0.3333333}
        outWeight: {x: 0.3333333, y: 0.3333333, z: 0.3333333, w: 0.3333333}
      - serializedVersion: 3
        time: 2.250001
        value: {x: 0.3081821, y: 0.005818885, z: 0.000619134, w: 0.9513094}
        inSlope: {x: 0.003706452, y: -0.006795416, z: -0.01039057, w: -0.001151552}
        outSlope: {x: 0.003706438, y: -0.006795416, z: -0.01039057, w: -0.001151556}
        tangentMode: 1
        weightedMode: 0
        inWeight: {x: 0.3333333, y: 0.3333333, z: 0.3333333, w: 0.3333333}
        outWeight: {x: 0.3333333, y: 0.3333333, z: 0.3333333, w: 0.3333333}
      - serializedVersion: 3
        time: 2.416667
        value: {x: 0.2543667, y: 0.01795668, z: -0.008903923, w: 0.9669002}
        inSlope: {x: -0.8089851, y: 0.1823507, z: -0.1241768, w: 0.203988}
        outSlope: {x: -0.8089852, y: 0.1823507, z: -0.1241768, w: 0.203988}
        tangentMode: 1
        weightedMode: 0
        inWeight: {x: 0.3333333, y: 0.3333333, z: 0.3333333, w: 0.3333333}
        outWeight: {x: 0.3333333, y: 0.3333333, z: 0.3333333, w: 0.3333333}
      - serializedVersion: 3
        time: 2.625001
        value: {x: 0.00288367, y: 0.07216537, z: -0.04464663, w: 0.9963887}
        inSlope: {x: -1.373974, y: 0.282663, z: -0.1839634, w: -0.02383718}
        outSlope: {x: -1.373974, y: 0.282663, z: -0.1839634, w: -0.02383718}
        tangentMode: 1
        weightedMode: 0
        inWeight: {x: 0.3333333, y: 0.3333333, z: 0.3333333, w: 0.3333333}
        outWeight: {x: 0.3333333, y: 0.3333333, z: 0.3333333, w: 0.3333333}
      - serializedVersion: 3
        time: 2.875001
        value: {x: -0.2406471, y: 0.1199322, z: -0.07557651, w: 0.9602049}
        inSlope: {x: -0.3036547, y: 0.05672648, z: -0.03654387, w: -0.08390796}
        outSlope: {x: -0.3036547, y: 0.05672648, z: -0.03654387, w: -0.08390796}
        tangentMode: 1
        weightedMode: 0
        inWeight: {x: 0.3333333, y: 0.3333333, z: 0.3333333, w: 0.3333333}
        outWeight: {x: 0.3333333, y: 0.3333333, z: 0.3333333, w: 0.3333333}
      - serializedVersion: 3
        time: 2.916667
        value: {x: -0.2472278, y: 0.1211564, z: -0.07636444, w: 0.9583152}
        inSlope: {x: -0.1579409, y: 0.02938029, z: -0.0189104, w: -0.04535363}
        outSlope: {x: 0, y: 0, z: 0, w: 0}
        tangentMode: 1
        weightedMode: 0
        inWeight: {x: 0.3333333, y: 0.3333333, z: 0.3333333, w: 0.3333333}
        outWeight: {x: 0.3333333, y: 0.3333333, z: 0.3333333, w: 0.3333333}
      m_PreInfinity: 2
      m_PostInfinity: 2
      m_RotationOrder: 4
    path: Armature/Root/Bone1/Bone2/Bone3/Bone4
  - curve:
      serializedVersion: 2
      m_Curve:
      - serializedVersion: 3
        time: 0
        value: {x: -0.1356316, y: -0.007841271, z: -0.07668395, w: 0.9877608}
        inSlope: {x: 0, y: 0, z: 0, w: 0}
        outSlope: {x: 0.01064526, y: 0.02301799, z: -0.03252358, w: -0.001014493}
        tangentMode: 1
        weightedMode: 0
        inWeight: {x: 0.3333333, y: 0.3333333, z: 0.3333333, w: 0.3333333}
        outWeight: {x: 0.3333333, y: 0.3333333, z: 0.3333333, w: 0.3333333}
      - serializedVersion: 3
        time: 0.04166698
        value: {x: -0.1350919, y: -0.006666304, z: -0.07832685, w: 0.9877098}
        inSlope: {x: 0.01536885, y: 0.03363178, z: -0.04665301, w: -0.001443383}
        outSlope: {x: 0.01536885, y: 0.03363178, z: -0.04665301, w: -0.001443383}
        tangentMode: 1
        weightedMode: 0
        inWeight: {x: 0.3333333, y: 0.3333333, z: 0.3333333, w: 0.3333333}
        outWeight: {x: 0.3333333, y: 0.3333333, z: 0.3333333, w: 0.3333333}
      - serializedVersion: 3
        time: 0.666667
        value: {x: -0.07589103, y: 0.1160699, z: -0.2465182, w: 0.9591648}
        inSlope: {x: 0.1357399, y: 0.2669317, z: -0.3611549, w: -0.114334}
        outSlope: {x: 0.1357399, y: 0.2669317, z: -0.3611549, w: -0.114334}
        tangentMode: 1
        weightedMode: 0
        inWeight: {x: 0.3333333, y: 0.3333333, z: 0.3333333, w: 0.3333333}
        outWeight: {x: 0.3333333, y: 0.3333333, z: 0.3333333, w: 0.3333333}
      - serializedVersion: 3
        time: 1.208334
        value: {x: -0.02482147, y: 0.2122856, z: -0.3752761, w: 0.9019349}
        inSlope: {x: 0.01726612, y: 0.03118151, z: -0.04124098, w: -0.02394372}
        outSlope: {x: 0.01726612, y: 0.03118151, z: -0.04124098, w: -0.02394372}
        tangentMode: 1
        weightedMode: 0
        inWeight: {x: 0.3333333, y: 0.3333333, z: 0.3333333, w: 0.3333333}
        outWeight: {x: 0.3333333, y: 0.3333333, z: 0.3333333, w: 0.3333333}
      - serializedVersion: 3
        time: 1.250001
        value: {x: -0.02445408, y: 0.2129492, z: -0.3761531, w: 0.901423}
        inSlope: {x: -0.4650541, y: -0.09922913, z: 0.64015, w: 0.2447658}
        outSlope: {x: -0.4650541, y: -0.09922913, z: 0.64015, w: 0.2447658}
        tangentMode: 1
        weightedMode: 0
        inWeight: {x: 0.3333333, y: 0.3333333, z: 0.3333333, w: 0.3333333}
        outWeight: {x: 0.3333333, y: 0.3333333, z: 0.3333333, w: 0.3333333}
      - serializedVersion: 3
        time: 1.291667
        value: {x: -0.06357539, y: 0.2040166, z: -0.3219311, w: 0.9223318}
        inSlope: {x: -1.539372, y: -0.4526197, z: 2.233604, w: 0.6293073}
        outSlope: {x: -1.539372, y: -0.4526196, z: 2.233604, w: 0.6293073}
        tangentMode: 1
        weightedMode: 0
        inWeight: {x: 0.3333333, y: 0.3333333, z: 0.3333333, w: 0.3333333}
        outWeight: {x: 0.3333333, y: 0.3333333, z: 0.3333333, w: 0.3333333}
      - serializedVersion: 3
        time: 1.333334
        value: {x: -0.1527352, y: 0.1752308, z: -0.1900192, w: 0.9538652}
        inSlope: {x: -2.109275, y: -0.8852719, z: 3.278313, w: 0.4630924}
        outSlope: {x: -2.109275, y: -0.8852719, z: 3.278313, w: 0.4630924}
        tangentMode: 1
        weightedMode: 0
        inWeight: {x: 0.3333333, y: 0.3333333, z: 0.3333333, w: 0.3333333}
        outWeight: {x: 0.3333333, y: 0.3333333, z: 0.3333333, w: 0.3333333}
      - serializedVersion: 3
        time: 1.375001
        value: {x: -0.2393496, y: 0.1302434, z: -0.04873624, w: 0.9609231}
        inSlope: {x: -1.4496, y: -1.084141, z: 2.459361, w: 0.04952813}
        outSlope: {x: -1.4496, y: -1.084141, z: 2.459361, w: 0.04952813}
        tangentMode: 1
        weightedMode: 0
        inWeight: {x: 0.3333333, y: 0.3333333, z: 0.3333333, w: 0.3333333}
        outWeight: {x: 0.3333333, y: 0.3333333, z: 0.3333333, w: 0.3333333}
      - serializedVersion: 3
        time: 1.416667
        value: {x: -0.2735353, y: 0.08488613, z: 0.01492764, w: 0.9579927}
        inSlope: {x: 0.1239462, y: -0.9525706, z: 0.7426935, w: 0.1329571}
        outSlope: {x: 0.1239462, y: -0.9525706, z: 0.7426936, w: 0.1329571}
        tangentMode: 1
        weightedMode: 0
        inWeight: {x: 0.3333333, y: 0.3333333, z: 0.3333333, w: 0.3333333}
        outWeight: {x: 0.3333333, y: 0.3333333, z: 0.3333333, w: 0.3333333}
      - serializedVersion: 3
        time: 1.458334
        value: {x: -0.2290199, y: 0.05086296, z: 0.01315391, w: 0.972003}
        inSlope: {x: 1.660575, y: -0.6973225, z: -0.06972993, w: 0.3891362}
        outSlope: {x: 1.660575, y: -0.6973225, z: -0.06972985, w: 0.3891362}
        tangentMode: 1
        weightedMode: 0
        inWeight: {x: 0.3333333, y: 0.3333333, z: 0.3333333, w: 0.3333333}
        outWeight: {x: 0.3333333, y: 0.3333333, z: 0.3333333, w: 0.3333333}
      - serializedVersion: 3
        time: 1.500001
        value: {x: -0.135153, y: 0.02677548, z: 0.009116773, w: 0.9904209}
        inSlope: {x: 2.245999, y: -0.4857072, z: -0.1071458, w: 0.3246938}
        outSlope: {x: 2.245999, y: -0.4857072, z: -0.1071458, w: 0.3246938}
        tangentMode: 1
        weightedMode: 0
        inWeight: {x: 0.3333333, y: 0.3333333, z: 0.3333333, w: 0.3333333}
        outWeight: {x: 0.3333333, y: 0.3333333, z: 0.3333333, w: 0.3333333}
      - serializedVersion: 3
        time: 1.583334
        value: {x: -0.0000003299692, y: -0.00000004812588, z: -0.00000001695624, w: 1}
        inSlope: {x: -0.01075248, y: -0.1991193, z: -0.0809472, w: 0.00003075611}
        outSlope: {x: -0.0107525, y: -0.1991193, z: -0.0809472, w: 0.000030756}
        tangentMode: 1
        weightedMode: 0
        inWeight: {x: 0.3333333, y: 0.3333333, z: 0.3333333, w: 0.3333333}
        outWeight: {x: 0.3333333, y: 0.3333333, z: 0.3333333, w: 0.3333333}
      - serializedVersion: 3
        time: 1.625001
        value: {x: -0.04275007, y: -0.006205979, z: -0.002520515, w: 0.9990634}
        inSlope: {x: -1.463765, y: -0.1113878, z: -0.04319451, w: -0.09020917}
        outSlope: {x: -1.463765, y: -0.1113878, z: -0.04319451, w: -0.09020917}
        tangentMode: 1
        weightedMode: 0
        inWeight: {x: 0.3333333, y: 0.3333333, z: 0.3333333, w: 0.3333333}
        outWeight: {x: 0.3333333, y: 0.3333333, z: 0.3333333, w: 0.3333333}
      - serializedVersion: 3
        time: 1.666667
        value: {x: -0.1219799, y: -0.009282365, z: -0.003599562, w: 0.9924827}
        inSlope: {x: -1.463831, y: -0.04699533, z: -0.01573936, w: -0.1534194}
        outSlope: {x: -1.463831, y: -0.04699533, z: -0.01573936, w: -0.1534194}
        tangentMode: 1
        weightedMode: 0
        inWeight: {x: 0.3333333, y: 0.3333333, z: 0.3333333, w: 0.3333333}
        outWeight: {x: 0.3333333, y: 0.3333333, z: 0.3333333, w: 0.3333333}
      - serializedVersion: 3
        time: 1.708334
        value: {x: -0.1647351, y: -0.01012222, z: -0.003832114, w: 0.9862785}
        inSlope: {x: -0.4391446, y: -0.00810991, z: -0.00243206, w: -0.06231976}
        outSlope: {x: -0.4391446, y: -0.008109909, z: -0.002432061, w: -0.06231976}
        tangentMode: 1
        weightedMode: 0
        inWeight: {x: 0.3333333, y: 0.3333333, z: 0.3333333, w: 0.3333333}
        outWeight: {x: 0.3333333, y: 0.3333333, z: 0.3333333, w: 0.3333333}
      - serializedVersion: 3
        time: 1.791667
        value: {x: -0.1390971, y: -0.009369126, z: -0.003670539, w: 0.9902276}
        inSlope: {x: 0.6068907, y: 0.01863223, z: 0.004250587, w: 0.08183974}
        outSlope: {x: 0.6068907, y: 0.01863223, z: 0.004250587, w: 0.08183974}
        tangentMode: 1
        weightedMode: 0
        inWeight: {x: 0.3333333, y: 0.3333333, z: 0.3333333, w: 0.3333333}
        outWeight: {x: 0.3333333, y: 0.3333333, z: 0.3333333, w: 0.3333333}
      - serializedVersion: 3
        time: 2.000001
        value: {x: 0.0912249, y: -0.002030812, z: -0.001916113, w: 0.9958264}
        inSlope: {x: 1.339761, y: 0.04371407, z: 0.01074887, w: -0.1224563}
        outSlope: {x: 1.339761, y: 0.04371407, z: 0.01074887, w: -0.1224563}
        tangentMode: 1
        weightedMode: 0
        inWeight: {x: 0.3333333, y: 0.3333333, z: 0.3333333, w: 0.3333333}
        outWeight: {x: 0.3333333, y: 0.3333333, z: 0.3333333, w: 0.3333333}
      - serializedVersion: 3
        time: 2.291667
        value: {x: 0.3390629, y: 0.006237237, z: 0.0001682786, w: 0.940743}
        inSlope: {x: 0.01244287, y: 0.0007228946, z: -0.01116707, w: -0.004403022}
        outSlope: {x: 0.01244287, y: 0.0007228949, z: -0.01116707, w: -0.004403012}
        tangentMode: 1
        weightedMode: 0
        inWeight: {x: 0.3333333, y: 0.3333333, z: 0.3333333, w: 0.3333333}
        outWeight: {x: 0.3333333, y: 0.3333333, z: 0.3333333, w: 0.3333333}
      - serializedVersion: 3
        time: 2.583334
        value: {x: 0.1293031, y: 0.0001104751, z: -0.03576198, w: 0.9909601}
        inSlope: {x: -1.155902, y: -0.0332837, z: -0.1904396, w: 0.1433583}
        outSlope: {x: -1.155902, y: -0.0332837, z: -0.1904396, w: 0.1433583}
        tangentMode: 1
        weightedMode: 0
        inWeight: {x: 0.3333333, y: 0.3333333, z: 0.3333333, w: 0.3333333}
        outWeight: {x: 0.3333333, y: 0.3333333, z: 0.3333333, w: 0.3333333}
      - serializedVersion: 3
        time: 2.833334
        value: {x: -0.1129743, y: -0.006757459, z: -0.07396729, w: 0.9908178}
        inSlope: {x: -0.5104668, y: -0.01425042, z: -0.07702468, w: -0.06156158}
        outSlope: {x: -0.5104668, y: -0.01425042, z: -0.07702468, w: -0.06156159}
        tangentMode: 1
        weightedMode: 0
        inWeight: {x: 0.3333333, y: 0.3333333, z: 0.3333333, w: 0.3333333}
        outWeight: {x: 0.3333333, y: 0.3333333, z: 0.3333333, w: 0.3333333}
      - serializedVersion: 3
        time: 2.916667
        value: {x: -0.135419, y: -0.007382709, z: -0.07733287, w: 0.9877383}
        inSlope: {x: -0.1405152, y: -0.003910396, z: -0.02100202, w: -0.02050383}
        outSlope: {x: 0, y: 0, z: 0, w: 0}
        tangentMode: 1
        weightedMode: 0
        inWeight: {x: 0.3333333, y: 0.3333333, z: 0.3333333, w: 0.3333333}
        outWeight: {x: 0.3333333, y: 0.3333333, z: 0.3333333, w: 0.3333333}
      m_PreInfinity: 2
      m_PostInfinity: 2
      m_RotationOrder: 4
    path: Armature/Root/Bone1/Bone2/Bone3/Bone4/Bone5
  - curve:
      serializedVersion: 2
      m_Curve:
      - serializedVersion: 3
        time: 0
        value: {x: 0.4666942, y: -0.0299677, z: -0.1171496, w: 0.8761722}
        inSlope: {x: 0, y: 0, z: 0, w: 0}
        outSlope: {x: -0.03563945, y: 0.01113584, z: -0.0473302, w: 0.01239491}
        tangentMode: 1
        weightedMode: 0
        inWeight: {x: 0.3333333, y: 0.3333333, z: 0.3333333, w: 0.3333333}
        outWeight: {x: 0.3333333, y: 0.3333333, z: 0.3333333, w: 0.3333333}
      - serializedVersion: 3
        time: 0.08333397
        value: {x: 0.461412, y: -0.0283215, z: -0.1241453, w: 0.8780005}
        inSlope: {x: -0.09475671, y: 0.02949714, z: -0.1253414, w: 0.03272628}
        outSlope: {x: -0.09475671, y: 0.02949714, z: -0.1253414, w: 0.03272628}
        tangentMode: 1
        weightedMode: 0
        inWeight: {x: 0.3333333, y: 0.3333333, z: 0.3333333, w: 0.3333333}
        outWeight: {x: 0.3333333, y: 0.3333333, z: 0.3333333, w: 0.3333333}
      - serializedVersion: 3
        time: 0.666667
        value: {x: 0.2328432, y: 0.02897061, z: -0.3574858, w: 0.9039628}
        inSlope: {x: -0.6375852, y: 0.1306164, z: -0.5053198, w: -0.03996066}
        outSlope: {x: -0.6375852, y: 0.1306164, z: -0.5053198, w: -0.03996066}
        tangentMode: 1
        weightedMode: 0
        inWeight: {x: 0.3333333, y: 0.3333333, z: 0.3333333, w: 0.3333333}
        outWeight: {x: 0.3333333, y: 0.3333333, z: 0.3333333, w: 0.3333333}
      - serializedVersion: 3
        time: 1.125001
        value: {x: -0.06561033, y: 0.07211517, z: -0.5140364, w: 0.8522096}
        inSlope: {x: -0.5784005, y: 0.03672389, z: -0.1139511, w: -0.1158432}
        outSlope: {x: -0.5784005, y: 0.03672389, z: -0.1139511, w: -0.1158432}
        tangentMode: 1
        weightedMode: 0
        inWeight: {x: 0.3333333, y: 0.3333333, z: 0.3333333, w: 0.3333333}
        outWeight: {x: 0.3333333, y: 0.3333333, z: 0.3333333, w: 0.3333333}
      - serializedVersion: 3
        time: 1.208334
        value: {x: -0.1117361, y: 0.07406134, z: -0.5194907, w: 0.8438954}
        inSlope: {x: -0.5273279, y: 0.009414571, z: -0.01570547, w: -0.07990204}
        outSlope: {x: -0.5273279, y: 0.009414571, z: -0.01570547, w: -0.07990204}
        tangentMode: 1
        weightedMode: 0
        inWeight: {x: 0.3333333, y: 0.3333333, z: 0.3333333, w: 0.3333333}
        outWeight: {x: 0.3333333, y: 0.3333333, z: 0.3333333, w: 0.3333333}
      - serializedVersion: 3
        time: 1.250001
        value: {x: -0.133151, y: 0.07415707, z: -0.5190945, w: 0.8410187}
        inSlope: {x: -0.5431275, y: -0.05646344, z: 0.7586191, w: 0.3508248}
        outSlope: {x: -0.5431275, y: -0.05646344, z: 0.7586192, w: 0.3508248}
        tangentMode: 1
        weightedMode: 0
        inWeight: {x: 0.3333333, y: 0.3333333, z: 0.3333333, w: 0.3333333}
        outWeight: {x: 0.3333333, y: 0.3333333, z: 0.3333333, w: 0.3333333}
      - serializedVersion: 3
        time: 1.291667
        value: {x: -0.1569965, y: 0.06935613, z: -0.4562733, w: 0.8731303}
        inSlope: {x: -0.5678735, y: -0.2236259, z: 2.634337, w: 1.130225}
        outSlope: {x: -0.5678735, y: -0.2236259, z: 2.634337, w: 1.130225}
        tangentMode: 1
        weightedMode: 0
        inWeight: {x: 0.3333333, y: 0.3333333, z: 0.3333333, w: 0.3333333}
        outWeight: {x: 0.3333333, y: 0.3333333, z: 0.3333333, w: 0.3333333}
      - serializedVersion: 3
        time: 1.333334
        value: {x: -0.1804736, y: 0.05552155, z: -0.2995662, w: 0.9352041}
        inSlope: {x: -0.426405, y: -0.4034627, z: 4.016709, w: 1.19937}
        outSlope: {x: -0.426405, y: -0.4034626, z: 4.016709, w: 1.19937}
        tangentMode: 1
        weightedMode: 0
        inWeight: {x: 0.3333333, y: 0.3333333, z: 0.3333333, w: 0.3333333}
        outWeight: {x: 0.3333333, y: 0.3333333, z: 0.3333333, w: 0.3333333}
      - serializedVersion: 3
        time: 1.375001
        value: {x: -0.1925305, y: 0.03573398, z: -0.121545, w: 0.9730785}
        inSlope: {x: -0.1326724, y: -0.4498546, z: 3.26441, w: 0.5487672}
        outSlope: {x: -0.1326724, y: -0.4498546, z: 3.26441, w: 0.5487672}
        tangentMode: 1
        weightedMode: 0
        inWeight: {x: 0.3333333, y: 0.3333333, z: 0.3333333, w: 0.3333333}
        outWeight: {x: 0.3333333, y: 0.3333333, z: 0.3333333, w: 0.3333333}
      - serializedVersion: 3
        time: 1.416667
        value: {x: -0.1915298, y: 0.01803379, z: -0.02753216, w: 0.9809349}
        inSlope: {x: 0.4058186, y: -0.3391474, z: 1.321668, w: 0.1698268}
        outSlope: {x: 0.4058186, y: -0.3391474, z: 1.321668, w: 0.1698269}
        tangentMode: 1
        weightedMode: 0
        inWeight: {x: 0.3333333, y: 0.3333333, z: 0.3333333, w: 0.3333333}
        outWeight: {x: 0.3333333, y: 0.3333333, z: 0.3333333, w: 0.3333333}
      - serializedVersion: 3
        time: 1.458334
        value: {x: -0.1587121, y: 0.007471887, z: -0.01140732, w: 0.9872307}
        inSlope: {x: 1.175408, y: -0.1899711, z: 0.2900285, w: 0.176026}
        outSlope: {x: 1.175408, y: -0.1899711, z: 0.2900285, w: 0.176026}
        tangentMode: 1
        weightedMode: 0
        inWeight: {x: 0.3333333, y: 0.3333333, z: 0.3333333, w: 0.3333333}
        outWeight: {x: 0.3333333, y: 0.3333333, z: 0.3333333, w: 0.3333333}
      - serializedVersion: 3
        time: 1.541667
        value: {x: -0.02918825, y: 0.0002748203, z: -0.000419579, w: 0.9995738}
        inSlope: {x: 1.122948, y: -0.02643202, z: 0.04035519, w: 0.05275509}
        outSlope: {x: 1.122948, y: -0.02643202, z: 0.04035519, w: 0.05275509}
        tangentMode: 1
        weightedMode: 0
        inWeight: {x: 0.3333333, y: 0.3333333, z: 0.3333333, w: 0.3333333}
        outWeight: {x: 0.3333333, y: 0.3333333, z: 0.3333333, w: 0.3333333}
      - serializedVersion: 3
        time: 1.583334
        value: {x: -0.0000001039498, y: 0.0000001027286, z: -0.0000000495572, w: 1}
        inSlope: {x: 0.1938481, y: 0.159291, z: -0.0711469, w: 0.002751568}
        outSlope: {x: 0.1938481, y: 0.159291, z: -0.0711469, w: 0.002751568}
        tangentMode: 1
        weightedMode: 0
        inWeight: {x: 0.3333333, y: 0.3333333, z: 0.3333333, w: 0.3333333}
        outWeight: {x: 0.3333333, y: 0.3333333, z: 0.3333333, w: 0.3333333}
      - serializedVersion: 3
        time: 1.666667
        value: {x: -0.03722803, y: 0.03869918, z: -0.02295142, w: 0.9982934}
        inSlope: {x: -0.4474635, y: 0.4651454, z: -0.4785036, w: -0.04215226}
        outSlope: {x: -0.4474636, y: 0.4651454, z: -0.4785036, w: -0.04215226}
        tangentMode: 1
        weightedMode: 0
        inWeight: {x: 0.3333333, y: 0.3333333, z: 0.3333333, w: 0.3333333}
        outWeight: {x: 0.3333333, y: 0.3333333, z: 0.3333333, w: 0.3333333}
      - serializedVersion: 3
        time: 1.791667
        value: {x: -0.04866733, y: 0.02562525, z: -0.1019334, w: 0.9932696}
        inSlope: {x: 0.0907039, y: -0.5419444, z: -0.6848037, w: -0.05375583}
        outSlope: {x: 0.0907039, y: -0.5419444, z: -0.6848037, w: -0.05375583}
        tangentMode: 1
        weightedMode: 0
        inWeight: {x: 0.3333333, y: 0.3333333, z: 0.3333333, w: 0.3333333}
        outWeight: {x: 0.3333333, y: 0.3333333, z: 0.3333333, w: 0.3333333}
      - serializedVersion: 3
        time: 1.916667
        value: {x: -0.007875772, y: -0.0494626, z: -0.1755853, w: 0.9831893}
        inSlope: {x: 0.6901404, y: -0.3869694, z: -0.3677512, w: -0.08007759}
        outSlope: {x: 0.6901404, y: -0.3869694, z: -0.3677512, w: -0.08007759}
        tangentMode: 1
        weightedMode: 0
        inWeight: {x: 0.3333333, y: 0.3333333, z: 0.3333333, w: 0.3333333}
        outWeight: {x: 0.3333333, y: 0.3333333, z: 0.3333333, w: 0.3333333}
      - serializedVersion: 3
        time: 2.000001
        value: {x: 0.09238252, y: -0.05792429, z: -0.1829868, w: 0.9770497}
        inSlope: {x: 1.992772, y: 0.1133591, z: 0.2722657, w: -0.1706081}
        outSlope: {x: 1.992772, y: 0.113359, z: 0.2722657, w: -0.1706081}
        tangentMode: 1
        weightedMode: 0
        inWeight: {x: 0.3333333, y: 0.3333333, z: 0.3333333, w: 0.3333333}
        outWeight: {x: 0.3333333, y: 0.3333333, z: 0.3333333, w: 0.3333333}
      - serializedVersion: 3
        time: 2.083334
        value: {x: 0.3127955, y: -0.03781367, z: -0.1320633, w: 0.9398342}
        inSlope: {x: 2.834919, y: 0.3227412, z: 0.8359702, w: -0.8192769}
        outSlope: {x: 2.834919, y: 0.3227412, z: 0.8359702, w: -0.8192769}
        tangentMode: 1
        weightedMode: 0
        inWeight: {x: 0.3333333, y: 0.3333333, z: 0.3333333, w: 0.3333333}
        outWeight: {x: 0.3333333, y: 0.3333333, z: 0.3333333, w: 0.3333333}
      - serializedVersion: 3
        time: 2.166667
        value: {x: 0.5271257, y: -0.009299285, z: -0.05702435, w: 0.8478209}
        inSlope: {x: 2.014072, y: 0.3032144, z: 0.807497, w: -1.156192}
        outSlope: {x: 2.014072, y: 0.3032144, z: 0.8074969, w: -1.156192}
        tangentMode: 1
        weightedMode: 0
        inWeight: {x: 0.3333333, y: 0.3333333, z: 0.3333333, w: 0.3333333}
        outWeight: {x: 0.3333333, y: 0.3333333, z: 0.3333333, w: 0.3333333}
      - serializedVersion: 3
        time: 2.250001
        value: {x: 0.6396781, y: 0.009371734, z: -0.006877662, w: 0.768555}
        inSlope: {x: 0.6798158, y: 0.1204776, z: 0.3252306, w: -0.5417783}
        outSlope: {x: 0.6798158, y: 0.1204776, z: 0.3252306, w: -0.5417783}
        tangentMode: 1
        weightedMode: 0
        inWeight: {x: 0.3333333, y: 0.3333333, z: 0.3333333, w: 0.3333333}
        outWeight: {x: 0.3333333, y: 0.3333333, z: 0.3333333, w: 0.3333333}
      - serializedVersion: 3
        time: 2.375001
        value: {x: 0.6459416, y: 0.01002602, z: -0.005471455, w: 0.7633014}
        inSlope: {x: -0.1863825, y: -0.04534584, z: -0.1308755, w: 0.156461}
        outSlope: {x: -0.1863825, y: -0.04534584, z: -0.1308755, w: 0.156461}
        tangentMode: 1
        weightedMode: 0
        inWeight: {x: 0.3333333, y: 0.3333333, z: 0.3333333, w: 0.3333333}
        outWeight: {x: 0.3333333, y: 0.3333333, z: 0.3333333, w: 0.3333333}
      - serializedVersion: 3
        time: 2.708334
        value: {x: 0.5176316, y: -0.01891397, z: -0.08846419, w: 0.8508078}
        inSlope: {x: -0.4197253, y: -0.08810967, z: -0.251023, w: 0.228059}
        outSlope: {x: -0.4197253, y: -0.08810967, z: -0.251023, w: 0.228059}
        tangentMode: 1
        weightedMode: 0
        inWeight: {x: 0.3333333, y: 0.3333333, z: 0.3333333, w: 0.3333333}
        outWeight: {x: 0.3333333, y: 0.3333333, z: 0.3333333, w: 0.3333333}
      - serializedVersion: 3
        time: 2.916667
        value: {x: 0.4654162, y: -0.02958298, z: -0.1187809, w: 0.8765864}
        inSlope: {x: -0.06236552, y: -0.01243545, z: -0.03525156, w: 0.02806134}
        outSlope: {x: 0, y: 0, z: 0, w: 0}
        tangentMode: 1
        weightedMode: 0
        inWeight: {x: 0.3333333, y: 0.3333333, z: 0.3333333, w: 0.3333333}
        outWeight: {x: 0.3333333, y: 0.3333333, z: 0.3333333, w: 0.3333333}
      m_PreInfinity: 2
      m_PostInfinity: 2
      m_RotationOrder: 4
    path: Armature/Root/Bone1/Bone2/Bone3/Bone4/Bone5/Bone6
  - curve:
      serializedVersion: 2
      m_Curve:
      - serializedVersion: 3
        time: 0
        value: {x: 0.4669547, y: -0.04330459, z: -0.02430477, w: 0.8828949}
        inSlope: {x: 0, y: 0, z: 0, w: 0}
        outSlope: {x: 0.0008961453, y: -0.009579493, z: -0.05147248, w: -0.00261362}
        tangentMode: 1
        weightedMode: 0
        inWeight: {x: 0.3333333, y: 0.3333333, z: 0.3333333, w: 0.3333333}
        outWeight: {x: 0.3333333, y: 0.3333333, z: 0.3333333, w: 0.3333333}
      - serializedVersion: 3
        time: 0.04166698
        value: {x: 0.4670007, y: -0.04380494, z: -0.02699317, w: 0.8827587}
        inSlope: {x: 0.001319651, y: -0.01456777, z: -0.07827228, w: -0.003961081}
        outSlope: {x: 0.001319651, y: -0.01456777, z: -0.07827228, w: -0.003961081}
        tangentMode: 1
        weightedMode: 0
        inWeight: {x: 0.3333333, y: 0.3333333, z: 0.3333333, w: 0.3333333}
        outWeight: {x: 0.3333333, y: 0.3333333, z: 0.3333333, w: 0.3333333}
      - serializedVersion: 3
        time: 0.958334
        value: {x: 0.1775633, y: -0.1277966, z: -0.4808072, w: 0.8490958}
        inSlope: {x: -0.9560941, y: -0.08156051, z: -0.4488871, w: -0.06793375}
        outSlope: {x: -0.9560941, y: -0.08156052, z: -0.4488871, w: -0.06793375}
        tangentMode: 1
        weightedMode: 0
        inWeight: {x: 0.3333333, y: 0.3333333, z: 0.3333333, w: 0.3333333}
        outWeight: {x: 0.3333333, y: 0.3333333, z: 0.3333333, w: 0.3333333}
      - serializedVersion: 3
        time: 1.208334
        value: {x: -0.1259851, y: -0.1376621, z: -0.5397646, w: 0.8208722}
        inSlope: {x: -1.454468, y: 0.01652657, z: 0.04220405, w: -0.1954922}
        outSlope: {x: -1.454468, y: 0.01652657, z: 0.04220406, w: -0.1954922}
        tangentMode: 1
        weightedMode: 0
        inWeight: {x: 0.3333333, y: 0.3333333, z: 0.3333333, w: 0.3333333}
        outWeight: {x: 0.3333333, y: 0.3333333, z: 0.3333333, w: 0.3333333}
      - serializedVersion: 3
        time: 1.250001
        value: {x: -0.1879712, y: -0.1364919, z: -0.5356516, w: 0.8118585}
        inSlope: {x: -1.752114, y: 0.2814758, z: 0.919196, w: 0.1783635}
        outSlope: {x: -1.752115, y: 0.2814758, z: 0.919196, w: 0.1783635}
        tangentMode: 1
        weightedMode: 0
        inWeight: {x: 0.3333333, y: 0.3333333, z: 0.3333333, w: 0.3333333}
        outWeight: {x: 0.3333333, y: 0.3333333, z: 0.3333333, w: 0.3333333}
      - serializedVersion: 3
        time: 1.291667
        value: {x: -0.2719938, y: -0.1142061, z: -0.463166, w: 0.8357354}
        inSlope: {x: -2.21555, y: 0.9121286, z: 2.98949, w: 0.8246071}
        outSlope: {x: -2.21555, y: 0.9121286, z: 2.98949, w: 0.8246071}
        tangentMode: 1
        weightedMode: 0
        inWeight: {x: 0.3333333, y: 0.3333333, z: 0.3333333, w: 0.3333333}
        outWeight: {x: 0.3333333, y: 0.3333333, z: 0.3333333, w: 0.3333333}
      - serializedVersion: 3
        time: 1.333334
        value: {x: -0.3725998, y: -0.06048113, z: -0.2865272, w: 0.8805757}
        inSlope: {x: -2.016861, y: 1.335123, z: 4.449574, w: 0.6895363}
        outSlope: {x: -2.016861, y: 1.335123, z: 4.449574, w: 0.6895363}
        tangentMode: 1
        weightedMode: 0
        inWeight: {x: 0.3333333, y: 0.3333333, z: 0.3333333, w: 0.3333333}
        outWeight: {x: 0.3333333, y: 0.3333333, z: 0.3333333, w: 0.3333333}
      - serializedVersion: 3
        time: 1.375001
        value: {x: -0.4400668, y: -0.002944998, z: -0.09236529, w: 0.8931972}
        inSlope: {x: -0.957319, y: 0.9887896, z: 3.38939, w: 0.1316693}
        outSlope: {x: -0.957319, y: 0.9887896, z: 3.389389, w: 0.1316693}
        tangentMode: 1
        weightedMode: 0
        inWeight: {x: 0.3333333, y: 0.3333333, z: 0.3333333, w: 0.3333333}
        outWeight: {x: 0.3333333, y: 0.3333333, z: 0.3333333, w: 0.3333333}
      - serializedVersion: 3
        time: 1.416667
        value: {x: -0.4523768, y: 0.02191806, z: -0.00407791, w: 0.8915483}
        inSlope: {x: 0.7186332, y: 0.2932258, z: 1.080982, w: 0.3775508}
        outSlope: {x: 0.7186332, y: 0.2932258, z: 1.080982, w: 0.3775508}
        tangentMode: 1
        weightedMode: 0
        inWeight: {x: 0.3333333, y: 0.3333333, z: 0.3333333, w: 0.3333333}
        outWeight: {x: 0.3333333, y: 0.3333333, z: 0.3333333, w: 0.3333333}
      - serializedVersion: 3
        time: 1.458334
        value: {x: -0.38018, y: 0.0214901, z: -0.002284747, w: 0.92466}
        inSlope: {x: 2.686288, y: -0.03050569, z: 0.02421462, w: 0.9815501}
        outSlope: {x: 2.686288, y: -0.03050569, z: 0.02421469, w: 0.9815501}
        tangentMode: 1
        weightedMode: 0
        inWeight: {x: 0.3333333, y: 0.3333333, z: 0.3333333, w: 0.3333333}
        outWeight: {x: 0.3333333, y: 0.3333333, z: 0.3333333, w: 0.3333333}
      - serializedVersion: 3
        time: 1.500001
        value: {x: -0.2285177, y: 0.0193759, z: -0.002060004, w: 0.9733447}
        inSlope: {x: 3.707367, y: -0.1046418, z: 0.005841136, w: 0.8725948}
        outSlope: {x: 3.707367, y: -0.1046418, z: 0.005841137, w: 0.8725948}
        tangentMode: 1
        weightedMode: 0
        inWeight: {x: 0.3333333, y: 0.3333333, z: 0.3333333, w: 0.3333333}
        outWeight: {x: 0.3333333, y: 0.3333333, z: 0.3333333, w: 0.3333333}
      - serializedVersion: 3
        time: 1.541667
        value: {x: -0.07123402, y: 0.01277003, z: -0.001797988, w: 0.9973763}
        inSlope: {x: 2.742233, y: -0.2325157, z: 0.02472088, w: 0.3198673}
        outSlope: {x: 2.742233, y: -0.2325157, z: 0.02472088, w: 0.3198673}
        tangentMode: 1
        weightedMode: 0
        inWeight: {x: 0.3333333, y: 0.3333333, z: 0.3333333, w: 0.3333333}
        outWeight: {x: 0.3333333, y: 0.3333333, z: 0.3333333, w: 0.3333333}
      - serializedVersion: 3
        time: 1.583334
        value: {x: -0.0000001786282, y: -0.0000004032192, z: 0.00000007849814, w: 1}
        inSlope: {x: 0.5867749, y: -0.7897887, z: 0.129953, w: 0.0111014}
        outSlope: {x: 0.5867749, y: -0.7897887, z: 0.129953, w: 0.0111014}
        tangentMode: 1
        weightedMode: 0
        inWeight: {x: 0.3333333, y: 0.3333333, z: 0.3333333, w: 0.3333333}
        outWeight: {x: 0.3333333, y: 0.3333333, z: 0.3333333, w: 0.3333333}
      - serializedVersion: 3
        time: 1.625001
        value: {x: -0.02233574, y: -0.05304619, z: 0.009031508, w: 0.9983014}
        inSlope: {x: -0.9310157, y: -1.701534, z: 0.3240817, w: -0.1622234}
        outSlope: {x: -0.9310157, y: -1.701534, z: 0.3240817, w: -0.1622234}
        tangentMode: 1
        weightedMode: 0
        inWeight: {x: 0.3333333, y: 0.3333333, z: 0.3333333, w: 0.3333333}
        outWeight: {x: 0.3333333, y: 0.3333333, z: 0.3333333, w: 0.3333333}
      - serializedVersion: 3
        time: 1.666667
        value: {x: -0.07758415, y: -0.1417939, z: 0.02700669, w: 0.9864815}
        inSlope: {x: -1.51155, y: -1.891257, z: 0.4856873, w: -0.3998747}
        outSlope: {x: -1.51155, y: -1.891257, z: 0.4856872, w: -0.3998746}
        tangentMode: 1
        weightedMode: 0
        inWeight: {x: 0.3333333, y: 0.3333333, z: 0.3333333, w: 0.3333333}
        outWeight: {x: 0.3333333, y: 0.3333333, z: 0.3333333, w: 0.3333333}
      - serializedVersion: 3
        time: 1.708334
        value: {x: -0.1482979, y: -0.2106501, z: 0.04950534, w: 0.9649785}
        inSlope: {x: -1.726738, y: -1.261044, z: 0.5556196, w: -0.5512534}
        outSlope: {x: -1.726738, y: -1.261044, z: 0.5556196, w: -0.5512534}
        tangentMode: 1
        weightedMode: 0
        inWeight: {x: 0.3333333, y: 0.3333333, z: 0.3333333, w: 0.3333333}
        outWeight: {x: 0.3333333, y: 0.3333333, z: 0.3333333, w: 0.3333333}
      - serializedVersion: 3
        time: 1.791667
        value: {x: -0.2916212, y: -0.2730913, z: 0.09664421, w: 0.911613}
        inSlope: {x: -1.597378, y: -0.5251852, z: 0.5357108, w: -0.7164727}
        outSlope: {x: -1.597378, y: -0.5251851, z: 0.5357108, w: -0.7164727}
        tangentMode: 1
        weightedMode: 0
        inWeight: {x: 0.3333333, y: 0.3333333, z: 0.3333333, w: 0.3333333}
        outWeight: {x: 0.3333333, y: 0.3333333, z: 0.3333333, w: 0.3333333}
      - serializedVersion: 3
        time: 1.916667
        value: {x: -0.4399806, y: -0.3058756, z: 0.1473432, w: 0.8313527}
        inSlope: {x: -0.5625448, y: -0.07352799, z: 0.1952326, w: -0.3482697}
        outSlope: {x: -0.5625448, y: -0.073528, z: 0.1952326, w: -0.3482697}
        tangentMode: 1
        weightedMode: 0
        inWeight: {x: 0.3333333, y: 0.3333333, z: 0.3333333, w: 0.3333333}
        outWeight: {x: 0.3333333, y: 0.3333333, z: 0.3333333, w: 0.3333333}
      - serializedVersion: 3
        time: 2.000001
        value: {x: -0.4261116, y: -0.2976544, z: 0.1477938, w: 0.8414201}
        inSlope: {x: 1.2281, y: 0.4471052, z: -0.189023, w: 0.759252}
        outSlope: {x: 1.2281, y: 0.4471052, z: -0.189023, w: 0.759252}
        tangentMode: 1
        weightedMode: 0
        inWeight: {x: 0.3333333, y: 0.3333333, z: 0.3333333, w: 0.3333333}
        outWeight: {x: 0.3333333, y: 0.3333333, z: 0.3333333, w: 0.3333333}
      - serializedVersion: 3
        time: 2.083334
        value: {x: -0.2293085, y: -0.2238018, z: 0.1157807, w: 0.940173}
        inSlope: {x: 3.275801, y: 1.280542, z: -0.572488, w: 1.116235}
        outSlope: {x: 3.275801, y: 1.280542, z: -0.572488, w: 1.116235}
        tangentMode: 1
        weightedMode: 0
        inWeight: {x: 0.3333333, y: 0.3333333, z: 0.3333333, w: 0.3333333}
        outWeight: {x: 0.3333333, y: 0.3333333, z: 0.3333333, w: 0.3333333}
      - serializedVersion: 3
        time: 2.125001
        value: {x: -0.07722911, y: -0.163155, z: 0.08827195, w: 0.9796041}
        inSlope: {x: 3.695048, y: 1.503127, z: -0.6952423, w: 0.6019461}
        outSlope: {x: 3.695048, y: 1.503127, z: -0.6952423, w: 0.6019461}
        tangentMode: 1
        weightedMode: 0
        inWeight: {x: 0.3333333, y: 0.3333333, z: 0.3333333, w: 0.3333333}
        outWeight: {x: 0.3333333, y: 0.3333333, z: 0.3333333, w: 0.3333333}
      - serializedVersion: 3
        time: 2.166667
        value: {x: 0.07861092, y: -0.09854176, z: 0.05784408, w: 0.9903353}
        inSlope: {x: 3.443459, y: 1.438563, z: -0.6934643, w: -0.03932652}
        outSlope: {x: 3.443459, y: 1.438563, z: -0.6934643, w: -0.03932652}
        tangentMode: 1
        weightedMode: 0
        inWeight: {x: 0.3333333, y: 0.3333333, z: 0.3333333, w: 0.3333333}
        outWeight: {x: 0.3333333, y: 0.3333333, z: 0.3333333, w: 0.3333333}
      - serializedVersion: 3
        time: 2.250001
        value: {x: 0.300311, y: -0.006696973, z: 0.01054744, w: 0.9537595}
        inSlope: {x: 1.629132, y: 0.5955678, z: -0.3637447, w: -0.4550894}
        outSlope: {x: 1.629132, y: 0.5955678, z: -0.3637447, w: -0.4550894}
        tangentMode: 1
        weightedMode: 0
        inWeight: {x: 0.3333333, y: 0.3333333, z: 0.3333333, w: 0.3333333}
        outWeight: {x: 0.3333333, y: 0.3333333, z: 0.3333333, w: 0.3333333}
      - serializedVersion: 3
        time: 2.333334
        value: {x: 0.3654836, y: 0.005678117, z: -0.004561731, w: 0.9307893}
        inSlope: {x: 0.4492078, y: -0.02967227, z: -0.1054531, w: -0.1760302}
        outSlope: {x: 0.4492079, y: -0.02967228, z: -0.105453, w: -0.1760302}
        tangentMode: 1
        weightedMode: 0
        inWeight: {x: 0.3333333, y: 0.3333333, z: 0.3333333, w: 0.3333333}
        outWeight: {x: 0.3333333, y: 0.3333333, z: 0.3333333, w: 0.3333333}
      - serializedVersion: 3
        time: 2.916667
        value: {x: 0.4669507, y: -0.04349488, z: -0.0253256, w: 0.8828499}
        inSlope: {x: 0.007363664, y: -0.01584038, z: -0.0005347498, w: -0.004683561}
        outSlope: {x: 0, y: 0, z: 0, w: 0}
        tangentMode: 1
        weightedMode: 0
        inWeight: {x: 0.3333333, y: 0.3333333, z: 0.3333333, w: 0.3333333}
        outWeight: {x: 0.3333333, y: 0.3333333, z: 0.3333333, w: 0.3333333}
      m_PreInfinity: 2
      m_PostInfinity: 2
      m_RotationOrder: 4
    path: Armature/Root/Bone1/Bone2/Bone3/Bone4/Bone5/Bone6/Bone7
  - curve:
      serializedVersion: 2
      m_Curve:
      - serializedVersion: 3
        time: 0
        value: {x: -0.7071068, y: 0, z: 0, w: 0.7071067}
        inSlope: {x: 0, y: 0, z: 0, w: 0}
        outSlope: {x: 0, y: 0, z: 0, w: 0}
        tangentMode: 1
        weightedMode: 0
        inWeight: {x: 0.3333333, y: 0.3333333, z: 0.3333333, w: 0.3333333}
        outWeight: {x: 0.3333333, y: 0.3333333, z: 0.3333333, w: 0.3333333}
      - serializedVersion: 3
        time: 3
        value: {x: -0.7071068, y: 0, z: 0, w: 0.7071067}
        inSlope: {x: 0, y: 0, z: 0, w: 0}
        outSlope: {x: 0, y: 0, z: 0, w: 0}
        tangentMode: 1
        weightedMode: 0
        inWeight: {x: 0.3333333, y: 0.3333333, z: 0.3333333, w: 0.3333333}
        outWeight: {x: 0.3333333, y: 0.3333333, z: 0.3333333, w: 0.3333333}
      m_PreInfinity: 2
      m_PostInfinity: 2
      m_RotationOrder: 4
    path: Armature
  - curve:
      serializedVersion: 2
      m_Curve:
      - serializedVersion: 3
        time: 0
        value: {x: 0.7071068, y: 0, z: 0, w: 0.7071067}
        inSlope: {x: 0, y: 0, z: 0, w: 0}
        outSlope: {x: 0, y: 0, z: 0, w: 0}
        tangentMode: 1
        weightedMode: 0
        inWeight: {x: 0.3333333, y: 0.3333333, z: 0.3333333, w: 0.3333333}
        outWeight: {x: 0.3333333, y: 0.3333333, z: 0.3333333, w: 0.3333333}
      - serializedVersion: 3
        time: 3
        value: {x: 0.7071068, y: 0, z: 0, w: 0.7071067}
        inSlope: {x: 0, y: 0, z: 0, w: 0}
        outSlope: {x: 0, y: 0, z: 0, w: 0}
        tangentMode: 1
        weightedMode: 0
        inWeight: {x: 0.3333333, y: 0.3333333, z: 0.3333333, w: 0.3333333}
        outWeight: {x: 0.3333333, y: 0.3333333, z: 0.3333333, w: 0.3333333}
      m_PreInfinity: 2
      m_PostInfinity: 2
      m_RotationOrder: 4
    path: Armature/Root
  m_CompressedRotationCurves: []
  m_EulerCurves: []
  m_PositionCurves:
  - curve:
      serializedVersion: 2
      m_Curve:
      - serializedVersion: 3
        time: 0
        value: {x: 0, y: 0, z: 0}
        inSlope: {x: 0, y: 0, z: 0}
        outSlope: {x: 0, y: 0, z: 0}
        tangentMode: 1
        weightedMode: 0
        inWeight: {x: 0.3333333, y: 0.3333333, z: 0.3333333}
        outWeight: {x: 0.3333333, y: 0.3333333, z: 0.3333333}
      - serializedVersion: 3
        time: 3
        value: {x: 0, y: 0, z: 0}
        inSlope: {x: 0, y: 0, z: 0}
        outSlope: {x: 0, y: 0, z: 0}
        tangentMode: 1
        weightedMode: 0
        inWeight: {x: 0.3333333, y: 0.3333333, z: 0.3333333}
        outWeight: {x: 0.3333333, y: 0.3333333, z: 0.3333333}
      m_PreInfinity: 2
      m_PostInfinity: 2
      m_RotationOrder: 4
    path: Armature
  - curve:
      serializedVersion: 2
      m_Curve:
      - serializedVersion: 3
        time: 0
        value: {x: 0, y: 0, z: -0.008}
        inSlope: {x: 0, y: 0, z: 0}
        outSlope: {x: 0, y: 0, z: 0}
        tangentMode: 1
        weightedMode: 0
        inWeight: {x: 0.3333333, y: 0.3333333, z: 0.3333333}
        outWeight: {x: 0.3333333, y: 0.3333333, z: 0.3333333}
      - serializedVersion: 3
        time: 3
        value: {x: 0, y: 0, z: -0.008}
        inSlope: {x: 0, y: 0, z: 0}
        outSlope: {x: 0, y: 0, z: 0}
        tangentMode: 1
        weightedMode: 0
        inWeight: {x: 0.3333333, y: 0.3333333, z: 0.3333333}
        outWeight: {x: 0.3333333, y: 0.3333333, z: 0.3333333}
      m_PreInfinity: 2
      m_PostInfinity: 2
      m_RotationOrder: 4
    path: Armature/Root
  - curve:
      serializedVersion: 2
      m_Curve:
      - serializedVersion: 3
        time: 0
        value: {x: 0, y: 0.008, z: 0}
        inSlope: {x: 0, y: 0, z: 0}
        outSlope: {x: 0, y: 0, z: 0}
        tangentMode: 1
        weightedMode: 0
        inWeight: {x: 0.3333333, y: 0.3333333, z: 0.3333333}
        outWeight: {x: 0.3333333, y: 0.3333333, z: 0.3333333}
      - serializedVersion: 3
        time: 3
        value: {x: 0, y: 0.008, z: 0}
        inSlope: {x: 0, y: 0, z: 0}
        outSlope: {x: 0, y: 0, z: 0}
        tangentMode: 1
        weightedMode: 0
        inWeight: {x: 0.3333333, y: 0.3333333, z: 0.3333333}
        outWeight: {x: 0.3333333, y: 0.3333333, z: 0.3333333}
      m_PreInfinity: 2
      m_PostInfinity: 2
      m_RotationOrder: 4
    path: Armature/Root/Bone1
  - curve:
      serializedVersion: 2
      m_Curve:
      - serializedVersion: 3
        time: 0
        value: {x: 0, y: 0.008203726, z: 0}
        inSlope: {x: 0, y: 0, z: 0}
        outSlope: {x: 0, y: 0, z: 0}
        tangentMode: 1
        weightedMode: 0
        inWeight: {x: 0.3333333, y: 0.3333333, z: 0.3333333}
        outWeight: {x: 0.3333333, y: 0.3333333, z: 0.3333333}
      - serializedVersion: 3
        time: 3
        value: {x: 0, y: 0.008203726, z: 0}
        inSlope: {x: 0, y: 0, z: 0}
        outSlope: {x: 0, y: 0, z: 0}
        tangentMode: 1
        weightedMode: 0
        inWeight: {x: 0.3333333, y: 0.3333333, z: 0.3333333}
        outWeight: {x: 0.3333333, y: 0.3333333, z: 0.3333333}
      m_PreInfinity: 2
      m_PostInfinity: 2
      m_RotationOrder: 4
    path: Armature/Root/Bone1/Bone2
  - curve:
      serializedVersion: 2
      m_Curve:
      - serializedVersion: 3
        time: 0
        value: {x: 0, y: 0.005886933, z: 0}
        inSlope: {x: 0, y: 0, z: 0}
        outSlope: {x: 0, y: 0, z: 0}
        tangentMode: 1
        weightedMode: 0
        inWeight: {x: 0.3333333, y: 0.3333333, z: 0.3333333}
        outWeight: {x: 0.3333333, y: 0.3333333, z: 0.3333333}
      - serializedVersion: 3
        time: 3
        value: {x: 0, y: 0.005886933, z: 0}
        inSlope: {x: 0, y: 0, z: 0}
        outSlope: {x: 0, y: 0, z: 0}
        tangentMode: 1
        weightedMode: 0
        inWeight: {x: 0.3333333, y: 0.3333333, z: 0.3333333}
        outWeight: {x: 0.3333333, y: 0.3333333, z: 0.3333333}
      m_PreInfinity: 2
      m_PostInfinity: 2
      m_RotationOrder: 4
    path: Armature/Root/Bone1/Bone2/Bone3
  - curve:
      serializedVersion: 2
      m_Curve:
      - serializedVersion: 3
        time: 0
        value: {x: 0, y: 0.005810974, z: 0}
        inSlope: {x: 0, y: 0, z: 0}
        outSlope: {x: 0, y: 0, z: 0}
        tangentMode: 1
        weightedMode: 0
        inWeight: {x: 0.3333333, y: 0.3333333, z: 0.3333333}
        outWeight: {x: 0.3333333, y: 0.3333333, z: 0.3333333}
      - serializedVersion: 3
        time: 3
        value: {x: 0, y: 0.005810974, z: 0}
        inSlope: {x: 0, y: 0, z: 0}
        outSlope: {x: 0, y: 0, z: 0}
        tangentMode: 1
        weightedMode: 0
        inWeight: {x: 0.3333333, y: 0.3333333, z: 0.3333333}
        outWeight: {x: 0.3333333, y: 0.3333333, z: 0.3333333}
      m_PreInfinity: 2
      m_PostInfinity: 2
      m_RotationOrder: 4
    path: Armature/Root/Bone1/Bone2/Bone3/Bone4
  - curve:
      serializedVersion: 2
      m_Curve:
      - serializedVersion: 3
        time: 0
        value: {x: 0, y: 0.00543117, z: 0}
        inSlope: {x: 0, y: 0, z: 0}
        outSlope: {x: 0, y: 0, z: 0}
        tangentMode: 1
        weightedMode: 0
        inWeight: {x: 0.3333333, y: 0.3333333, z: 0.3333333}
        outWeight: {x: 0.3333333, y: 0.3333333, z: 0.3333333}
      - serializedVersion: 3
        time: 3
        value: {x: 0, y: 0.00543117, z: 0}
        inSlope: {x: 0, y: 0, z: 0}
        outSlope: {x: 0, y: 0, z: 0}
        tangentMode: 1
        weightedMode: 0
        inWeight: {x: 0.3333333, y: 0.3333333, z: 0.3333333}
        outWeight: {x: 0.3333333, y: 0.3333333, z: 0.3333333}
      m_PreInfinity: 2
      m_PostInfinity: 2
      m_RotationOrder: 4
    path: Armature/Root/Bone1/Bone2/Bone3/Bone4/Bone5
  - curve:
      serializedVersion: 2
      m_Curve:
      - serializedVersion: 3
        time: 0
        value: {x: 0, y: 0.00543117, z: 0}
        inSlope: {x: 0, y: 0, z: 0}
        outSlope: {x: 0, y: 0, z: 0}
        tangentMode: 1
        weightedMode: 0
        inWeight: {x: 0.3333333, y: 0.3333333, z: 0.3333333}
        outWeight: {x: 0.3333333, y: 0.3333333, z: 0.3333333}
      - serializedVersion: 3
        time: 3
        value: {x: 0, y: 0.00543117, z: 0}
        inSlope: {x: 0, y: 0, z: 0}
        outSlope: {x: 0, y: 0, z: 0}
        tangentMode: 1
        weightedMode: 0
        inWeight: {x: 0.3333333, y: 0.3333333, z: 0.3333333}
        outWeight: {x: 0.3333333, y: 0.3333333, z: 0.3333333}
      m_PreInfinity: 2
      m_PostInfinity: 2
      m_RotationOrder: 4
    path: Armature/Root/Bone1/Bone2/Bone3/Bone4/Bone5/Bone6
  - curve:
      serializedVersion: 2
      m_Curve:
      - serializedVersion: 3
        time: 0
        value: {x: 0, y: 0.006114814, z: 0}
        inSlope: {x: 0, y: 0, z: 0}
        outSlope: {x: 0, y: 0, z: 0}
        tangentMode: 1
        weightedMode: 0
        inWeight: {x: 0.3333333, y: 0.3333333, z: 0.3333333}
        outWeight: {x: 0.3333333, y: 0.3333333, z: 0.3333333}
      - serializedVersion: 3
        time: 3
        value: {x: 0, y: 0.006114814, z: 0}
        inSlope: {x: 0, y: 0, z: 0}
        outSlope: {x: 0, y: 0, z: 0}
        tangentMode: 1
        weightedMode: 0
        inWeight: {x: 0.3333333, y: 0.3333333, z: 0.3333333}
        outWeight: {x: 0.3333333, y: 0.3333333, z: 0.3333333}
      m_PreInfinity: 2
      m_PostInfinity: 2
      m_RotationOrder: 4
    path: Armature/Root/Bone1/Bone2/Bone3/Bone4/Bone5/Bone6/Bone7
  m_ScaleCurves:
  - curve:
      serializedVersion: 2
      m_Curve:
      - serializedVersion: 3
        time: 0
        value: {x: 100, y: 100, z: 100}
        inSlope: {x: 0, y: 0, z: 0}
        outSlope: {x: 0, y: 0, z: 0}
        tangentMode: 1
        weightedMode: 0
        inWeight: {x: 0.3333333, y: 0.3333333, z: 0.3333333}
        outWeight: {x: 0.3333333, y: 0.3333333, z: 0.3333333}
      - serializedVersion: 3
        time: 3
        value: {x: 100, y: 100, z: 100}
        inSlope: {x: 0, y: 0, z: 0}
        outSlope: {x: 0, y: 0, z: 0}
        tangentMode: 1
        weightedMode: 0
        inWeight: {x: 0.3333333, y: 0.3333333, z: 0.3333333}
        outWeight: {x: 0.3333333, y: 0.3333333, z: 0.3333333}
      m_PreInfinity: 2
      m_PostInfinity: 2
      m_RotationOrder: 4
    path: Armature
  - curve:
      serializedVersion: 2
      m_Curve:
      - serializedVersion: 3
        time: 0
        value: {x: 1, y: 1, z: 1}
        inSlope: {x: 0, y: 0, z: 0}
        outSlope: {x: 0, y: 0, z: 0}
        tangentMode: 1
        weightedMode: 0
        inWeight: {x: 0.3333333, y: 0.3333333, z: 0.3333333}
        outWeight: {x: 0.3333333, y: 0.3333333, z: 0.3333333}
      - serializedVersion: 3
        time: 3
        value: {x: 1, y: 1, z: 1}
        inSlope: {x: 0, y: 0, z: 0}
        outSlope: {x: 0, y: 0, z: 0}
        tangentMode: 1
        weightedMode: 0
        inWeight: {x: 0.3333333, y: 0.3333333, z: 0.3333333}
        outWeight: {x: 0.3333333, y: 0.3333333, z: 0.3333333}
      m_PreInfinity: 2
      m_PostInfinity: 2
      m_RotationOrder: 4
    path: Armature/Root
  - curve:
      serializedVersion: 2
      m_Curve:
      - serializedVersion: 3
        time: 0
        value: {x: 1, y: 1, z: 1}
        inSlope: {x: 0, y: 0, z: 0}
        outSlope: {x: 0, y: 0, z: 0}
        tangentMode: 1
        weightedMode: 0
        inWeight: {x: 0.3333333, y: 0.3333333, z: 0.3333333}
        outWeight: {x: 0.3333333, y: 0.3333333, z: 0.3333333}
      - serializedVersion: 3
        time: 3
        value: {x: 1, y: 1, z: 1}
        inSlope: {x: 0, y: 0, z: 0}
        outSlope: {x: 0, y: 0, z: 0}
        tangentMode: 1
        weightedMode: 0
        inWeight: {x: 0.3333333, y: 0.3333333, z: 0.3333333}
        outWeight: {x: 0.3333333, y: 0.3333333, z: 0.3333333}
      m_PreInfinity: 2
      m_PostInfinity: 2
      m_RotationOrder: 4
    path: Armature/Root/Bone1
  - curve:
      serializedVersion: 2
      m_Curve:
      - serializedVersion: 3
        time: 0
        value: {x: 1, y: 1, z: 1}
        inSlope: {x: 0, y: 0, z: 0}
        outSlope: {x: 0, y: 0, z: 0}
        tangentMode: 1
        weightedMode: 0
        inWeight: {x: 0.3333333, y: 0.3333333, z: 0.3333333}
        outWeight: {x: 0.3333333, y: 0.3333333, z: 0.3333333}
      - serializedVersion: 3
        time: 3
        value: {x: 1, y: 1, z: 1}
        inSlope: {x: 0, y: 0, z: 0}
        outSlope: {x: 0, y: 0, z: 0}
        tangentMode: 1
        weightedMode: 0
        inWeight: {x: 0.3333333, y: 0.3333333, z: 0.3333333}
        outWeight: {x: 0.3333333, y: 0.3333333, z: 0.3333333}
      m_PreInfinity: 2
      m_PostInfinity: 2
      m_RotationOrder: 4
    path: Armature/Root/Bone1/Bone2
  - curve:
      serializedVersion: 2
      m_Curve:
      - serializedVersion: 3
        time: 0
        value: {x: 1, y: 1, z: 1}
        inSlope: {x: 0, y: 0, z: 0}
        outSlope: {x: 0, y: 0, z: 0}
        tangentMode: 1
        weightedMode: 0
        inWeight: {x: 0.3333333, y: 0.3333333, z: 0.3333333}
        outWeight: {x: 0.3333333, y: 0.3333333, z: 0.3333333}
      - serializedVersion: 3
        time: 3
        value: {x: 1, y: 1, z: 1}
        inSlope: {x: 0, y: 0, z: 0}
        outSlope: {x: 0, y: 0, z: 0}
        tangentMode: 1
        weightedMode: 0
        inWeight: {x: 0.3333333, y: 0.3333333, z: 0.3333333}
        outWeight: {x: 0.3333333, y: 0.3333333, z: 0.3333333}
      m_PreInfinity: 2
      m_PostInfinity: 2
      m_RotationOrder: 4
    path: Armature/Root/Bone1/Bone2/Bone3
  - curve:
      serializedVersion: 2
      m_Curve:
      - serializedVersion: 3
        time: 0
        value: {x: 1, y: 1, z: 1}
        inSlope: {x: 0, y: 0, z: 0}
        outSlope: {x: 0, y: 0, z: 0}
        tangentMode: 1
        weightedMode: 0
        inWeight: {x: 0.3333333, y: 0.3333333, z: 0.3333333}
        outWeight: {x: 0.3333333, y: 0.3333333, z: 0.3333333}
      - serializedVersion: 3
        time: 3
        value: {x: 1, y: 1, z: 1}
        inSlope: {x: 0, y: 0, z: 0}
        outSlope: {x: 0, y: 0, z: 0}
        tangentMode: 1
        weightedMode: 0
        inWeight: {x: 0.3333333, y: 0.3333333, z: 0.3333333}
        outWeight: {x: 0.3333333, y: 0.3333333, z: 0.3333333}
      m_PreInfinity: 2
      m_PostInfinity: 2
      m_RotationOrder: 4
    path: Armature/Root/Bone1/Bone2/Bone3/Bone4
  - curve:
      serializedVersion: 2
      m_Curve:
      - serializedVersion: 3
        time: 0
        value: {x: 1, y: 1, z: 1}
        inSlope: {x: 0, y: 0, z: 0}
        outSlope: {x: 0, y: 0, z: 0}
        tangentMode: 1
        weightedMode: 0
        inWeight: {x: 0.3333333, y: 0.3333333, z: 0.3333333}
        outWeight: {x: 0.3333333, y: 0.3333333, z: 0.3333333}
      - serializedVersion: 3
        time: 3
        value: {x: 1, y: 1, z: 1}
        inSlope: {x: 0, y: 0, z: 0}
        outSlope: {x: 0, y: 0, z: 0}
        tangentMode: 1
        weightedMode: 0
        inWeight: {x: 0.3333333, y: 0.3333333, z: 0.3333333}
        outWeight: {x: 0.3333333, y: 0.3333333, z: 0.3333333}
      m_PreInfinity: 2
      m_PostInfinity: 2
      m_RotationOrder: 4
    path: Armature/Root/Bone1/Bone2/Bone3/Bone4/Bone5
  - curve:
      serializedVersion: 2
      m_Curve:
      - serializedVersion: 3
        time: 0
        value: {x: 1, y: 1, z: 1}
        inSlope: {x: 0, y: 0, z: 0}
        outSlope: {x: 0, y: 0, z: 0}
        tangentMode: 1
        weightedMode: 0
        inWeight: {x: 0.3333333, y: 0.3333333, z: 0.3333333}
        outWeight: {x: 0.3333333, y: 0.3333333, z: 0.3333333}
      - serializedVersion: 3
        time: 3
        value: {x: 1, y: 1, z: 1}
        inSlope: {x: 0, y: 0, z: 0}
        outSlope: {x: 0, y: 0, z: 0}
        tangentMode: 1
        weightedMode: 0
        inWeight: {x: 0.3333333, y: 0.3333333, z: 0.3333333}
        outWeight: {x: 0.3333333, y: 0.3333333, z: 0.3333333}
      m_PreInfinity: 2
      m_PostInfinity: 2
      m_RotationOrder: 4
    path: Armature/Root/Bone1/Bone2/Bone3/Bone4/Bone5/Bone6
  - curve:
      serializedVersion: 2
      m_Curve:
      - serializedVersion: 3
        time: 0
        value: {x: 1, y: 1, z: 1}
        inSlope: {x: 0, y: 0, z: 0}
        outSlope: {x: 0, y: 0, z: 0}
        tangentMode: 1
        weightedMode: 0
        inWeight: {x: 0.3333333, y: 0.3333333, z: 0.3333333}
        outWeight: {x: 0.3333333, y: 0.3333333, z: 0.3333333}
      - serializedVersion: 3
        time: 3
        value: {x: 1, y: 1, z: 1}
        inSlope: {x: 0, y: 0, z: 0}
        outSlope: {x: 0, y: 0, z: 0}
        tangentMode: 1
        weightedMode: 0
        inWeight: {x: 0.3333333, y: 0.3333333, z: 0.3333333}
        outWeight: {x: 0.3333333, y: 0.3333333, z: 0.3333333}
      m_PreInfinity: 2
      m_PostInfinity: 2
      m_RotationOrder: 4
    path: Armature/Root/Bone1/Bone2/Bone3/Bone4/Bone5/Bone6/Bone7
  m_FloatCurves: []
  m_PPtrCurves: []
  m_SampleRate: 24
  m_WrapMode: 0
  m_Bounds:
    m_Center: {x: 0, y: 0, z: 0}
    m_Extent: {x: 0, y: 0, z: 0}
  m_ClipBindingConstant:
    genericBindings:
    - serializedVersion: 2
      path: 1958413757
      attribute: 2
      script: {fileID: 0}
      typeID: 4
      customType: 0
      isPPtrCurve: 0
    - serializedVersion: 2
      path: 1667585208
      attribute: 2
      script: {fileID: 0}
      typeID: 4
      customType: 0
      isPPtrCurve: 0
    - serializedVersion: 2
      path: 2654890169
      attribute: 2
      script: {fileID: 0}
      typeID: 4
      customType: 0
      isPPtrCurve: 0
    - serializedVersion: 2
      path: 247927576
      attribute: 2
      script: {fileID: 0}
      typeID: 4
      customType: 0
      isPPtrCurve: 0
    - serializedVersion: 2
      path: 603967942
      attribute: 2
      script: {fileID: 0}
      typeID: 4
      customType: 0
      isPPtrCurve: 0
    - serializedVersion: 2
      path: 69026661
      attribute: 2
      script: {fileID: 0}
      typeID: 4
      customType: 0
      isPPtrCurve: 0
    - serializedVersion: 2
      path: 102808853
      attribute: 2
      script: {fileID: 0}
      typeID: 4
      customType: 0
      isPPtrCurve: 0
    - serializedVersion: 2
      path: 2104266162
      attribute: 1
      script: {fileID: 0}
      typeID: 4
      customType: 0
      isPPtrCurve: 0
    - serializedVersion: 2
      path: 3160000220
      attribute: 1
      script: {fileID: 0}
      typeID: 4
      customType: 0
      isPPtrCurve: 0
    - serializedVersion: 2
      path: 1958413757
      attribute: 1
      script: {fileID: 0}
      typeID: 4
      customType: 0
      isPPtrCurve: 0
    - serializedVersion: 2
      path: 1667585208
      attribute: 1
      script: {fileID: 0}
      typeID: 4
      customType: 0
      isPPtrCurve: 0
    - serializedVersion: 2
      path: 2654890169
      attribute: 1
      script: {fileID: 0}
      typeID: 4
      customType: 0
      isPPtrCurve: 0
    - serializedVersion: 2
      path: 247927576
      attribute: 1
      script: {fileID: 0}
      typeID: 4
      customType: 0
      isPPtrCurve: 0
    - serializedVersion: 2
      path: 603967942
      attribute: 1
      script: {fileID: 0}
      typeID: 4
      customType: 0
      isPPtrCurve: 0
    - serializedVersion: 2
      path: 69026661
      attribute: 1
      script: {fileID: 0}
      typeID: 4
      customType: 0
      isPPtrCurve: 0
    - serializedVersion: 2
      path: 102808853
      attribute: 1
      script: {fileID: 0}
      typeID: 4
      customType: 0
      isPPtrCurve: 0
    - serializedVersion: 2
      path: 2104266162
      attribute: 2
      script: {fileID: 0}
      typeID: 4
      customType: 0
      isPPtrCurve: 0
    - serializedVersion: 2
      path: 3160000220
      attribute: 2
      script: {fileID: 0}
      typeID: 4
      customType: 0
      isPPtrCurve: 0
    - serializedVersion: 2
      path: 2104266162
      attribute: 3
      script: {fileID: 0}
      typeID: 4
      customType: 0
      isPPtrCurve: 0
    - serializedVersion: 2
      path: 3160000220
      attribute: 3
      script: {fileID: 0}
      typeID: 4
      customType: 0
      isPPtrCurve: 0
    - serializedVersion: 2
      path: 1958413757
      attribute: 3
      script: {fileID: 0}
      typeID: 4
      customType: 0
      isPPtrCurve: 0
    - serializedVersion: 2
      path: 1667585208
      attribute: 3
      script: {fileID: 0}
      typeID: 4
      customType: 0
      isPPtrCurve: 0
    - serializedVersion: 2
      path: 2654890169
      attribute: 3
      script: {fileID: 0}
      typeID: 4
      customType: 0
      isPPtrCurve: 0
    - serializedVersion: 2
      path: 247927576
      attribute: 3
      script: {fileID: 0}
      typeID: 4
      customType: 0
      isPPtrCurve: 0
    - serializedVersion: 2
      path: 603967942
      attribute: 3
      script: {fileID: 0}
      typeID: 4
      customType: 0
      isPPtrCurve: 0
    - serializedVersion: 2
      path: 69026661
      attribute: 3
      script: {fileID: 0}
      typeID: 4
      customType: 0
      isPPtrCurve: 0
    - serializedVersion: 2
      path: 102808853
      attribute: 3
      script: {fileID: 0}
      typeID: 4
      customType: 0
      isPPtrCurve: 0
    pptrCurveMapping: []
  m_AnimationClipSettings:
    serializedVersion: 2
    m_AdditiveReferencePoseClip: {fileID: 0}
    m_AdditiveReferencePoseTime: 0
    m_StartTime: 0
    m_StopTime: 2.916667
    m_OrientationOffsetY: 0
    m_Level: 0
    m_CycleOffset: 0
    m_HasAdditiveReferencePose: 0
    m_LoopTime: 0
    m_LoopBlend: 0
    m_LoopBlendOrientation: 0
    m_LoopBlendPositionY: 0
    m_LoopBlendPositionXZ: 0
    m_KeepOriginalOrientation: 0
    m_KeepOriginalPositionY: 1
    m_KeepOriginalPositionXZ: 0
    m_HeightFromFeet: 0
    m_Mirror: 0
  m_EditorCurves: []
  m_EulerEditorCurves: []
  m_HasGenericRootTransform: 0
  m_HasMotionFloatCurves: 0
  m_Events:
  - time: 1.621232
    functionName: Hit
    data: 
    objectReferenceParameter: {fileID: 0}
    floatParameter: 0
    intParameter: 0
    messageOptions: 0
