%YAML 1.1
%TAG !u! tag:unity3d.com,2011:
--- !u!74 &7400000
AnimationClip:
  m_ObjectHideFlags: 0
  m_CorrespondingSourceObject: {fileID: 0}
  m_PrefabInstance: {fileID: 0}
  m_PrefabAsset: {fileID: 0}
  m_Name: Idle_14
  serializedVersion: 6
  m_Legacy: 0
  m_Compressed: 0
  m_UseHighQualityCurve: 1
  m_RotationCurves:
  - curve:
      serializedVersion: 2
      m_Curve:
      - serializedVersion: 3
        time: 0
        value: {x: -0.03944062, y: -1.242346e-26, z: -8.757576e-18, w: 0.9992219}
        inSlope: {x: 0, y: 0, z: 0, w: 0}
        outSlope: {x: -0.4718833, y: -2.446024e-25, z: -1.050913e-16, w: -0.009281158}
        tangentMode: 1
        weightedMode: 0
        inWeight: {x: 0.3333333, y: 0.3333333, z: 0.3333333, w: 0.3333333}
        outWeight: {x: 0.3333333, y: 0.3333333, z: 0.3333333, w: 0.3333333}
      - serializedVersion: 3
        time: 0.04166667
        value: {x: -0.03932361, y: -2.038354e-26, z: -8.757608e-18, w: 0.9992266}
        inSlope: {x: 0.005519271, y: -1.199547e-25, z: -1.44922e-21, w: 0.0002167225}
        outSlope: {x: 0.005519227, y: -1.199547e-25, z: -1.449221e-21, w: 0.0002167225}
        tangentMode: 1
        weightedMode: 0
        inWeight: {x: 0.3333333, y: 0.3333333, z: 0.3333333, w: 0.3333333}
        outWeight: {x: 0.3333333, y: 0.3333333, z: 0.3333333, w: 0.3333333}
      - serializedVersion: 3
        time: 1.958333
        value: {x: 0.01470736, y: 6.020818e-27, z: 4.661366e-18, w: 0.9998919}
        inSlope: {x: -0.03475903, y: -7.887156e-26, z: 2.556635e-21, w: 0.0005092619}
        outSlope: {x: -0.03475903, y: -7.887156e-26, z: 2.555987e-21, w: 0.0005092619}
        tangentMode: 1
        weightedMode: 0
        inWeight: {x: 0.3333333, y: 0.3333333, z: 0.3333333, w: 0.3333333}
        outWeight: {x: 0.3333333, y: 0.3333333, z: 0.3333333, w: 0.3333333}
      - serializedVersion: 3
        time: 3.25
        value: {x: -0.03932776, y: -1.995931e-27, z: 4.660626e-18, w: 0.9992264}
        inSlope: {x: -0.005286755, y: -0.000000469667, z: -4.805435e-10, w: -0.0002074238}
        outSlope: {x: -0.005286758, y: -0.000000469667, z: -4.805435e-10, w: -0.0002074238}
        tangentMode: 1
        weightedMode: 0
        inWeight: {x: 0.3333333, y: 0.3333333, z: 0.3333333, w: 0.3333333}
        outWeight: {x: 0.3333333, y: 0.3333333, z: 0.3333333, w: 0.3333333}
      - serializedVersion: 3
        time: 3.291667
        value: {x: -0.03924281, y: -0.002182617, z: 4.071955e-11, w: 0.9993913}
        inSlope: {x: 0.01158854, y: -0.1296237, z: 0.000000001454781, w: 0.005284309}
        outSlope: {x: 0, y: 0, z: 0, w: 0}
        tangentMode: 1
        weightedMode: 0
        inWeight: {x: 0.3333333, y: 0.3333333, z: 0.3333333, w: 0.3333333}
        outWeight: {x: 0.3333333, y: 0.3333333, z: 0.3333333, w: 0.3333333}
      m_PreInfinity: 2
      m_PostInfinity: 2
      m_RotationOrder: 4
    path: Armature/Root/Bone1
  - curve:
      serializedVersion: 2
      m_Curve:
      - serializedVersion: 3
        time: 0
        value: {x: -0.1257461, y: 0.02564716, z: -0.1981928, w: 0.9717252}
        inSlope: {x: 0, y: 0, z: 0, w: 0}
        outSlope: {x: -1.522017, y: 0.6709841, z: -2.38328, w: -0.3572674}
        tangentMode: 1
        weightedMode: 0
        inWeight: {x: 0.3333333, y: 0.3333333, z: 0.3333333, w: 0.3333333}
        outWeight: {x: 0.3333333, y: 0.3333333, z: 0.3333333, w: 0.3333333}
      - serializedVersion: 3
        time: 0.04166667
        value: {x: -0.1268348, y: 0.05591534, z: -0.1986067, w: 0.9702277}
        inSlope: {x: -0.02353656, y: 0.6918887, z: 0.02329087, w: -0.03718972}
        outSlope: {x: -0.02353656, y: 0.6918887, z: 0.02329087, w: -0.03718972}
        tangentMode: 1
        weightedMode: 0
        inWeight: {x: 0.3333333, y: 0.3333333, z: 0.3333333, w: 0.3333333}
        outWeight: {x: 0.3333333, y: 0.3333333, z: 0.3333333, w: 0.3333333}
      - serializedVersion: 3
        time: 0.5
        value: {x: -0.109676, y: 0.2244406, z: -0.06465477, w: 0.9661353}
        inSlope: {x: 0.1372752, y: 0.1200091, z: 0.4593131, w: 0.01832842}
        outSlope: {x: 0.1372752, y: 0.1200091, z: 0.4593131, w: 0.01832842}
        tangentMode: 1
        weightedMode: 0
        inWeight: {x: 0.3333333, y: 0.3333333, z: 0.3333333, w: 0.3333333}
        outWeight: {x: 0.3333333, y: 0.3333333, z: 0.3333333, w: 0.3333333}
      - serializedVersion: 3
        time: 1
        value: {x: 0.05935703, y: 0.2484716, z: 0.1387081, w: 0.956817}
        inSlope: {x: 0.5472052, y: 0.04066477, z: 0.2714328, w: -0.08391377}
        outSlope: {x: 0.5472052, y: 0.04066477, z: 0.2714328, w: -0.08391377}
        tangentMode: 1
        weightedMode: 0
        inWeight: {x: 0.3333333, y: 0.3333333, z: 0.3333333, w: 0.3333333}
        outWeight: {x: 0.3333333, y: 0.3333333, z: 0.3333333, w: 0.3333333}
      - serializedVersion: 3
        time: 1.5
        value: {x: 0.2886694, y: 0.2604361, z: 0.2054632, w: 0.8981246}
        inSlope: {x: 0.2113168, y: 0.006150123, z: 0.02810201, w: -0.07577986}
        outSlope: {x: 0.2113168, y: 0.006150122, z: 0.02810202, w: -0.07577986}
        tangentMode: 1
        weightedMode: 0
        inWeight: {x: 0.3333333, y: 0.3333333, z: 0.3333333, w: 0.3333333}
        outWeight: {x: 0.3333333, y: 0.3333333, z: 0.3333333, w: 0.3333333}
      - serializedVersion: 3
        time: 1.875
        value: {x: 0.2968457, y: 0.2463626, z: 0.1863594, w: 0.9035808}
        inSlope: {x: -0.05298076, y: -0.1075651, z: -0.1587, w: 0.07930895}
        outSlope: {x: -0.05298077, y: -0.1075651, z: -0.1587, w: 0.07930896}
        tangentMode: 1
        weightedMode: 0
        inWeight: {x: 0.3333333, y: 0.3333333, z: 0.3333333, w: 0.3333333}
        outWeight: {x: 0.3333333, y: 0.3333333, z: 0.3333333, w: 0.3333333}
      - serializedVersion: 3
        time: 2.583333
        value: {x: 0.1282618, y: 0.1259164, z: -0.02980508, w: 0.9832628}
        inSlope: {x: -0.4746485, y: -0.1757526, z: -0.3876261, w: 0.07252272}
        outSlope: {x: -0.4746485, y: -0.1757526, z: -0.3876261, w: 0.07252273}
        tangentMode: 1
        weightedMode: 0
        inWeight: {x: 0.3333333, y: 0.3333333, z: 0.3333333, w: 0.3333333}
        outWeight: {x: 0.3333333, y: 0.3333333, z: 0.3333333, w: 0.3333333}
      - serializedVersion: 3
        time: 3.041667
        value: {x: -0.08304594, y: 0.05469264, z: -0.1750806, w: 0.9795197}
        inSlope: {x: -0.3263421, y: -0.1308422, z: -0.1917509, w: -0.05419283}
        outSlope: {x: -0.3263421, y: -0.1308422, z: -0.1917509, w: -0.05419283}
        tangentMode: 1
        weightedMode: 0
        inWeight: {x: 0.3333333, y: 0.3333333, z: 0.3333333, w: 0.3333333}
        outWeight: {x: 0.3333333, y: 0.3333333, z: 0.3333333, w: 0.3333333}
      - serializedVersion: 3
        time: 3.291667
        value: {x: -0.1257461, y: 0.02564715, z: -0.1981928, w: 0.9717252}
        inSlope: {x: 0.0332806, y: -0.1020492, z: 0.06923649, w: 0.02081545}
        outSlope: {x: 0, y: 0, z: 0, w: 0}
        tangentMode: 1
        weightedMode: 0
        inWeight: {x: 0.3333333, y: 0.3333333, z: 0.3333333, w: 0.3333333}
        outWeight: {x: 0.3333333, y: 0.3333333, z: 0.3333333, w: 0.3333333}
      m_PreInfinity: 2
      m_PostInfinity: 2
      m_RotationOrder: 4
    path: Armature/Root/Bone1/Bone2
  - curve:
      serializedVersion: 2
      m_Curve:
      - serializedVersion: 3
        time: 0
        value: {x: -0.2424007, y: 0.09016827, z: -0.1624744, w: 0.9522151}
        inSlope: {x: 0, y: 0, z: 0, w: 0}
        outSlope: {x: -2.926664, y: 1.079701, z: -1.925984, w: -0.5737381}
        tangentMode: 1
        weightedMode: 0
        inWeight: {x: 0.3333333, y: 0.3333333, z: 0.3333333, w: 0.3333333}
        outWeight: {x: 0.3333333, y: 0.3333333, z: 0.3333333, w: 0.3333333}
      - serializedVersion: 3
        time: 0.04166667
        value: {x: -0.2438887, y: 0.0899751, z: -0.1604986, w: 0.9521885}
        inSlope: {x: -0.03705454, y: -0.02107519, z: 0.113574, w: 0.01129246}
        outSlope: {x: -0.03705472, y: -0.02107519, z: 0.113574, w: 0.01129246}
        tangentMode: 1
        weightedMode: 0
        inWeight: {x: 0.3333333, y: 0.3333333, z: 0.3333333, w: 0.3333333}
        outWeight: {x: 0.3333333, y: 0.3333333, z: 0.3333333, w: 0.3333333}
      - serializedVersion: 3
        time: 0.4166667
        value: {x: -0.2546283, y: 0.04036038, z: 0.03824146, w: 0.9654393}
        inSlope: {x: -0.0003615617, y: -0.1974975, z: 0.7302532, w: -0.02065229}
        outSlope: {x: -0.0003615618, y: -0.1974974, z: 0.7302532, w: -0.0206523}
        tangentMode: 1
        weightedMode: 0
        inWeight: {x: 0.3333333, y: 0.3333333, z: 0.3333333, w: 0.3333333}
        outWeight: {x: 0.3333333, y: 0.3333333, z: 0.3333333, w: 0.3333333}
      - serializedVersion: 3
        time: 0.7916667
        value: {x: -0.2476234, y: -0.01653131, z: 0.2132398, w: 0.944954}
        inSlope: {x: 0.04254809, y: -0.06061773, z: 0.03567622, w: 0.002064238}
        outSlope: {x: 0.04254809, y: -0.06061772, z: 0.03567622, w: 0.00206424}
        tangentMode: 1
        weightedMode: 0
        inWeight: {x: 0.3333333, y: 0.3333333, z: 0.3333333, w: 0.3333333}
        outWeight: {x: 0.3333333, y: 0.3333333, z: 0.3333333, w: 0.3333333}
      - serializedVersion: 3
        time: 1.25
        value: {x: -0.03738522, y: -0.03006758, z: 0.2016521, w: 0.9782815}
        inSlope: {x: 0.6722751, y: -0.008668958, z: -0.08161781, w: 0.04232881}
        outSlope: {x: 0.6722751, y: -0.00866896, z: -0.0816178, w: 0.0423288}
        tangentMode: 1
        weightedMode: 0
        inWeight: {x: 0.3333333, y: 0.3333333, z: 0.3333333, w: 0.3333333}
        outWeight: {x: 0.3333333, y: 0.3333333, z: 0.3333333, w: 0.3333333}
      - serializedVersion: 3
        time: 1.625
        value: {x: 0.1485786, y: -0.03052519, z: 0.1480932, w: 0.9772723}
        inSlope: {x: 0.205603, y: 0.0268239, z: -0.2032527, w: 0.0005185704}
        outSlope: {x: 0.205603, y: 0.0268239, z: -0.2032527, w: 0.0005185659}
        tangentMode: 1
        weightedMode: 0
        inWeight: {x: 0.3333333, y: 0.3333333, z: 0.3333333, w: 0.3333333}
        outWeight: {x: 0.3333333, y: 0.3333333, z: 0.3333333, w: 0.3333333}
      - serializedVersion: 3
        time: 2.083333
        value: {x: 0.2025725, y: 0.1524599, z: 0.02286511, w: 0.9670562}
        inSlope: {x: 0.04938204, y: 0.576465, z: -0.3189394, w: -0.09356339}
        outSlope: {x: 0.04938204, y: 0.576465, z: -0.3189394, w: -0.09356339}
        tangentMode: 1
        weightedMode: 0
        inWeight: {x: 0.3333333, y: 0.3333333, z: 0.3333333, w: 0.3333333}
        outWeight: {x: 0.3333333, y: 0.3333333, z: 0.3333333, w: 0.3333333}
      - serializedVersion: 3
        time: 2.458333
        value: {x: 0.20702, y: 0.2881014, z: -0.0863857, w: 0.9309554}
        inSlope: {x: -0.04227387, y: 0.01547932, z: -0.2355559, w: -0.01719768}
        outSlope: {x: -0.04227387, y: 0.01547932, z: -0.2355559, w: -0.01719768}
        tangentMode: 1
        weightedMode: 0
        inWeight: {x: 0.3333333, y: 0.3333333, z: 0.3333333, w: 0.3333333}
        outWeight: {x: 0.3333333, y: 0.3333333, z: 0.3333333, w: 0.3333333}
      - serializedVersion: 3
        time: 2.875
        value: {x: -0.02232706, y: 0.2305304, z: -0.1548084, w: 0.9604122}
        inSlope: {x: -0.8358535, y: -0.2767076, z: -0.08519555, w: 0.03320855}
        outSlope: {x: -0.8358535, y: -0.2767076, z: -0.08519556, w: 0.03320855}
        tangentMode: 1
        weightedMode: 0
        inWeight: {x: 0.3333333, y: 0.3333333, z: 0.3333333, w: 0.3333333}
        outWeight: {x: 0.3333333, y: 0.3333333, z: 0.3333333, w: 0.3333333}
      - serializedVersion: 3
        time: 3.291667
        value: {x: -0.2424006, y: 0.09016822, z: -0.1624744, w: 0.9522151}
        inSlope: {x: 0.06458386, y: -0.3373035, z: 0.06777123, w: 0.05946724}
        outSlope: {x: 0, y: 0, z: 0, w: 0}
        tangentMode: 1
        weightedMode: 0
        inWeight: {x: 0.3333333, y: 0.3333333, z: 0.3333333, w: 0.3333333}
        outWeight: {x: 0.3333333, y: 0.3333333, z: 0.3333333, w: 0.3333333}
      m_PreInfinity: 2
      m_PostInfinity: 2
      m_RotationOrder: 4
    path: Armature/Root/Bone1/Bone2/Bone3
  - curve:
      serializedVersion: 2
      m_Curve:
      - serializedVersion: 3
        time: 0
        value: {x: -0.2472278, y: 0.1211564, z: -0.07636444, w: 0.9583152}
        inSlope: {x: 0, y: 0, z: 0, w: 0}
        outSlope: {x: -3.176253, y: 1.462154, z: -0.921567, w: -0.5577872}
        tangentMode: 1
        weightedMode: 0
        inWeight: {x: 0.3333333, y: 0.3333333, z: 0.3333333, w: 0.3333333}
        outWeight: {x: 0.3333333, y: 0.3333333, z: 0.3333333, w: 0.3333333}
      - serializedVersion: 3
        time: 0.04166667
        value: {x: -0.2646878, y: 0.1218462, z: -0.07679725, w: 0.9535177}
        inSlope: {x: -0.3980931, y: 0.01531506, z: -0.009463727, w: -0.1128495}
        outSlope: {x: -0.3980929, y: 0.01531497, z: -0.009463727, w: -0.1128495}
        tangentMode: 1
        weightedMode: 0
        inWeight: {x: 0.3333333, y: 0.3333333, z: 0.3333333, w: 0.3333333}
        outWeight: {x: 0.3333333, y: 0.3333333, z: 0.3333333, w: 0.3333333}
      - serializedVersion: 3
        time: 0.6666667
        value: {x: -0.3651836, y: 0.1231193, z: -0.06934118, w: 0.9201491}
        inSlope: {x: -0.01317964, y: -0.008548023, z: 0.04266207, w: -0.000875473}
        outSlope: {x: -0.01317966, y: -0.008548023, z: 0.04266207, w: -0.000875472}
        tangentMode: 1
        weightedMode: 0
        inWeight: {x: 0.3333333, y: 0.3333333, z: 0.3333333, w: 0.3333333}
        outWeight: {x: 0.3333333, y: 0.3333333, z: 0.3333333, w: 0.3333333}
      - serializedVersion: 3
        time: 0.9583333
        value: {x: -0.340032, y: 0.1015271, z: -0.02459856, w: 0.9345937}
        inSlope: {x: 0.3049809, y: -0.2151181, z: 0.373484, w: 0.1429159}
        outSlope: {x: 0.3049809, y: -0.2151181, z: 0.373484, w: 0.1429159}
        tangentMode: 1
        weightedMode: 0
        inWeight: {x: 0.3333333, y: 0.3333333, z: 0.3333333, w: 0.3333333}
        outWeight: {x: 0.3333333, y: 0.3333333, z: 0.3333333, w: 0.3333333}
      - serializedVersion: 3
        time: 1.291667
        value: {x: -0.1544941, y: -0.00105104, z: 0.1425957, w: 0.9776487}
        inSlope: {x: 0.7484316, y: -0.32193, z: 0.5022669, w: 0.04467205}
        outSlope: {x: 0.7484316, y: -0.3219301, z: 0.5022669, w: 0.04467205}
        tangentMode: 1
        weightedMode: 0
        inWeight: {x: 0.3333333, y: 0.3333333, z: 0.3333333, w: 0.3333333}
        outWeight: {x: 0.3333333, y: 0.3333333, z: 0.3333333, w: 0.3333333}
      - serializedVersion: 3
        time: 1.708333
        value: {x: 0.1743146, y: -0.05616845, z: 0.2208103, w: 0.9579679}
        inSlope: {x: 0.7858967, y: 0.1756788, z: -0.3532792, w: -0.05288455}
        outSlope: {x: 0.7858967, y: 0.1756788, z: -0.3532792, w: -0.05288456}
        tangentMode: 1
        weightedMode: 0
        inWeight: {x: 0.3333333, y: 0.3333333, z: 0.3333333, w: 0.3333333}
        outWeight: {x: 0.3333333, y: 0.3333333, z: 0.3333333, w: 0.3333333}
      - serializedVersion: 3
        time: 2
        value: {x: 0.4007225, y: 0.06039893, z: -0.01460666, w: 0.9140898}
        inSlope: {x: 0.6849533, y: 0.5476258, z: -1.123063, w: -0.3552368}
        outSlope: {x: 0.6849533, y: 0.5476258, z: -1.123063, w: -0.3552368}
        tangentMode: 1
        weightedMode: 0
        inWeight: {x: 0.3333333, y: 0.3333333, z: 0.3333333, w: 0.3333333}
        outWeight: {x: 0.3333333, y: 0.3333333, z: 0.3333333, w: 0.3333333}
      - serializedVersion: 3
        time: 2.208333
        value: {x: 0.5060516, y: 0.1687395, z: -0.2405611, w: 0.8109064}
        inSlope: {x: 0.3080142, y: 0.4291264, z: -0.9109136, w: -0.5476669}
        outSlope: {x: 0.3080142, y: 0.4291264, z: -0.9109136, w: -0.5476669}
        tangentMode: 1
        weightedMode: 0
        inWeight: {x: 0.3333333, y: 0.3333333, z: 0.3333333, w: 0.3333333}
        outWeight: {x: 0.3333333, y: 0.3333333, z: 0.3333333, w: 0.3333333}
      - serializedVersion: 3
        time: 2.458333
        value: {x: 0.5383809, y: 0.2263004, z: -0.3641151, w: 0.7255028}
        inSlope: {x: -0.04430352, y: 0.02832188, z: -0.04168314, w: 0.00310114}
        outSlope: {x: -0.04430352, y: 0.02832187, z: -0.04168315, w: 0.003101137}
        tangentMode: 1
        weightedMode: 0
        inWeight: {x: 0.3333333, y: 0.3333333, z: 0.3333333, w: 0.3333333}
        outWeight: {x: 0.3333333, y: 0.3333333, z: 0.3333333, w: 0.3333333}
      - serializedVersion: 3
        time: 2.708333
        value: {x: 0.3912378, y: 0.2382931, z: -0.3428089, w: 0.8201411}
        inSlope: {x: -1.141415, y: 0.04547085, z: 0.2147371, w: 0.6154538}
        outSlope: {x: -1.141415, y: 0.04547085, z: 0.2147371, w: 0.6154538}
        tangentMode: 1
        weightedMode: 0
        inWeight: {x: 0.3333333, y: 0.3333333, z: 0.3333333, w: 0.3333333}
        outWeight: {x: 0.3333333, y: 0.3333333, z: 0.3333333, w: 0.3333333}
      - serializedVersion: 3
        time: 2.916667
        value: {x: 0.0901083, y: 0.2299016, z: -0.2649595, w: 0.9321064}
        inSlope: {x: -1.557986, y: -0.1523601, z: 0.515704, w: 0.3362913}
        outSlope: {x: -1.557986, y: -0.1523601, z: 0.515704, w: 0.3362913}
        tangentMode: 1
        weightedMode: 0
        inWeight: {x: 0.3333333, y: 0.3333333, z: 0.3333333, w: 0.3333333}
        outWeight: {x: 0.3333333, y: 0.3333333, z: 0.3333333, w: 0.3333333}
      - serializedVersion: 3
        time: 3.25
        value: {x: -0.243914, y: 0.1362614, z: -0.09232967, w: 0.955727}
        inSlope: {x: -0.1972267, y: -0.3555247, z: 0.4040868, w: 0.04062573}
        outSlope: {x: -0.1972267, y: -0.3555247, z: 0.4040868, w: 0.04062573}
        tangentMode: 1
        weightedMode: 0
        inWeight: {x: 0.3333333, y: 0.3333333, z: 0.3333333, w: 0.3333333}
        outWeight: {x: 0.3333333, y: 0.3333333, z: 0.3333333, w: 0.3333333}
      - serializedVersion: 3
        time: 3.291667
        value: {x: -0.2455495, y: 0.1209689, z: -0.07633623, w: 0.9587472}
        inSlope: {x: 0.1098947, y: -0.37692, z: 0.3638348, w: 0.1013305}
        outSlope: {x: 0, y: 0, z: 0, w: 0}
        tangentMode: 1
        weightedMode: 0
        inWeight: {x: 0.3333333, y: 0.3333333, z: 0.3333333, w: 0.3333333}
        outWeight: {x: 0.3333333, y: 0.3333333, z: 0.3333333, w: 0.3333333}
      m_PreInfinity: 2
      m_PostInfinity: 2
      m_RotationOrder: 4
    path: Armature/Root/Bone1/Bone2/Bone3/Bone4
  - curve:
      serializedVersion: 2
      m_Curve:
      - serializedVersion: 3
        time: 0
        value: {x: -0.135419, y: -0.007382709, z: -0.07733287, w: 0.9877383}
        inSlope: {x: 0, y: 0, z: 0, w: 0}
        outSlope: {x: -2.091744, y: -0.07419528, z: -1.348797, w: -0.2611821}
        tangentMode: 1
        weightedMode: 0
        inWeight: {x: 0.3333333, y: 0.3333333, z: 0.3333333, w: 0.3333333}
        outWeight: {x: 0.3333333, y: 0.3333333, z: 0.3333333, w: 0.3333333}
      - serializedVersion: 3
        time: 0.04166667
        value: {x: -0.174312, y: -0.00618294, z: -0.1123998, w: 0.9782348}
        inSlope: {x: -0.8860116, y: 0.05738426, z: -0.7998805, w: -0.2464743}
        outSlope: {x: -0.8860116, y: 0.05738427, z: -0.7998805, w: -0.2464743}
        tangentMode: 1
        weightedMode: 0
        inWeight: {x: 0.3333333, y: 0.3333333, z: 0.3333333, w: 0.3333333}
        outWeight: {x: 0.3333333, y: 0.3333333, z: 0.3333333, w: 0.3333333}
      - serializedVersion: 3
        time: 0.375
        value: {x: -0.3555849, y: 0.06555598, z: -0.2771295, w: 0.8902029}
        inSlope: {x: -0.263076, y: 0.2976806, z: -0.2404418, w: -0.2011578}
        outSlope: {x: -0.263076, y: 0.2976806, z: -0.2404418, w: -0.2011578}
        tangentMode: 1
        weightedMode: 0
        inWeight: {x: 0.3333333, y: 0.3333333, z: 0.3333333, w: 0.3333333}
        outWeight: {x: 0.3333333, y: 0.3333333, z: 0.3333333, w: 0.3333333}
      - serializedVersion: 3
        time: 0.7916667
        value: {x: -0.3919353, y: 0.1508304, z: -0.310351, w: 0.8528301}
        inSlope: {x: 0.02325155, y: 0.01687574, z: 0.03008655, w: 0.0185652}
        outSlope: {x: 0.02325156, y: 0.01687574, z: 0.03008655, w: 0.0185652}
        tangentMode: 1
        weightedMode: 0
        inWeight: {x: 0.3333333, y: 0.3333333, z: 0.3333333, w: 0.3333333}
        outWeight: {x: 0.3333333, y: 0.3333333, z: 0.3333333, w: 0.3333333}
      - serializedVersion: 3
        time: 1.208333
        value: {x: -0.2152609, y: 0.1528203, z: -0.1194238, w: 0.9571033}
        inSlope: {x: 0.7738982, y: -0.02336059, z: 0.7229754, w: 0.2673832}
        outSlope: {x: 0.7738982, y: -0.02336059, z: 0.7229755, w: 0.2673832}
        tangentMode: 1
        weightedMode: 0
        inWeight: {x: 0.3333333, y: 0.3333333, z: 0.3333333, w: 0.3333333}
        outWeight: {x: 0.3333333, y: 0.3333333, z: 0.3333333, w: 0.3333333}
      - serializedVersion: 3
        time: 1.5
        value: {x: 0.02759085, y: 0.1355664, z: 0.05579698, w: 0.988811}
        inSlope: {x: 0.7957004, y: -0.08681591, z: 0.3469161, w: -0.02863169}
        outSlope: {x: 0.7957004, y: -0.08681591, z: 0.3469161, w: -0.02863169}
        tangentMode: 1
        weightedMode: 0
        inWeight: {x: 0.3333333, y: 0.3333333, z: 0.3333333, w: 0.3333333}
        outWeight: {x: 0.3333333, y: 0.3333333, z: 0.3333333, w: 0.3333333}
      - serializedVersion: 3
        time: 1.833333
        value: {x: 0.2417266, y: 0.07376043, z: 0.07033786, w: 0.9649768}
        inSlope: {x: 0.4880204, y: -0.354194, z: -0.0672375, w: -0.09018441}
        outSlope: {x: 0.4880204, y: -0.354194, z: -0.06723748, w: -0.09018441}
        tangentMode: 1
        weightedMode: 0
        inWeight: {x: 0.3333333, y: 0.3333333, z: 0.3333333, w: 0.3333333}
        outWeight: {x: 0.3333333, y: 0.3333333, z: 0.3333333, w: 0.3333333}
      - serializedVersion: 3
        time: 2.333333
        value: {x: 0.3831398, y: -0.1165237, z: 0.01258639, w: 0.9162248}
        inSlope: {x: 0.08720732, y: -0.2146022, z: -0.1433493, w: -0.06141981}
        outSlope: {x: 0.08720732, y: -0.2146022, z: -0.1433493, w: -0.06141981}
        tangentMode: 1
        weightedMode: 0
        inWeight: {x: 0.3333333, y: 0.3333333, z: 0.3333333, w: 0.3333333}
        outWeight: {x: 0.3333333, y: 0.3333333, z: 0.3333333, w: 0.3333333}
      - serializedVersion: 3
        time: 2.625
        value: {x: 0.3387845, y: -0.1211508, z: -0.028448, w: 0.9325976}
        inSlope: {x: -0.5629202, y: 0.1109027, z: -0.1353155, w: 0.2130929}
        outSlope: {x: -0.5629202, y: 0.1109027, z: -0.1353155, w: 0.2130929}
        tangentMode: 1
        weightedMode: 0
        inWeight: {x: 0.3333333, y: 0.3333333, z: 0.3333333, w: 0.3333333}
        outWeight: {x: 0.3333333, y: 0.3333333, z: 0.3333333, w: 0.3333333}
      - serializedVersion: 3
        time: 2.916667
        value: {x: 0.08992603, y: -0.06867413, z: -0.06284418, w: 0.9915885}
        inSlope: {x: -0.9744467, y: 0.220239, z: -0.08895589, w: 0.0984886}
        outSlope: {x: -0.9744467, y: 0.220239, z: -0.08895589, w: 0.0984886}
        tangentMode: 1
        weightedMode: 0
        inWeight: {x: 0.3333333, y: 0.3333333, z: 0.3333333, w: 0.3333333}
        outWeight: {x: 0.3333333, y: 0.3333333, z: 0.3333333, w: 0.3333333}
      - serializedVersion: 3
        time: 3.291667
        value: {x: -0.1354189, y: -0.007382701, z: -0.07733285, w: 0.9877383}
        inSlope: {x: 0.0106252, y: 0.05925818, z: 0.02901749, w: 0.004124204}
        outSlope: {x: 0, y: 0, z: 0, w: 0}
        tangentMode: 1
        weightedMode: 0
        inWeight: {x: 0.3333333, y: 0.3333333, z: 0.3333333, w: 0.3333333}
        outWeight: {x: 0.3333333, y: 0.3333333, z: 0.3333333, w: 0.3333333}
      m_PreInfinity: 2
      m_PostInfinity: 2
      m_RotationOrder: 4
    path: Armature/Root/Bone1/Bone2/Bone3/Bone4/Bone5
  - curve:
      serializedVersion: 2
      m_Curve:
      - serializedVersion: 3
        time: 0
        value: {x: 0.4654162, y: -0.02958298, z: -0.1187809, w: 0.8765864}
        inSlope: {x: 0, y: 0, z: 0, w: 0}
        outSlope: {x: 5.557571, y: -0.3541585, z: -2.150375, w: -1.590204}
        tangentMode: 1
        weightedMode: 0
        inWeight: {x: 0.3333333, y: 0.3333333, z: 0.3333333, w: 0.3333333}
        outWeight: {x: 0.3333333, y: 0.3333333, z: 0.3333333, w: 0.3333333}
      - serializedVersion: 3
        time: 0.04166667
        value: {x: 0.463131, y: -0.02951321, z: -0.1791979, w: 0.867483}
        inSlope: {x: -0.1836762, y: 0.008730277, z: -1.390015, w: -0.1856225}
        outSlope: {x: -0.1836763, y: 0.008730323, z: -1.390015, w: -0.1856225}
        tangentMode: 1
        weightedMode: 0
        inWeight: {x: 0.3333333, y: 0.3333333, z: 0.3333333, w: 0.3333333}
        outWeight: {x: 0.3333333, y: 0.3333333, z: 0.3333333, w: 0.3333333}
      - serializedVersion: 3
        time: 0.4166667
        value: {x: 0.06755464, y: 0.001887044, z: -0.5152442, w: 0.8543747}
        inSlope: {x: -1.538906, y: 0.1660862, z: -0.3679033, w: -0.09920242}
        outSlope: {x: -1.538906, y: 0.1660862, z: -0.3679033, w: -0.09920242}
        tangentMode: 1
        weightedMode: 0
        inWeight: {x: 0.3333333, y: 0.3333333, z: 0.3333333, w: 0.3333333}
        outWeight: {x: 0.3333333, y: 0.3333333, z: 0.3333333, w: 0.3333333}
      - serializedVersion: 3
        time: 0.75
        value: {x: -0.286123, y: 0.07617776, z: -0.5296451, w: 0.7948626}
        inSlope: {x: -0.2578042, y: 0.2829047, z: 0.04983683, w: -0.08493801}
        outSlope: {x: -0.2578042, y: 0.2829047, z: 0.04983685, w: -0.08493801}
        tangentMode: 1
        weightedMode: 0
        inWeight: {x: 0.3333333, y: 0.3333333, z: 0.3333333, w: 0.3333333}
        outWeight: {x: 0.3333333, y: 0.3333333, z: 0.3333333, w: 0.3333333}
      - serializedVersion: 3
        time: 0.9583333
        value: {x: -0.2835009, y: 0.1420145, z: -0.5208133, w: 0.7925986}
        inSlope: {x: 0.0909, y: 0.328978, z: 0.07278223, w: 0.02131317}
        outSlope: {x: 0.0909, y: 0.328978, z: 0.07278223, w: 0.02131317}
        tangentMode: 1
        weightedMode: 0
        inWeight: {x: 0.3333333, y: 0.3333333, z: 0.3333333, w: 0.3333333}
        outWeight: {x: 0.3333333, y: 0.3333333, z: 0.3333333, w: 0.3333333}
      - serializedVersion: 3
        time: 1.5
        value: {x: -0.1365791, y: 0.2842833, z: -0.4392985, w: 0.8411576}
        inSlope: {x: 0.5078797, y: 0.1468358, z: 0.2355, w: 0.1551504}
        outSlope: {x: 0.5078797, y: 0.1468358, z: 0.2355, w: 0.1551504}
        tangentMode: 1
        weightedMode: 0
        inWeight: {x: 0.3333333, y: 0.3333333, z: 0.3333333, w: 0.3333333}
        outWeight: {x: 0.3333333, y: 0.3333333, z: 0.3333333, w: 0.3333333}
      - serializedVersion: 3
        time: 1.833333
        value: {x: 0.1114402, y: 0.3025451, z: -0.3059094, w: 0.8958052}
        inSlope: {x: 0.9544795, y: -0.0292786, z: 0.6447945, w: 0.1098647}
        outSlope: {x: 0.9544795, y: -0.0292786, z: 0.6447945, w: 0.1098647}
        tangentMode: 1
        weightedMode: 0
        inWeight: {x: 0.3333333, y: 0.3333333, z: 0.3333333, w: 0.3333333}
        outWeight: {x: 0.3333333, y: 0.3333333, z: 0.3333333, w: 0.3333333}
      - serializedVersion: 3
        time: 2.083333
        value: {x: 0.3503207, y: 0.2715724, z: -0.1184776, w: 0.8885307}
        inSlope: {x: 0.8534992, y: -0.2175849, z: 0.7625486, w: -0.1668335}
        outSlope: {x: 0.8534992, y: -0.2175849, z: 0.7625486, w: -0.1668335}
        tangentMode: 1
        weightedMode: 0
        inWeight: {x: 0.3333333, y: 0.3333333, z: 0.3333333, w: 0.3333333}
        outWeight: {x: 0.3333333, y: 0.3333333, z: 0.3333333, w: 0.3333333}
      - serializedVersion: 3
        time: 2.458333
        value: {x: 0.5266321, y: 0.1650832, z: 0.05334006, w: 0.8322026}
        inSlope: {x: 0.05479014, y: -0.3087741, z: 0.01904964, w: 0.02541944}
        outSlope: {x: 0.05479015, y: -0.3087741, z: 0.01904965, w: 0.02541945}
        tangentMode: 1
        weightedMode: 0
        inWeight: {x: 0.3333333, y: 0.3333333, z: 0.3333333, w: 0.3333333}
        outWeight: {x: 0.3333333, y: 0.3333333, z: 0.3333333, w: 0.3333333}
      - serializedVersion: 3
        time: 2.958333
        value: {x: 0.5186176, y: 0.01228501, z: -0.06346163, w: 0.8525594}
        inSlope: {x: -0.0964101, y: -0.2391729, z: -0.3023577, w: 0.0398033}
        outSlope: {x: -0.0964101, y: -0.2391729, z: -0.3023577, w: 0.0398033}
        tangentMode: 1
        weightedMode: 0
        inWeight: {x: 0.3333333, y: 0.3333333, z: 0.3333333, w: 0.3333333}
        outWeight: {x: 0.3333333, y: 0.3333333, z: 0.3333333, w: 0.3333333}
      - serializedVersion: 3
        time: 3.25
        value: {x: 0.4742344, y: -0.02914802, z: -0.1188383, w: 0.8718541}
        inSlope: {x: -0.2045363, y: -0.02844746, z: -0.02769241, w: 0.1064871}
        outSlope: {x: -0.2045363, y: -0.02844745, z: -0.02769241, w: 0.1064871}
        tangentMode: 1
        weightedMode: 0
        inWeight: {x: 0.3333333, y: 0.3333333, z: 0.3333333, w: 0.3333333}
        outWeight: {x: 0.3333333, y: 0.3333333, z: 0.3333333, w: 0.3333333}
      - serializedVersion: 3
        time: 3.291667
        value: {x: 0.4635399, y: -0.0295575, z: -0.1184124, w: 0.8779285}
        inSlope: {x: -0.3335209, y: 0.007868856, z: 0.05083501, w: 0.1922169}
        outSlope: {x: 0, y: 0, z: 0, w: 0}
        tangentMode: 1
        weightedMode: 0
        inWeight: {x: 0.3333333, y: 0.3333333, z: 0.3333333, w: 0.3333333}
        outWeight: {x: 0.3333333, y: 0.3333333, z: 0.3333333, w: 0.3333333}
      m_PreInfinity: 2
      m_PostInfinity: 2
      m_RotationOrder: 4
    path: Armature/Root/Bone1/Bone2/Bone3/Bone4/Bone5/Bone6
  - curve:
      serializedVersion: 2
      m_Curve:
      - serializedVersion: 3
        time: 0
        value: {x: 0.4669507, y: -0.04349488, z: -0.0253256, w: 0.8828499}
        inSlope: {x: 0, y: 0, z: 0, w: 0}
        outSlope: {x: 5.76586, y: -1.301346, z: -0.7628539, w: -1.584655}
        tangentMode: 1
        weightedMode: 0
        inWeight: {x: 0.3333333, y: 0.3333333, z: 0.3333333, w: 0.3333333}
        outWeight: {x: 0.3333333, y: 0.3333333, z: 0.3333333, w: 0.3333333}
      - serializedVersion: 3
        time: 0.04166667
        value: {x: 0.4804883, y: -0.1084455, z: -0.06357116, w: 0.8679454}
        inSlope: {x: 0.2088847, y: -1.53671, z: -0.9118084, w: -0.3716125}
        outSlope: {x: 0.208884, y: -1.53671, z: -0.9118083, w: -0.3716125}
        tangentMode: 1
        weightedMode: 0
        inWeight: {x: 0.3333333, y: 0.3333333, z: 0.3333333, w: 0.3333333}
        outWeight: {x: 0.3333333, y: 0.3333333, z: 0.3333333, w: 0.3333333}
      - serializedVersion: 3
        time: 0.4166667
        value: {x: 0.2194793, y: -0.536806, z: -0.3364205, w: 0.7419497}
        inSlope: {x: -1.358458, y: -0.6205195, z: -0.4443263, w: -0.2481301}
        outSlope: {x: -1.358458, y: -0.6205195, z: -0.4443263, w: -0.2481301}
        tangentMode: 1
        weightedMode: 0
        inWeight: {x: 0.3333333, y: 0.3333333, z: 0.3333333, w: 0.3333333}
        outWeight: {x: 0.3333333, y: 0.3333333, z: 0.3333333, w: 0.3333333}
      - serializedVersion: 3
        time: 0.6666667
        value: {x: -0.1322803, y: -0.6015629, z: -0.3898522, w: 0.6845724}
        inSlope: {x: -1.275186, y: 0.03587082, z: -0.01011083, w: -0.2171345}
        outSlope: {x: -1.275186, y: 0.03587082, z: -0.01011084, w: -0.2171345}
        tangentMode: 1
        weightedMode: 0
        inWeight: {x: 0.3333333, y: 0.3333333, z: 0.3333333, w: 0.3333333}
        outWeight: {x: 0.3333333, y: 0.3333333, z: 0.3333333, w: 0.3333333}
      - serializedVersion: 3
        time: 1
        value: {x: -0.4078473, y: -0.5329242, z: -0.3444881, w: 0.656491}
        inSlope: {x: -0.4072202, y: 0.3206061, z: 0.2438875, w: 0.1357577}
        outSlope: {x: -0.4072202, y: 0.3206061, z: 0.2438874, w: 0.1357577}
        tangentMode: 1
        weightedMode: 0
        inWeight: {x: 0.3333333, y: 0.3333333, z: 0.3333333, w: 0.3333333}
        outWeight: {x: 0.3333333, y: 0.3333333, z: 0.3333333, w: 0.3333333}
      - serializedVersion: 3
        time: 1.583333
        value: {x: -0.4810129, y: -0.3222695, z: -0.1111108, w: 0.8077273}
        inSlope: {x: -0.0701526, y: 0.3784567, z: 0.6144426, w: 0.1931154}
        outSlope: {x: -0.07015259, y: 0.3784567, z: 0.6144426, w: 0.1931154}
        tangentMode: 1
        weightedMode: 0
        inWeight: {x: 0.3333333, y: 0.3333333, z: 0.3333333, w: 0.3333333}
        outWeight: {x: 0.3333333, y: 0.3333333, z: 0.3333333, w: 0.3333333}
      - serializedVersion: 3
        time: 1.791667
        value: {x: -0.4496361, y: -0.2448568, z: 0.04307764, w: 0.8579143}
        inSlope: {x: 0.5132072, y: 0.3728485, z: 0.8738338, w: 0.3281818}
        outSlope: {x: 0.5132072, y: 0.3728485, z: 0.8738338, w: 0.3281818}
        tangentMode: 1
        weightedMode: 0
        inWeight: {x: 0.3333333, y: 0.3333333, z: 0.3333333, w: 0.3333333}
        outWeight: {x: 0.3333333, y: 0.3333333, z: 0.3333333, w: 0.3333333}
      - serializedVersion: 3
        time: 2.041667
        value: {x: -0.2033131, y: -0.1423828, z: 0.287823, w: 0.9249589}
        inSlope: {x: 1.401094, y: 0.4403324, z: 0.9735011, w: 0.07098905}
        outSlope: {x: 1.401094, y: 0.4403324, z: 0.9735011, w: 0.07098905}
        tangentMode: 1
        weightedMode: 0
        inWeight: {x: 0.3333333, y: 0.3333333, z: 0.3333333, w: 0.3333333}
        outWeight: {x: 0.3333333, y: 0.3333333, z: 0.3333333, w: 0.3333333}
      - serializedVersion: 3
        time: 2.25
        value: {x: 0.1048233, y: -0.05916141, z: 0.4447995, w: 0.8875052}
        inSlope: {x: 1.371111, y: 0.3110139, z: 0.459003, w: -0.3664899}
        outSlope: {x: 1.371111, y: 0.3110139, z: 0.459003, w: -0.3664899}
        tangentMode: 1
        weightedMode: 0
        inWeight: {x: 0.3333333, y: 0.3333333, z: 0.3333333, w: 0.3333333}
        outWeight: {x: 0.3333333, y: 0.3333333, z: 0.3333333, w: 0.3333333}
      - serializedVersion: 3
        time: 2.5
        value: {x: 0.348801, y: -0.02462418, z: 0.4697212, w: 0.810613}
        inSlope: {x: 0.609641, y: -0.003936917, z: -0.2496796, w: -0.1174698}
        outSlope: {x: 0.609641, y: -0.003936917, z: -0.2496796, w: -0.1174698}
        tangentMode: 1
        weightedMode: 0
        inWeight: {x: 0.3333333, y: 0.3333333, z: 0.3333333, w: 0.3333333}
        outWeight: {x: 0.3333333, y: 0.3333333, z: 0.3333333, w: 0.3333333}
      - serializedVersion: 3
        time: 2.875
        value: {x: 0.4909334, y: -0.03605646, z: 0.2186461, w: 0.8425427}
        inSlope: {x: 0.1423785, y: -0.04017217, z: -0.9021824, w: 0.1496383}
        outSlope: {x: 0.1423785, y: -0.04017217, z: -0.9021825, w: 0.1496384}
        tangentMode: 1
        weightedMode: 0
        inWeight: {x: 0.3333333, y: 0.3333333, z: 0.3333333, w: 0.3333333}
        outWeight: {x: 0.3333333, y: 0.3333333, z: 0.3333333, w: 0.3333333}
      - serializedVersion: 3
        time: 3.25
        value: {x: 0.4734042, y: -0.04393824, z: -0.02239698, w: 0.8794637}
        inSlope: {x: -0.152288, y: 0.006883027, z: -0.1456819, w: 0.07910141}
        outSlope: {x: -0.152288, y: 0.006883027, z: -0.1456819, w: 0.07910141}
        tangentMode: 1
        weightedMode: 0
        inWeight: {x: 0.3333333, y: 0.3333333, z: 0.3333333, w: 0.3333333}
        outWeight: {x: 0.3333333, y: 0.3333333, z: 0.3333333, w: 0.3333333}
      - serializedVersion: 3
        time: 3.291667
        value: {x: 0.465619, y: -0.04329799, z: -0.02573168, w: 0.8837312}
        inSlope: {x: -0.2411313, y: 0.02575996, z: -0.02496275, w: 0.1326771}
        outSlope: {x: 0, y: 0, z: 0, w: 0}
        tangentMode: 1
        weightedMode: 0
        inWeight: {x: 0.3333333, y: 0.3333333, z: 0.3333333, w: 0.3333333}
        outWeight: {x: 0.3333333, y: 0.3333333, z: 0.3333333, w: 0.3333333}
      m_PreInfinity: 2
      m_PostInfinity: 2
      m_RotationOrder: 4
    path: Armature/Root/Bone1/Bone2/Bone3/Bone4/Bone5/Bone6/Bone7
  - curve:
      serializedVersion: 2
      m_Curve:
      - serializedVersion: 3
        time: 0
        value: {x: -0.7071068, y: 0, z: 0, w: 0.7071067}
        inSlope: {x: 0, y: 0, z: 0, w: 0}
        outSlope: {x: 0, y: 0, z: 0, w: 0}
        tangentMode: 1
        weightedMode: 0
        inWeight: {x: 0.3333333, y: 0.3333333, z: 0.3333333, w: 0.3333333}
        outWeight: {x: 0.3333333, y: 0.3333333, z: 0.3333333, w: 0.3333333}
      - serializedVersion: 3
        time: 3.375
        value: {x: -0.7071068, y: 0, z: 0, w: 0.7071067}
        inSlope: {x: 0, y: 0, z: 0, w: 0}
        outSlope: {x: 0, y: 0, z: 0, w: 0}
        tangentMode: 1
        weightedMode: 0
        inWeight: {x: 0.3333333, y: 0.3333333, z: 0.3333333, w: 0.3333333}
        outWeight: {x: 0.3333333, y: 0.3333333, z: 0.3333333, w: 0.3333333}
      m_PreInfinity: 2
      m_PostInfinity: 2
      m_RotationOrder: 4
    path: Armature
  - curve:
      serializedVersion: 2
      m_Curve:
      - serializedVersion: 3
        time: 0
        value: {x: 0.7071068, y: 0, z: 0, w: 0.7071067}
        inSlope: {x: 0, y: 0, z: 0, w: 0}
        outSlope: {x: 0, y: 0, z: 0, w: 0}
        tangentMode: 1
        weightedMode: 0
        inWeight: {x: 0.3333333, y: 0.3333333, z: 0.3333333, w: 0.3333333}
        outWeight: {x: 0.3333333, y: 0.3333333, z: 0.3333333, w: 0.3333333}
      - serializedVersion: 3
        time: 3.375
        value: {x: 0.7071068, y: 0, z: 0, w: 0.7071067}
        inSlope: {x: 0, y: 0, z: 0, w: 0}
        outSlope: {x: 0, y: 0, z: 0, w: 0}
        tangentMode: 1
        weightedMode: 0
        inWeight: {x: 0.3333333, y: 0.3333333, z: 0.3333333, w: 0.3333333}
        outWeight: {x: 0.3333333, y: 0.3333333, z: 0.3333333, w: 0.3333333}
      m_PreInfinity: 2
      m_PostInfinity: 2
      m_RotationOrder: 4
    path: Armature/Root
  m_CompressedRotationCurves: []
  m_EulerCurves: []
  m_PositionCurves:
  - curve:
      serializedVersion: 2
      m_Curve:
      - serializedVersion: 3
        time: 0
        value: {x: 0, y: 0, z: -0.008}
        inSlope: {x: 0, y: 0, z: 0}
        outSlope: {x: 0, y: 0, z: 0}
        tangentMode: 1
        weightedMode: 0
        inWeight: {x: 0.3333333, y: 0.3333333, z: 0.3333333}
        outWeight: {x: 0.3333333, y: 0.3333333, z: 0.3333333}
      - serializedVersion: 3
        time: 2.041667
        value: {x: 0, y: 0, z: -0.008}
        inSlope: {x: 0, y: 0, z: 0}
        outSlope: {x: 0, y: 0, z: 0}
        tangentMode: 1
        weightedMode: 0
        inWeight: {x: 0.3333333, y: 0.3333333, z: 0.3333333}
        outWeight: {x: 0.3333333, y: 0.3333333, z: 0.3333333}
      - serializedVersion: 3
        time: 3.291667
        value: {x: 0, y: 0, z: -0.008}
        inSlope: {x: 0, y: 0, z: 0}
        outSlope: {x: 0, y: 0, z: 0}
        tangentMode: 1
        weightedMode: 0
        inWeight: {x: 0.3333333, y: 0.3333333, z: 0.3333333}
        outWeight: {x: 0.3333333, y: 0.3333333, z: 0.3333333}
      m_PreInfinity: 2
      m_PostInfinity: 2
      m_RotationOrder: 4
    path: Armature/Root
  - curve:
      serializedVersion: 2
      m_Curve:
      - serializedVersion: 3
        time: 0
        value: {x: 0, y: 0, z: 0}
        inSlope: {x: 0, y: 0, z: 0}
        outSlope: {x: 0, y: 0, z: 0}
        tangentMode: 1
        weightedMode: 0
        inWeight: {x: 0.3333333, y: 0.3333333, z: 0.3333333}
        outWeight: {x: 0.3333333, y: 0.3333333, z: 0.3333333}
      - serializedVersion: 3
        time: 3.375
        value: {x: 0, y: 0, z: 0}
        inSlope: {x: 0, y: 0, z: 0}
        outSlope: {x: 0, y: 0, z: 0}
        tangentMode: 1
        weightedMode: 0
        inWeight: {x: 0.3333333, y: 0.3333333, z: 0.3333333}
        outWeight: {x: 0.3333333, y: 0.3333333, z: 0.3333333}
      m_PreInfinity: 2
      m_PostInfinity: 2
      m_RotationOrder: 4
    path: Armature
  - curve:
      serializedVersion: 2
      m_Curve:
      - serializedVersion: 3
        time: 0
        value: {x: 0, y: 0.008, z: 0}
        inSlope: {x: 0, y: 0, z: 0}
        outSlope: {x: 0, y: 0, z: 0}
        tangentMode: 1
        weightedMode: 0
        inWeight: {x: 0.3333333, y: 0.3333333, z: 0.3333333}
        outWeight: {x: 0.3333333, y: 0.3333333, z: 0.3333333}
      - serializedVersion: 3
        time: 3.375
        value: {x: 0, y: 0.008, z: 0}
        inSlope: {x: 0, y: 0, z: 0}
        outSlope: {x: 0, y: 0, z: 0}
        tangentMode: 1
        weightedMode: 0
        inWeight: {x: 0.3333333, y: 0.3333333, z: 0.3333333}
        outWeight: {x: 0.3333333, y: 0.3333333, z: 0.3333333}
      m_PreInfinity: 2
      m_PostInfinity: 2
      m_RotationOrder: 4
    path: Armature/Root/Bone1
  - curve:
      serializedVersion: 2
      m_Curve:
      - serializedVersion: 3
        time: 0
        value: {x: 0, y: 0.008203726, z: 0}
        inSlope: {x: 0, y: 0, z: 0}
        outSlope: {x: 0, y: 0, z: 0}
        tangentMode: 1
        weightedMode: 0
        inWeight: {x: 0.3333333, y: 0.3333333, z: 0.3333333}
        outWeight: {x: 0.3333333, y: 0.3333333, z: 0.3333333}
      - serializedVersion: 3
        time: 3.375
        value: {x: 0, y: 0.008203726, z: 0}
        inSlope: {x: 0, y: 0, z: 0}
        outSlope: {x: 0, y: 0, z: 0}
        tangentMode: 1
        weightedMode: 0
        inWeight: {x: 0.3333333, y: 0.3333333, z: 0.3333333}
        outWeight: {x: 0.3333333, y: 0.3333333, z: 0.3333333}
      m_PreInfinity: 2
      m_PostInfinity: 2
      m_RotationOrder: 4
    path: Armature/Root/Bone1/Bone2
  - curve:
      serializedVersion: 2
      m_Curve:
      - serializedVersion: 3
        time: 0
        value: {x: 0, y: 0.005886933, z: 0}
        inSlope: {x: 0, y: 0, z: 0}
        outSlope: {x: 0, y: 0, z: 0}
        tangentMode: 1
        weightedMode: 0
        inWeight: {x: 0.3333333, y: 0.3333333, z: 0.3333333}
        outWeight: {x: 0.3333333, y: 0.3333333, z: 0.3333333}
      - serializedVersion: 3
        time: 3.375
        value: {x: 0, y: 0.005886933, z: 0}
        inSlope: {x: 0, y: 0, z: 0}
        outSlope: {x: 0, y: 0, z: 0}
        tangentMode: 1
        weightedMode: 0
        inWeight: {x: 0.3333333, y: 0.3333333, z: 0.3333333}
        outWeight: {x: 0.3333333, y: 0.3333333, z: 0.3333333}
      m_PreInfinity: 2
      m_PostInfinity: 2
      m_RotationOrder: 4
    path: Armature/Root/Bone1/Bone2/Bone3
  - curve:
      serializedVersion: 2
      m_Curve:
      - serializedVersion: 3
        time: 0
        value: {x: 0, y: 0.005810974, z: 0}
        inSlope: {x: 0, y: 0, z: 0}
        outSlope: {x: 0, y: 0, z: 0}
        tangentMode: 1
        weightedMode: 0
        inWeight: {x: 0.3333333, y: 0.3333333, z: 0.3333333}
        outWeight: {x: 0.3333333, y: 0.3333333, z: 0.3333333}
      - serializedVersion: 3
        time: 3.375
        value: {x: 0, y: 0.005810974, z: 0}
        inSlope: {x: 0, y: 0, z: 0}
        outSlope: {x: 0, y: 0, z: 0}
        tangentMode: 1
        weightedMode: 0
        inWeight: {x: 0.3333333, y: 0.3333333, z: 0.3333333}
        outWeight: {x: 0.3333333, y: 0.3333333, z: 0.3333333}
      m_PreInfinity: 2
      m_PostInfinity: 2
      m_RotationOrder: 4
    path: Armature/Root/Bone1/Bone2/Bone3/Bone4
  - curve:
      serializedVersion: 2
      m_Curve:
      - serializedVersion: 3
        time: 0
        value: {x: 0, y: 0.00543117, z: 0}
        inSlope: {x: 0, y: 0, z: 0}
        outSlope: {x: 0, y: 0, z: 0}
        tangentMode: 1
        weightedMode: 0
        inWeight: {x: 0.3333333, y: 0.3333333, z: 0.3333333}
        outWeight: {x: 0.3333333, y: 0.3333333, z: 0.3333333}
      - serializedVersion: 3
        time: 3.375
        value: {x: 0, y: 0.00543117, z: 0}
        inSlope: {x: 0, y: 0, z: 0}
        outSlope: {x: 0, y: 0, z: 0}
        tangentMode: 1
        weightedMode: 0
        inWeight: {x: 0.3333333, y: 0.3333333, z: 0.3333333}
        outWeight: {x: 0.3333333, y: 0.3333333, z: 0.3333333}
      m_PreInfinity: 2
      m_PostInfinity: 2
      m_RotationOrder: 4
    path: Armature/Root/Bone1/Bone2/Bone3/Bone4/Bone5
  - curve:
      serializedVersion: 2
      m_Curve:
      - serializedVersion: 3
        time: 0
        value: {x: 0, y: 0.00543117, z: 0}
        inSlope: {x: 0, y: 0, z: 0}
        outSlope: {x: 0, y: 0, z: 0}
        tangentMode: 1
        weightedMode: 0
        inWeight: {x: 0.3333333, y: 0.3333333, z: 0.3333333}
        outWeight: {x: 0.3333333, y: 0.3333333, z: 0.3333333}
      - serializedVersion: 3
        time: 3.375
        value: {x: 0, y: 0.00543117, z: 0}
        inSlope: {x: 0, y: 0, z: 0}
        outSlope: {x: 0, y: 0, z: 0}
        tangentMode: 1
        weightedMode: 0
        inWeight: {x: 0.3333333, y: 0.3333333, z: 0.3333333}
        outWeight: {x: 0.3333333, y: 0.3333333, z: 0.3333333}
      m_PreInfinity: 2
      m_PostInfinity: 2
      m_RotationOrder: 4
    path: Armature/Root/Bone1/Bone2/Bone3/Bone4/Bone5/Bone6
  - curve:
      serializedVersion: 2
      m_Curve:
      - serializedVersion: 3
        time: 0
        value: {x: 0, y: 0.006114814, z: 0}
        inSlope: {x: 0, y: 0, z: 0}
        outSlope: {x: 0, y: 0, z: 0}
        tangentMode: 1
        weightedMode: 0
        inWeight: {x: 0.3333333, y: 0.3333333, z: 0.3333333}
        outWeight: {x: 0.3333333, y: 0.3333333, z: 0.3333333}
      - serializedVersion: 3
        time: 3.375
        value: {x: 0, y: 0.006114814, z: 0}
        inSlope: {x: 0, y: 0, z: 0}
        outSlope: {x: 0, y: 0, z: 0}
        tangentMode: 1
        weightedMode: 0
        inWeight: {x: 0.3333333, y: 0.3333333, z: 0.3333333}
        outWeight: {x: 0.3333333, y: 0.3333333, z: 0.3333333}
      m_PreInfinity: 2
      m_PostInfinity: 2
      m_RotationOrder: 4
    path: Armature/Root/Bone1/Bone2/Bone3/Bone4/Bone5/Bone6/Bone7
  m_ScaleCurves:
  - curve:
      serializedVersion: 2
      m_Curve:
      - serializedVersion: 3
        time: 0
        value: {x: 100, y: 100, z: 100}
        inSlope: {x: 0, y: 0, z: 0}
        outSlope: {x: 0, y: 0, z: 0}
        tangentMode: 1
        weightedMode: 0
        inWeight: {x: 0.3333333, y: 0.3333333, z: 0.3333333}
        outWeight: {x: 0.3333333, y: 0.3333333, z: 0.3333333}
      - serializedVersion: 3
        time: 3.375
        value: {x: 100, y: 100, z: 100}
        inSlope: {x: 0, y: 0, z: 0}
        outSlope: {x: 0, y: 0, z: 0}
        tangentMode: 1
        weightedMode: 0
        inWeight: {x: 0.3333333, y: 0.3333333, z: 0.3333333}
        outWeight: {x: 0.3333333, y: 0.3333333, z: 0.3333333}
      m_PreInfinity: 2
      m_PostInfinity: 2
      m_RotationOrder: 4
    path: Armature
  - curve:
      serializedVersion: 2
      m_Curve:
      - serializedVersion: 3
        time: 0
        value: {x: 1, y: 1, z: 1}
        inSlope: {x: 0, y: 0, z: 0}
        outSlope: {x: 0, y: 0, z: 0}
        tangentMode: 1
        weightedMode: 0
        inWeight: {x: 0.3333333, y: 0.3333333, z: 0.3333333}
        outWeight: {x: 0.3333333, y: 0.3333333, z: 0.3333333}
      - serializedVersion: 3
        time: 3.375
        value: {x: 1, y: 1, z: 1}
        inSlope: {x: 0, y: 0, z: 0}
        outSlope: {x: 0, y: 0, z: 0}
        tangentMode: 1
        weightedMode: 0
        inWeight: {x: 0.3333333, y: 0.3333333, z: 0.3333333}
        outWeight: {x: 0.3333333, y: 0.3333333, z: 0.3333333}
      m_PreInfinity: 2
      m_PostInfinity: 2
      m_RotationOrder: 4
    path: Armature/Root
  - curve:
      serializedVersion: 2
      m_Curve:
      - serializedVersion: 3
        time: 0
        value: {x: 1, y: 1, z: 1}
        inSlope: {x: 0, y: 0, z: 0}
        outSlope: {x: 0, y: 0, z: 0}
        tangentMode: 1
        weightedMode: 0
        inWeight: {x: 0.3333333, y: 0.3333333, z: 0.3333333}
        outWeight: {x: 0.3333333, y: 0.3333333, z: 0.3333333}
      - serializedVersion: 3
        time: 3.375
        value: {x: 1, y: 1, z: 1}
        inSlope: {x: 0, y: 0, z: 0}
        outSlope: {x: 0, y: 0, z: 0}
        tangentMode: 1
        weightedMode: 0
        inWeight: {x: 0.3333333, y: 0.3333333, z: 0.3333333}
        outWeight: {x: 0.3333333, y: 0.3333333, z: 0.3333333}
      m_PreInfinity: 2
      m_PostInfinity: 2
      m_RotationOrder: 4
    path: Armature/Root/Bone1
  - curve:
      serializedVersion: 2
      m_Curve:
      - serializedVersion: 3
        time: 0
        value: {x: 1, y: 1, z: 1}
        inSlope: {x: 0, y: 0, z: 0}
        outSlope: {x: 0, y: 0, z: 0}
        tangentMode: 1
        weightedMode: 0
        inWeight: {x: 0.3333333, y: 0.3333333, z: 0.3333333}
        outWeight: {x: 0.3333333, y: 0.3333333, z: 0.3333333}
      - serializedVersion: 3
        time: 3.375
        value: {x: 1, y: 1, z: 1}
        inSlope: {x: 0, y: 0, z: 0}
        outSlope: {x: 0, y: 0, z: 0}
        tangentMode: 1
        weightedMode: 0
        inWeight: {x: 0.3333333, y: 0.3333333, z: 0.3333333}
        outWeight: {x: 0.3333333, y: 0.3333333, z: 0.3333333}
      m_PreInfinity: 2
      m_PostInfinity: 2
      m_RotationOrder: 4
    path: Armature/Root/Bone1/Bone2
  - curve:
      serializedVersion: 2
      m_Curve:
      - serializedVersion: 3
        time: 0
        value: {x: 1, y: 1, z: 1}
        inSlope: {x: 0, y: 0, z: 0}
        outSlope: {x: 0, y: 0, z: 0}
        tangentMode: 1
        weightedMode: 0
        inWeight: {x: 0.3333333, y: 0.3333333, z: 0.3333333}
        outWeight: {x: 0.3333333, y: 0.3333333, z: 0.3333333}
      - serializedVersion: 3
        time: 3.375
        value: {x: 1, y: 1, z: 1}
        inSlope: {x: 0, y: 0, z: 0}
        outSlope: {x: 0, y: 0, z: 0}
        tangentMode: 1
        weightedMode: 0
        inWeight: {x: 0.3333333, y: 0.3333333, z: 0.3333333}
        outWeight: {x: 0.3333333, y: 0.3333333, z: 0.3333333}
      m_PreInfinity: 2
      m_PostInfinity: 2
      m_RotationOrder: 4
    path: Armature/Root/Bone1/Bone2/Bone3
  - curve:
      serializedVersion: 2
      m_Curve:
      - serializedVersion: 3
        time: 0
        value: {x: 1, y: 1, z: 1}
        inSlope: {x: 0, y: 0, z: 0}
        outSlope: {x: 0, y: 0, z: 0}
        tangentMode: 1
        weightedMode: 0
        inWeight: {x: 0.3333333, y: 0.3333333, z: 0.3333333}
        outWeight: {x: 0.3333333, y: 0.3333333, z: 0.3333333}
      - serializedVersion: 3
        time: 3.375
        value: {x: 1, y: 1, z: 1}
        inSlope: {x: 0, y: 0, z: 0}
        outSlope: {x: 0, y: 0, z: 0}
        tangentMode: 1
        weightedMode: 0
        inWeight: {x: 0.3333333, y: 0.3333333, z: 0.3333333}
        outWeight: {x: 0.3333333, y: 0.3333333, z: 0.3333333}
      m_PreInfinity: 2
      m_PostInfinity: 2
      m_RotationOrder: 4
    path: Armature/Root/Bone1/Bone2/Bone3/Bone4
  - curve:
      serializedVersion: 2
      m_Curve:
      - serializedVersion: 3
        time: 0
        value: {x: 1, y: 1, z: 1}
        inSlope: {x: 0, y: 0, z: 0}
        outSlope: {x: 0, y: 0, z: 0}
        tangentMode: 1
        weightedMode: 0
        inWeight: {x: 0.3333333, y: 0.3333333, z: 0.3333333}
        outWeight: {x: 0.3333333, y: 0.3333333, z: 0.3333333}
      - serializedVersion: 3
        time: 3.375
        value: {x: 1, y: 1, z: 1}
        inSlope: {x: 0, y: 0, z: 0}
        outSlope: {x: 0, y: 0, z: 0}
        tangentMode: 1
        weightedMode: 0
        inWeight: {x: 0.3333333, y: 0.3333333, z: 0.3333333}
        outWeight: {x: 0.3333333, y: 0.3333333, z: 0.3333333}
      m_PreInfinity: 2
      m_PostInfinity: 2
      m_RotationOrder: 4
    path: Armature/Root/Bone1/Bone2/Bone3/Bone4/Bone5
  - curve:
      serializedVersion: 2
      m_Curve:
      - serializedVersion: 3
        time: 0
        value: {x: 1, y: 1, z: 1}
        inSlope: {x: 0, y: 0, z: 0}
        outSlope: {x: 0, y: 0, z: 0}
        tangentMode: 1
        weightedMode: 0
        inWeight: {x: 0.3333333, y: 0.3333333, z: 0.3333333}
        outWeight: {x: 0.3333333, y: 0.3333333, z: 0.3333333}
      - serializedVersion: 3
        time: 3.375
        value: {x: 1, y: 1, z: 1}
        inSlope: {x: 0, y: 0, z: 0}
        outSlope: {x: 0, y: 0, z: 0}
        tangentMode: 1
        weightedMode: 0
        inWeight: {x: 0.3333333, y: 0.3333333, z: 0.3333333}
        outWeight: {x: 0.3333333, y: 0.3333333, z: 0.3333333}
      m_PreInfinity: 2
      m_PostInfinity: 2
      m_RotationOrder: 4
    path: Armature/Root/Bone1/Bone2/Bone3/Bone4/Bone5/Bone6
  - curve:
      serializedVersion: 2
      m_Curve:
      - serializedVersion: 3
        time: 0
        value: {x: 1, y: 1, z: 1}
        inSlope: {x: 0, y: 0, z: 0}
        outSlope: {x: 0, y: 0, z: 0}
        tangentMode: 1
        weightedMode: 0
        inWeight: {x: 0.3333333, y: 0.3333333, z: 0.3333333}
        outWeight: {x: 0.3333333, y: 0.3333333, z: 0.3333333}
      - serializedVersion: 3
        time: 3.375
        value: {x: 1, y: 1, z: 1}
        inSlope: {x: 0, y: 0, z: 0}
        outSlope: {x: 0, y: 0, z: 0}
        tangentMode: 1
        weightedMode: 0
        inWeight: {x: 0.3333333, y: 0.3333333, z: 0.3333333}
        outWeight: {x: 0.3333333, y: 0.3333333, z: 0.3333333}
      m_PreInfinity: 2
      m_PostInfinity: 2
      m_RotationOrder: 4
    path: Armature/Root/Bone1/Bone2/Bone3/Bone4/Bone5/Bone6/Bone7
  m_FloatCurves: []
  m_PPtrCurves: []
  m_SampleRate: 24
  m_WrapMode: 0
  m_Bounds:
    m_Center: {x: 0, y: 0, z: 0}
    m_Extent: {x: 0, y: 0, z: 0}
  m_ClipBindingConstant:
    genericBindings:
    - serializedVersion: 2
      path: 1958413757
      attribute: 2
      script: {fileID: 0}
      typeID: 4
      customType: 0
      isPPtrCurve: 0
    - serializedVersion: 2
      path: 1667585208
      attribute: 2
      script: {fileID: 0}
      typeID: 4
      customType: 0
      isPPtrCurve: 0
    - serializedVersion: 2
      path: 2654890169
      attribute: 2
      script: {fileID: 0}
      typeID: 4
      customType: 0
      isPPtrCurve: 0
    - serializedVersion: 2
      path: 247927576
      attribute: 2
      script: {fileID: 0}
      typeID: 4
      customType: 0
      isPPtrCurve: 0
    - serializedVersion: 2
      path: 603967942
      attribute: 2
      script: {fileID: 0}
      typeID: 4
      customType: 0
      isPPtrCurve: 0
    - serializedVersion: 2
      path: 69026661
      attribute: 2
      script: {fileID: 0}
      typeID: 4
      customType: 0
      isPPtrCurve: 0
    - serializedVersion: 2
      path: 102808853
      attribute: 2
      script: {fileID: 0}
      typeID: 4
      customType: 0
      isPPtrCurve: 0
    - serializedVersion: 2
      path: 3160000220
      attribute: 1
      script: {fileID: 0}
      typeID: 4
      customType: 0
      isPPtrCurve: 0
    - serializedVersion: 2
      path: 2104266162
      attribute: 1
      script: {fileID: 0}
      typeID: 4
      customType: 0
      isPPtrCurve: 0
    - serializedVersion: 2
      path: 1958413757
      attribute: 1
      script: {fileID: 0}
      typeID: 4
      customType: 0
      isPPtrCurve: 0
    - serializedVersion: 2
      path: 1667585208
      attribute: 1
      script: {fileID: 0}
      typeID: 4
      customType: 0
      isPPtrCurve: 0
    - serializedVersion: 2
      path: 2654890169
      attribute: 1
      script: {fileID: 0}
      typeID: 4
      customType: 0
      isPPtrCurve: 0
    - serializedVersion: 2
      path: 247927576
      attribute: 1
      script: {fileID: 0}
      typeID: 4
      customType: 0
      isPPtrCurve: 0
    - serializedVersion: 2
      path: 603967942
      attribute: 1
      script: {fileID: 0}
      typeID: 4
      customType: 0
      isPPtrCurve: 0
    - serializedVersion: 2
      path: 69026661
      attribute: 1
      script: {fileID: 0}
      typeID: 4
      customType: 0
      isPPtrCurve: 0
    - serializedVersion: 2
      path: 102808853
      attribute: 1
      script: {fileID: 0}
      typeID: 4
      customType: 0
      isPPtrCurve: 0
    - serializedVersion: 2
      path: 2104266162
      attribute: 2
      script: {fileID: 0}
      typeID: 4
      customType: 0
      isPPtrCurve: 0
    - serializedVersion: 2
      path: 3160000220
      attribute: 2
      script: {fileID: 0}
      typeID: 4
      customType: 0
      isPPtrCurve: 0
    - serializedVersion: 2
      path: 2104266162
      attribute: 3
      script: {fileID: 0}
      typeID: 4
      customType: 0
      isPPtrCurve: 0
    - serializedVersion: 2
      path: 3160000220
      attribute: 3
      script: {fileID: 0}
      typeID: 4
      customType: 0
      isPPtrCurve: 0
    - serializedVersion: 2
      path: 1958413757
      attribute: 3
      script: {fileID: 0}
      typeID: 4
      customType: 0
      isPPtrCurve: 0
    - serializedVersion: 2
      path: 1667585208
      attribute: 3
      script: {fileID: 0}
      typeID: 4
      customType: 0
      isPPtrCurve: 0
    - serializedVersion: 2
      path: 2654890169
      attribute: 3
      script: {fileID: 0}
      typeID: 4
      customType: 0
      isPPtrCurve: 0
    - serializedVersion: 2
      path: 247927576
      attribute: 3
      script: {fileID: 0}
      typeID: 4
      customType: 0
      isPPtrCurve: 0
    - serializedVersion: 2
      path: 603967942
      attribute: 3
      script: {fileID: 0}
      typeID: 4
      customType: 0
      isPPtrCurve: 0
    - serializedVersion: 2
      path: 69026661
      attribute: 3
      script: {fileID: 0}
      typeID: 4
      customType: 0
      isPPtrCurve: 0
    - serializedVersion: 2
      path: 102808853
      attribute: 3
      script: {fileID: 0}
      typeID: 4
      customType: 0
      isPPtrCurve: 0
    pptrCurveMapping: []
  m_AnimationClipSettings:
    serializedVersion: 2
    m_AdditiveReferencePoseClip: {fileID: 0}
    m_AdditiveReferencePoseTime: 0
    m_StartTime: 0
    m_StopTime: 3.291667
    m_OrientationOffsetY: 0
    m_Level: 0
    m_CycleOffset: 0
    m_HasAdditiveReferencePose: 0
    m_LoopTime: 1
    m_LoopBlend: 1
    m_LoopBlendOrientation: 0
    m_LoopBlendPositionY: 0
    m_LoopBlendPositionXZ: 0
    m_KeepOriginalOrientation: 0
    m_KeepOriginalPositionY: 1
    m_KeepOriginalPositionXZ: 0
    m_HeightFromFeet: 0
    m_Mirror: 0
  m_EditorCurves: []
  m_EulerEditorCurves: []
  m_HasGenericRootTransform: 0
  m_HasMotionFloatCurves: 0
  m_Events: []
