%YAML 1.1
%TAG !u! tag:unity3d.com,2011:
--- !u!1001 &100100000
PrefabInstance:
  serializedVersion: 2
  m_RootGameObject: {fileID: 1543984829085001}
  m_Modification:
    m_TransformParent: {fileID: 0}
    m_Modifications: []
    m_RemovedComponents: []
  m_SourcePrefab: {fileID: 0}
--- !u!1 &1543984829085001
GameObject:
  m_CorrespondingSourceObject: {fileID: 0}
  m_PrefabInstance: {fileID: 100100000}
  m_PrefabAsset: {fileID: 0}
  serializedVersion: 5
  m_Component:
  - component: {fileID: 4510687412899783}
  - component: {fileID: 114440717694737891}
  - component: {fileID: 114416777348417836}
  m_Layer: 0
  m_Name: DG_MeadowsFarm
  m_TagString: Untagged
  m_Icon: {fileID: 0}
  m_NavMeshLayer: 0
  m_StaticEditorFlags: 0
  m_IsActive: 1
--- !u!4 &4510687412899783
Transform:
  m_CorrespondingSourceObject: {fileID: 0}
  m_PrefabInstance: {fileID: 100100000}
  m_PrefabAsset: {fileID: 0}
  m_GameObject: {fileID: 1543984829085001}
  m_LocalRotation: {x: 0, y: 0, z: 0, w: 1}
  m_LocalPosition: {x: 0, y: 0, z: 0}
  m_LocalScale: {x: 1, y: 1, z: 1}
  m_Children: []
  m_Father: {fileID: 0}
  m_RootOrder: 0
  m_LocalEulerAnglesHint: {x: 0, y: 0, z: 0}
--- !u!114 &114440717694737891
MonoBehaviour:
  m_CorrespondingSourceObject: {fileID: 0}
  m_PrefabInstance: {fileID: 100100000}
  m_PrefabAsset: {fileID: 0}
  m_GameObject: {fileID: 1543984829085001}
  m_Enabled: 1
  m_EditorHideFlags: 0
  m_Script: {fileID: 11500000, guid: cea811589653d4e4d904c6736cbab139, type: 3}
  m_Name:
  m_EditorClassIdentifier:
  m_algorithm: 2
  m_maxRooms: 30
  m_minRooms: 20
  m_minRequiredRooms: 1
  m_requiredRooms: []
  m_themes: 64
  m_doorTypes:
  - m_prefab: {fileID: 1727644446076159, guid: 1fc55bf7c449a5447accdd55874b52e8, type: 2}
    m_connectionType:
  m_doorChance: 0.5
  m_maxTilt: 25
  m_tileWidth: 10
  m_gridSize: 4
  m_spawnChance: 0.5
  m_campRadiusMin: 18
  m_campRadiusMax: 32
  m_minAltitude: 1
  m_perimeterSections: 10
  m_perimeterBuffer: 0
  m_zoneCenter: {x: 0, y: 50, z: 0}
  m_zoneSize: {x: 64, y: 64, z: 64}
--- !u!114 &114416777348417836
MonoBehaviour:
  m_CorrespondingSourceObject: {fileID: 0}
  m_PrefabInstance: {fileID: 100100000}
  m_PrefabAsset: {fileID: 0}
  m_GameObject: {fileID: 1543984829085001}
  m_Enabled: 1
  m_EditorHideFlags: 0
  m_Script: {fileID: 11500000, guid: 8d13d63090ca3f942b327ae131eec5a0, type: 3}
  m_Name:
  m_EditorClassIdentifier:
  m_persistent: 1
  m_distant: 0
  m_type: 2
  m_syncInitialScale: 0
