%YAML 1.1
%TAG !u! tag:unity3d.com,2011:
--- !u!1001 &100100000
PrefabInstance:
  serializedVersion: 2
  m_RootGameObject: {fileID: 1402803640468293}
  m_Modification:
    m_TransformParent: {fileID: 0}
    m_Modifications: []
    m_RemovedComponents: []
  m_SourcePrefab: {fileID: 0}
--- !u!1 &1402803640468293
GameObject:
  m_CorrespondingSourceObject: {fileID: 0}
  m_PrefabInstance: {fileID: 100100000}
  m_PrefabAsset: {fileID: 0}
  serializedVersion: 5
  m_Component:
  - component: {fileID: 4376086115623531}
  - component: {fileID: 114784355948728143}
  m_Layer: 20
  m_Name: instanced_swamp_ormbunke
  m_TagString: Untagged
  m_Icon: {fileID: 0}
  m_NavMeshLayer: 0
  m_StaticEditorFlags: 0
  m_IsActive: 1
--- !u!4 &4376086115623531
Transform:
  m_CorrespondingSourceObject: {fileID: 0}
  m_PrefabInstance: {fileID: 100100000}
  m_PrefabAsset: {fileID: 0}
  m_GameObject: {fileID: 1402803640468293}
  m_LocalRotation: {x: 0, y: 0, z: 0, w: 1}
  m_LocalPosition: {x: 0, y: 50, z: 0}
  m_LocalScale: {x: 1, y: 1, z: 1}
  m_Children: []
  m_Father: {fileID: 0}
  m_RootOrder: 0
  m_LocalEulerAnglesHint: {x: 0, y: 0, z: 0}
--- !u!114 &114784355948728143
MonoBehaviour:
  m_CorrespondingSourceObject: {fileID: 0}
  m_PrefabInstance: {fileID: 100100000}
  m_PrefabAsset: {fileID: 0}
  m_GameObject: {fileID: 1402803640468293}
  m_Enabled: 1
  m_EditorHideFlags: 0
  m_Script: {fileID: 11500000, guid: eef6423d4c6b84746a4fad58cc9aa559, type: 3}
  m_Name:
  m_EditorClassIdentifier:
  m_mesh: {fileID: 4300000, guid: f2ddc596ad8b23344ba8538b70afa9c4, type: 2}
  m_material: {fileID: 2100000, guid: 52596b4ae3da74c4081f250ce939ff81, type: 2}
  m_scale: {x: 1, y: 1, z: 1}
  m_frustumCull: 1
  m_useLod: 1
  m_useXZLodDistance: 1
  m_lodMinDistance: 20
  m_lodMaxDistance: 100
  m_shadowCasting: 0
