%YAML 1.1
%TAG !u! tag:unity3d.com,2011:
--- !u!114 &11400000
MonoBehaviour:
  m_CorrespondingSourceObject: {fileID: 0}
  m_PrefabInstance: {fileID: 0}
  m_PrefabAsset: {fileID: 0}
  m_GameObject: {fileID: 0}
  m_Enabled: 1
  m_EditorHideFlags: 0
  m_Script: {fileID: 11500000, guid: 726b484fff4553d448ddd7055d4006dc, type: 3}
  m_Name: Recipe_SwordFire
  m_EditorClassIdentifier:
  m_item: {fileID: 114074987471945048, guid: ad521f11e8948bb49b95a20c79fbcb07, type: 2}
  m_amount: 1
  m_enabled: 0
  m_craftingStation: {fileID: 114297578135988956, guid: a7e567619ee7df1489e21af2212f5d20, type: 2}
  m_repairStation: {fileID: 0}
  m_minStationLevel: 2
  m_resources:
  - m_resItem: {fileID: 114334719979847460, guid: 6f54f8fe5c887cf419faa47aefb1fc64, type: 2}
    m_amount: 2
    m_amountPerLevel: 0
    m_recover: 1
  - m_resItem: {fileID: 114190667780921573, guid: d751d3f0a12f9294e814113ed1e6005a, type: 2}
    m_amount: 20
    m_amountPerLevel: 10
    m_recover: 1
  - m_resItem: {fileID: 114326243477814817, guid: ab5cfcb97b2dc904a88603a50a569932, type: 2}
    m_amount: 20
    m_amountPerLevel: 10
    m_recover: 1
  - m_resItem: {fileID: 114016541828145512, guid: 35d34bb069254a243b9fef12d93572a6, type: 2}
    m_amount: 3
    m_amountPerLevel: 2
    m_recover: 1
