%YAML 1.1
%TAG !u! tag:unity3d.com,2011:
--- !u!114 &11400000
MonoBehaviour:
  m_CorrespondingSourceObject: {fileID: 0}
  m_PrefabInstance: {fileID: 0}
  m_PrefabAsset: {fileID: 0}
  m_GameObject: {fileID: 0}
  m_Enabled: 1
  m_EditorHideFlags: 0
  m_Script: {fileID: 11500000, guid: 726b484fff4553d448ddd7055d4006dc, type: 3}
  m_Name: Recipe_QueensJam
  m_EditorClassIdentifier:
  m_item: {fileID: 114121884628590969, guid: a3394bed0aa67e34fa6fc9caf4f8e77d, type: 2}
  m_amount: 4
  m_enabled: 1
  m_craftingStation: {fileID: 114917750083388610, guid: b483c48578b50ae409d6ba1213e603f2, type: 2}
  m_repairStation: {fileID: 0}
  m_minStationLevel: 1
  m_resources:
  - m_resItem: {fileID: 114681061705999436, guid: e59198bb5374de247a84af603ebc65f9, type: 2}
    m_amount: 8
    m_amountPerLevel: 1
    m_recover: 1
  - m_resItem: {fileID: 114357442378185606, guid: 1b2facf52a636b74793b69a6d6bb4158, type: 2}
    m_amount: 6
    m_amountPerLevel: 1
    m_recover: 1
