%YAML 1.1
%TAG !u! tag:unity3d.com,2011:
--- !u!114 &11400000
MonoBehaviour:
  m_CorrespondingSourceObject: {fileID: 0}
  m_PrefabInstance: {fileID: 0}
  m_PrefabAsset: {fileID: 0}
  m_GameObject: {fileID: 0}
  m_Enabled: 1
  m_EditorHideFlags: 0
  m_Script: {fileID: 11500000, guid: 726b484fff4553d448ddd7055d4006dc, type: 3}
  m_Name: Recipe_PickaxeAntler
  m_EditorClassIdentifier:
  m_item: {fileID: 114028440520904520, guid: 5dd988c44f06676419b4cd7c232c5fe7, type: 2}
  m_amount: 1
  m_enabled: 1
  m_craftingStation: {fileID: 114482654899726974, guid: 522ee334a40cf9145a21fbca29aa7f81, type: 2}
  m_repairStation: {fileID: 0}
  m_minStationLevel: 1
  m_resources:
  - m_resItem: {fileID: 114674868016270417, guid: 1fc6f3c0435344344a3f68cdcd62c82c, type: 2}
    m_amount: 10
    m_amountPerLevel: 4
    m_recover: 1
  - m_resItem: {fileID: 114991081531952375, guid: 4ee36a4473ce6c54ba59a0deeb67d2ae, type: 2}
    m_amount: 1
    m_amountPerLevel: 1
    m_recover: 1
