%YAML 1.1
%TAG !u! tag:unity3d.com,2011:
--- !u!114 &11400000
MonoBehaviour:
  m_CorrespondingSourceObject: {fileID: 0}
  m_PrefabInstance: {fileID: 0}
  m_PrefabAsset: {fileID: 0}
  m_GameObject: {fileID: 0}
  m_Enabled: 1
  m_EditorHideFlags: 0
  m_Script: {fileID: 11500000, guid: 726b484fff4553d448ddd7055d4006dc, type: 3}
  m_Name: Recipe_MeadBaseStaminaMedium
  m_EditorClassIdentifier:
  m_item: {fileID: 114144579295873326, guid: 3a43fb5b38111e44dab7fd7fde3e963d, type: 2}
  m_amount: 1
  m_enabled: 1
  m_craftingStation: {fileID: 114917750083388610, guid: b483c48578b50ae409d6ba1213e603f2, type: 2}
  m_repairStation: {fileID: 0}
  m_minStationLevel: 1
  m_resources:
  - m_resItem: {fileID: 114330662292189049, guid: 4dc094755fc36cb4ab1ae26ce497c96f, type: 2}
    m_amount: 10
    m_amountPerLevel: 1
    m_recover: 1
  - m_resItem: {fileID: 114405752713391802, guid: 7beed7f6f663a8749b3b47d96d3b02da, type: 2}
    m_amount: 10
    m_amountPerLevel: 1
    m_recover: 1
  - m_resItem: {fileID: 114932757530782273, guid: e2457783451065a48b4f510eb0fc6706, type: 2}
    m_amount: 10
    m_amountPerLevel: 1
    m_recover: 1
