%YAML 1.1
%TAG !u! tag:unity3d.com,2011:
--- !u!114 &11400000
MonoBehaviour:
  m_CorrespondingSourceObject: {fileID: 0}
  m_PrefabInstance: {fileID: 0}
  m_PrefabAsset: {fileID: 0}
  m_GameObject: {fileID: 0}
  m_Enabled: 1
  m_EditorHideFlags: 0
  m_Script: {fileID: 11500000, guid: 726b484fff4553d448ddd7055d4006dc, type: 3}
  m_Name: Recipe_Torch
  m_EditorClassIdentifier:
  m_item: {fileID: 114064158344103840, guid: 9f6e1cbecf97d444185d8adae7fcb57c, type: 2}
  m_amount: 1
  m_enabled: 1
  m_craftingStation: {fileID: 0}
  m_repairStation: {fileID: 0}
  m_minStationLevel: 1
  m_resources:
  - m_resItem: {fileID: 114674868016270417, guid: 1fc6f3c0435344344a3f68cdcd62c82c, type: 2}
    m_amount: 1
    m_amountPerLevel: 1
    m_recover: 1
  - m_resItem: {fileID: 114236053047691756, guid: 67807be7fc2d0234987f8a888927ae4b, type: 2}
    m_amount: 1
    m_amountPerLevel: 1
    m_recover: 1
