%YAML 1.1
%TAG !u! tag:unity3d.com,2011:
--- !u!114 &11400000
MonoBehaviour:
  m_CorrespondingSourceObject: {fileID: 0}
  m_PrefabInstance: {fileID: 0}
  m_PrefabAsset: {fileID: 0}
  m_GameObject: {fileID: 0}
  m_Enabled: 1
  m_EditorHideFlags: 0
  m_Script: {fileID: 11500000, guid: 726b484fff4553d448ddd7055d4006dc, type: 3}
  m_Name: Recipe_MaceIron
  m_EditorClassIdentifier:
  m_item: {fileID: 114335698889044474, guid: 7bb97fbac1e19c84aadcca044740bb6a, type: 2}
  m_amount: 1
  m_enabled: 1
  m_craftingStation: {fileID: 114297578135988956, guid: a7e567619ee7df1489e21af2212f5d20, type: 2}
  m_repairStation: {fileID: 0}
  m_minStationLevel: 2
  m_resources:
  - m_resItem: {fileID: 114674868016270417, guid: 1fc6f3c0435344344a3f68cdcd62c82c, type: 2}
    m_amount: 4
    m_amountPerLevel: 0
    m_recover: 1
  - m_resItem: {fileID: 114783699715252319, guid: f18b1cc5d31a5994bb3da156cd89061f, type: 2}
    m_amount: 20
    m_amountPerLevel: 10
    m_recover: 1
  - m_resItem: {fileID: 114016541828145512, guid: 35d34bb069254a243b9fef12d93572a6, type: 2}
    m_amount: 3
    m_amountPerLevel: 0
    m_recover: 1
