%YAML 1.1
%TAG !u! tag:unity3d.com,2011:
--- !u!114 &11400000
MonoBehaviour:
  m_CorrespondingSourceObject: {fileID: 0}
  m_PrefabInstance: {fileID: 0}
  m_PrefabAsset: {fileID: 0}
  m_GameObject: {fileID: 0}
  m_Enabled: 1
  m_EditorHideFlags: 0
  m_Script: {fileID: 11500000, guid: 726b484fff4553d448ddd7055d4006dc, type: 3}
  m_Name: Recipe_AtgeirBlackmetal
  m_EditorClassIdentifier:
  m_item: {fileID: 114062070247857780, guid: 82c3f0f14f560054f81c418cb70179f3, type: 2}
  m_amount: 1
  m_enabled: 1
  m_craftingStation: {fileID: 114297578135988956, guid: a7e567619ee7df1489e21af2212f5d20, type: 2}
  m_repairStation: {fileID: 0}
  m_minStationLevel: 4
  m_resources:
  - m_resItem: {fileID: 114334719979847460, guid: 6f54f8fe5c887cf419faa47aefb1fc64, type: 2}
    m_amount: 10
    m_amountPerLevel: 0
    m_recover: 1
  - m_resItem: {fileID: 114168203473161935, guid: 5d3bc04eb37f8344496c0ff2da2f40ea, type: 2}
    m_amount: 30
    m_amountPerLevel: 15
    m_recover: 1
  - m_resItem: {fileID: 114622140377674774, guid: 06f8df9f858bf994aa922965954f4d40, type: 2}
    m_amount: 5
    m_amountPerLevel: 5
    m_recover: 1
