%YAML 1.1
%TAG !u! tag:unity3d.com,2011:
--- !u!114 &11400000
MonoBehaviour:
  m_CorrespondingSourceObject: {fileID: 0}
  m_PrefabInstance: {fileID: 0}
  m_PrefabAsset: {fileID: 0}
  m_GameObject: {fileID: 0}
  m_Enabled: 1
  m_EditorHideFlags: 0
  m_Script: {fileID: 11500000, guid: 726b484fff4553d448ddd7055d4006dc, type: 3}
  m_Name: Recipe_ArmorBronzeChest
  m_EditorClassIdentifier:
  m_item: {fileID: 114209116692446211, guid: 3893c45fee08e634ea9f14fb44f2df73, type: 2}
  m_amount: 1
  m_enabled: 1
  m_craftingStation: {fileID: 114297578135988956, guid: a7e567619ee7df1489e21af2212f5d20, type: 2}
  m_repairStation: {fileID: 0}
  m_minStationLevel: 1
  m_resources:
  - m_resItem: {fileID: 114669811133037328, guid: 679d8b9e766a86a4b94bb4aaff47b999, type: 2}
    m_amount: 5
    m_amountPerLevel: 3
    m_recover: 1
  - m_resItem: {fileID: 114354408432110297, guid: 0c2e410076342dc479eb62f586f86510, type: 2}
    m_amount: 2
    m_amountPerLevel: 0
    m_recover: 1
