%YAML 1.1
%TAG !u! tag:unity3d.com,2011:
--- !u!114 &11400000
MonoBehaviour:
  m_CorrespondingSourceObject: {fileID: 0}
  m_PrefabInstance: {fileID: 0}
  m_PrefabAsset: {fileID: 0}
  m_GameObject: {fileID: 0}
  m_Enabled: 1
  m_EditorHideFlags: 0
  m_Script: {fileID: 11500000, guid: 726b484fff4553d448ddd7055d4006dc, type: 3}
  m_Name: Recipe_BoarJerky
  m_EditorClassIdentifier:
  m_item: {fileID: 114226765341126119, guid: 8d56219f6202b43458fdeccc62383dbb, type: 2}
  m_amount: 2
  m_enabled: 1
  m_craftingStation: {fileID: 114917750083388610, guid: b483c48578b50ae409d6ba1213e603f2, type: 2}
  m_repairStation: {fileID: 0}
  m_minStationLevel: 1
  m_resources:
  - m_resItem: {fileID: 114174635710442994, guid: b8dcc598d99377645817a8a50e768e90, type: 2}
    m_amount: 1
    m_amountPerLevel: 1
    m_recover: 1
  - m_resItem: {fileID: 114330662292189049, guid: 4dc094755fc36cb4ab1ae26ce497c96f, type: 2}
    m_amount: 1
    m_amountPerLevel: 1
    m_recover: 1
