%YAML 1.1
%TAG !u! tag:unity3d.com,2011:
--- !u!114 &11400000
MonoBehaviour:
  m_CorrespondingSourceObject: {fileID: 0}
  m_PrefabInstance: {fileID: 0}
  m_PrefabAsset: {fileID: 0}
  m_GameObject: {fileID: 0}
  m_Enabled: 1
  m_EditorHideFlags: 0
  m_Script: {fileID: 11500000, guid: 726b484fff4553d448ddd7055d4006dc, type: 3}
  m_Name: Recipe_MeadBasePoisonResist
  m_EditorClassIdentifier:
  m_item: {fileID: 114272403524325238, guid: bfd79c52331ec574586c179993cc9567, type: 2}
  m_amount: 1
  m_enabled: 1
  m_craftingStation: {fileID: 114917750083388610, guid: b483c48578b50ae409d6ba1213e603f2, type: 2}
  m_repairStation: {fileID: 0}
  m_minStationLevel: 1
  m_resources:
  - m_resItem: {fileID: 114330662292189049, guid: 4dc094755fc36cb4ab1ae26ce497c96f, type: 2}
    m_amount: 10
    m_amountPerLevel: 1
    m_recover: 1
  - m_resItem: {fileID: 114189919278895875, guid: 635facc9e58f33847b4adb5f86b17991, type: 2}
    m_amount: 5
    m_amountPerLevel: 1
    m_recover: 1
  - m_resItem: {fileID: 114425854361590012, guid: f2d4d847060ea4847879c6a720289869, type: 2}
    m_amount: 1
    m_amountPerLevel: 1
    m_recover: 1
  - m_resItem: {fileID: 114285515481825389, guid: ac5b75a14ab65f1489c86ec53df7e8ce, type: 2}
    m_amount: 10
    m_amountPerLevel: 1
    m_recover: 1
