%YAML 1.1
%TAG !u! tag:unity3d.com,2011:
--- !u!114 &11400000
MonoBehaviour:
  m_CorrespondingSourceObject: {fileID: 0}
  m_PrefabInstance: {fileID: 0}
  m_PrefabAsset: {fileID: 0}
  m_GameObject: {fileID: 0}
  m_Enabled: 1
  m_EditorHideFlags: 0
  m_Script: {fileID: 11500000, guid: 726b484fff4553d448ddd7055d4006dc, type: 3}
  m_Name: Recipe_CapeLox
  m_EditorClassIdentifier:
  m_item: {fileID: 114428778642751436, guid: 6ad83eadfbf4a804aa0edeb3f9dce8a1, type: 2}
  m_amount: 1
  m_enabled: 1
  m_craftingStation: {fileID: 114482654899726974, guid: 522ee334a40cf9145a21fbca29aa7f81, type: 2}
  m_repairStation: {fileID: 0}
  m_minStationLevel: 2
  m_resources:
  - m_resItem: {fileID: 114166982228271697, guid: a62b7537665d071438689263f06a02ee, type: 2}
    m_amount: 6
    m_amountPerLevel: 2
    m_recover: 1
  - m_resItem: {fileID: 114130561970868595, guid: 576416993aba59041bc8e06075897d71, type: 2}
    m_amount: 2
    m_amountPerLevel: 0
    m_recover: 1
