%YAML 1.1
%TAG !u! tag:unity3d.com,2011:
--- !u!114 &11400000
MonoBehaviour:
  m_CorrespondingSourceObject: {fileID: 0}
  m_PrefabInstance: {fileID: 0}
  m_PrefabAsset: {fileID: 0}
  m_GameObject: {fileID: 0}
  m_Enabled: 1
  m_EditorHideFlags: 0
  m_Script: {fileID: 11500000, guid: 206ab20b47664d84eb98efc8db0e108a, type: 3}
  m_Name: Spirit
  m_EditorClassIdentifier:
  m_name: $se_spirit_name
  m_category:
  m_icon: {fileID: 21300358, guid: 2c13a7d8b899c57499dfb133f02c9ce3, type: 3}
  m_flashIcon: 1
  m_cooldownIcon: 0
  m_tooltip: $se_spirit_tooltip
  m_attributes: 0
  m_startMessageType: 1
  m_startMessage:
  m_stopMessageType: 1
  m_stopMessage:
  m_repeatMessageType: 1
  m_repeatMessage:
  m_repeatInterval: 0
  m_ttl: 3
  m_startEffects:
    m_effectPrefabs:
    - m_prefab: {fileID: 1786193756866143, guid: 5cf3df1926f2de94bbcf10bee522d730, type: 2}
      m_enabled: 1
      m_variant: -1
      m_attach: 1
      m_inheritParentRotation: 0
      m_inheritParentScale: 0
      m_randomRotation: 0
      m_scale: 1
      m_childTransform:
    - m_prefab: {fileID: 1787672170234436, guid: f56148045f56d4e4e8d8a49a26744031, type: 2}
      m_enabled: 1
      m_variant: -1
      m_attach: 1
      m_inheritParentRotation: 0
      m_inheritParentScale: 0
      m_randomRotation: 0
      m_scale: 0
      m_childTransform:
  m_stopEffects:
    m_effectPrefabs: []
  m_cooldown: 0
  m_activationAnimation: gpower
  m_damageInterval: 0.5
