%YAML 1.1
%TAG !u! tag:unity3d.com,2011:
--- !u!114 &11400000
MonoBehaviour:
  m_CorrespondingSourceObject: {fileID: 0}
  m_PrefabInstance: {fileID: 0}
  m_PrefabAsset: {fileID: 0}
  m_GameObject: {fileID: 0}
  m_Enabled: 1
  m_EditorHideFlags: 0
  m_Script: {fileID: 11500000, guid: 7ce1db4d4bc5d1544908bb28b43aaa1f, type: 3}
  m_Name: Warm
  m_EditorClassIdentifier:
  m_name: $se_warm_name
  m_category:
  m_icon: {fileID: 21301024, guid: 2c13a7d8b899c57499dfb133f02c9ce3, type: 3}
  m_flashIcon: 0
  m_cooldownIcon: 0
  m_tooltip: $se_warm_tooltip
  m_attributes: 0
  m_startMessageType: 1
  m_startMessage: $se_warm_start
  m_stopMessageType: 1
  m_stopMessage:
  m_repeatMessageType: 1
  m_repeatMessage:
  m_repeatInterval: 60
  m_ttl: 0
  m_startEffects:
    m_effectPrefabs: []
  m_stopEffects:
    m_effectPrefabs: []
  m_cooldown: 0
  m_activationAnimation: gpower
  m_tickInterval: 0
  m_healthPerTickMinHealthPercentage: 0
  m_healthPerTick: 0
  m_healthOverTime: 0
  m_healthOverTimeDuration: 0
  m_healthOverTimeInterval: 5
  m_staminaOverTime: 0
  m_staminaOverTimeDuration: 0
  m_staminaDrainPerSec: 0
  m_runStaminaDrainModifier: 0
  m_jumpStaminaUseModifier: 0
  m_healthRegenMultiplier: 1
  m_staminaRegenMultiplier: 2
  m_raiseSkill: 0
  m_raiseSkillModifier: 0
  m_mods: []
  m_modifyAttackSkill: 0
  m_damageModifier: 1
  m_noiseModifier: 0
  m_stealthModifier: 0
  m_addMaxCarryWeight: 0
  m_speedModifier: 0
