%YAML 1.1
%TAG !u! tag:unity3d.com,2011:
--- !u!21 &2100000
Material:
  serializedVersion: 6
  m_CorrespondingSourceObject: {fileID: 0}
  m_PrefabInstance: {fileID: 0}
  m_PrefabAsset: {fileID: 0}
  m_Name: distant_cloud_planes_2
  m_Shader: {fileID: 4800000, guid: 7d8279dd217f82549a1263f50b9a187e, type: 3}
  m_ShaderKeywords: GEOM_TYPE_FROND _ALPHABLEND_ON _FADING_ON _NORMALMAP
  m_LightmapFlags: 0
  m_EnableInstancingVariants: 0
  m_DoubleSidedGI: 0
  m_CustomRenderQueue: -1
  stringTagMap: {}
  disabledShaderPasses: []
  m_SavedProperties:
    serializedVersion: 3
    m_TexEnvs:
    - _MainTex:
        m_Texture: {fileID: 2800000, guid: ba11c9de8b081d54e9d38b7bb1e49514, type: 3}
        m_Scale: {x: 1, y: 1}
        m_Offset: {x: 0, y: 0}
    - _NoiseTex:
        m_Texture: {fileID: 0}
        m_Scale: {x: 1, y: 1}
        m_Offset: {x: 0, y: 0}
    - _NormalTex:
        m_Texture: {fileID: 2800000, guid: 2361c3b3f1ca1c846854edcbc73a41fa, type: 3}
        m_Scale: {x: 1, y: 1}
        m_Offset: {x: 0, y: 0}
    m_Floats:
    - _AddLightsPerPixel: 0
    - _AlphaInfluence: 1
    - _Billboard: 0
    - _BlendOp: 0
    - _BumpScale: 0.53
    - _CameraFadeDistanceMax: 200
    - _CameraFadeDistanceMin: 100
    - _CameraFadingEnabled: 1
    - _CameraFarFadeDistance: 200
    - _CameraNearFadeDistance: 100
    - _CameraYFadeDistance: 0
    - _Cull: 0
    - _Cutoff: 0.5
    - _Darkening: 1
    - _DetailNormalMapScale: 1
    - _DistortionBlend: 1
    - _DistortionEnabled: 0
    - _DistortionStrength: 73.4
    - _DistortionStrengthScaled: 7.34
    - _DstBlend: 10
    - _EmissionEnabled: 0
    - _EmissionScale: 1
    - _EnableAlbedo: 0
    - _EnableEmission: 0
    - _EnableFlipbookBlending: 0
    - _EnableShadows: 1
    - _FlipbookMode: 0
    - _FogAmount: 0.5
    - _GlossMapScale: 1
    - _Glossiness: 0
    - _GlossyReflections: 1
    - _HelpFlip: 0
    - _InvFade: 0.66
    - _LightNormalFactor: 0.66
    - _LightingEnabled: 1
    - _LocalAmbientLighting: 0
    - _Metallic: 0
    - _Mode: 2
    - _NormalPower: 1
    - _OcclusionStrength: 1
    - _Opacity: 1
    - _Parallax: 0.02
    - _PerPixelAmbientLighting: 0
    - _RefractionIntensity: 1
    - _RefractionScale: 1
    - _RefractionSpeed: 1
    - _ShadowDensity: 1
    - _ShadowExtrude: 1
    - _ShadowsPerPixel: 0
    - _SkyMask: 0
    - _SmoothnessTextureChannel: 0
    - _SoftParticlesEnabled: 1
    - _SoftParticlesFarFadeDistance: 100
    - _SoftParticlesNearFadeDistance: 0
    - _SpecularHighlights: 1
    - _Speed: 1
    - _SphereNormals: 0
    - _SrcBlend: 5
    - _Translucency: 0.5
    - _UVScale: 0.1
    - _UVSec: 0
    - _WrappedDiffuse: 0.2
    - _ZFadeDistance: 20
    - _ZWrite: 0
    m_Colors:
    - _CamFadeDistance: {r: 50, g: 900, b: 25, a: 0}
    - _CameraFadeParams: {r: 100, g: 0.01, b: 0, a: 0}
    - _Color: {r: 1, g: 1, b: 1, a: 1}
    - _EmisColor: {r: 0.2426471, g: 0.2426471, b: 0.2426471, a: 0}
    - _EmissionColor: {r: 0, g: 0, b: 0, a: 1}
    - _SoftParticleFadeParams: {r: 0, g: 0.01, b: 0, a: 0}
    - _TintColor: {r: 0.4971244, g: 0.6176471, b: 0.3814879, a: 0.653}
