%YAML 1.1
%TAG !u! tag:unity3d.com,2011:
--- !u!21 &2100000
Material:
  serializedVersion: 6
  m_CorrespondingSourceObject: {fileID: 0}
  m_PrefabInstance: {fileID: 0}
  m_PrefabAsset: {fileID: 0}
  m_Name: dust
  m_Shader: {fileID: 4800000, guid: 660f31bbbd87bc544af481b22994e7b4, type: 3}
  m_ShaderKeywords: GEOM_TYPE_BRANCH_DETAIL GEOM_TYPE_FROND GEOM_TYPE_MESH _ALPHABLEND_ON _FADING_ON
  m_LightmapFlags: 0
  m_EnableInstancingVariants: 0
  m_DoubleSidedGI: 0
  m_CustomRenderQueue: -1
  stringTagMap: {}
  disabledShaderPasses: []
  m_SavedProperties:
    serializedVersion: 3
    m_TexEnvs:
    - _AlbedoMap:
        m_Texture: {fileID: 0}
        m_Scale: {x: 1, y: 1}
        m_Offset: {x: 0, y: 0}
    - _EmissionMap:
        m_Texture: {fileID: 0}
        m_Scale: {x: 1, y: 1}
        m_Offset: {x: 0, y: 0}
    - _MainTex:
        m_Texture: {fileID: 2800000, guid: cf0819787c6987744b6e2b0f0e923be2, type: 3}
        m_Scale: {x: 1, y: 1}
        m_Offset: {x: 0, y: 0}
    m_Floats:
    - _AddLightsPerPixel: 0
    - _AlphaInfluence: 1
    - _BlendOp: 0
    - _BumpScale: 1
    - _CameraFadeDistanceMax: 0.1
    - _CameraFadeDistanceMin: 0
    - _CameraFadingEnabled: 0
    - _CameraFarFadeDistance: 2
    - _CameraNearFadeDistance: 1
    - _Cull: 2
    - _Cutoff: 0.32
    - _DetailNormalMapScale: 1
    - _DistortionBlend: 0.5
    - _DistortionEnabled: 0
    - _DistortionStrength: 1
    - _DistortionStrengthScaled: 0
    - _DstBlend: 10
    - _EmissionEnabled: 0
    - _EmissionScale: 1
    - _EnableAlbedo: 0
    - _EnableEmission: 0
    - _EnableFlipbookBlending: 0
    - _EnableShadows: 1
    - _FlipbookMode: 0
    - _GlossMapScale: 1
    - _Glossiness: 0
    - _GlossyReflections: 1
    - _HelpFlip: 0
    - _InvFade: 3
    - _LightingEnabled: 1
    - _LocalAmbientLighting: 0
    - _Metallic: 0
    - _Mode: 2
    - _OcclusionStrength: 1
    - _Parallax: 0.02
    - _PerPixelAmbientLighting: 1
    - _ShadowDensity: 1
    - _ShadowExtrude: 1
    - _ShadowsPerPixel: 1
    - _SmoothnessTextureChannel: 0
    - _SoftParticlesEnabled: 1
    - _SoftParticlesFarFadeDistance: 0.55
    - _SoftParticlesNearFadeDistance: 0
    - _SpecularHighlights: 1
    - _SrcBlend: 5
    - _Translucency: 0.5
    - _UVSec: 0
    - _WrappedDiffuse: 0.2
    - _ZFadeDistance: 0.3
    - _ZWrite: 0
    m_Colors:
    - _CamFadeDistance: {r: 4, g: 150, b: 25, a: 0}
    - _CameraFadeParams: {r: 0, g: Infinity, b: 0, a: 0}
    - _Color: {r: 1, g: 1, b: 1, a: 0.472}
    - _EmisColor: {r: 0, g: 0, b: 0, a: 0}
    - _EmissionColor: {r: 0, g: 0, b: 0, a: 1}
    - _SoftParticleFadeParams: {r: 0, g: 1.818182, b: 0, a: 0}
    - _TintColor: {r: 1, g: 1, b: 1, a: 1}
