%YAML 1.1
%TAG !u! tag:unity3d.com,2011:
--- !u!21 &2100000
Material:
  serializedVersion: 6
  m_CorrespondingSourceObject: {fileID: 0}
  m_PrefabInstance: {fileID: 0}
  m_PrefabAsset: {fileID: 0}
  m_Name: eikthyrnir_shedding
  m_Shader: {fileID: 4800000, guid: 93165b67aadb0204f8aaf4da0d851d88, type: 3}
  m_ShaderKeywords: _ALPHATEST_ON _NORMALMAP _TWOSIDEDNORMALS_ON
  m_LightmapFlags: 4
  m_EnableInstancingVariants: 0
  m_DoubleSidedGI: 0
  m_CustomRenderQueue: -1
  stringTagMap: {}
  disabledShaderPasses: []
  m_SavedProperties:
    serializedVersion: 3
    m_TexEnvs:
    - _BumpMap:
        m_Texture: {fileID: 2800000, guid: 585288447eb29054095bfd62da6ad6a8, type: 3}
        m_Scale: {x: 1, y: 1}
        m_Offset: {x: 0, y: 0}
    - _EmissiveTex:
        m_Texture: {fileID: 0}
        m_Scale: {x: 1, y: 1}
        m_Offset: {x: 0, y: 0}
    - _MainTex:
        m_Texture: {fileID: 2800000, guid: 6ceb12da85bf81a409f112dea198f87d, type: 3}
        m_Scale: {x: 1, y: 1}
        m_Offset: {x: 0, y: 0}
    - _MossTex:
        m_Texture: {fileID: 0}
        m_Scale: {x: 1, y: 1}
        m_Offset: {x: 0, y: 0}
    m_Floats:
    - _AddRain: 1
    - _AddSnow: 0
    - _BumpScale: 1.13
    - _CamCull: 0
    - _Cull: 0
    - _Cutoff: 0.5
    - _DetailNormalMapScale: 1
    - _DstBlend: 0
    - _GlossMapScale: 1
    - _Glossiness: 0.25
    - _GlossyReflections: 1
    - _Height: 3
    - _Metallic: 0
    - _Mode: 1
    - _MossAlpha: 0
    - _MossBlend: 0
    - _MossNormal: 0.5
    - _MossTransition: 0.1
    - _OcclusionStrength: 1
    - _Parallax: 0.02
    - _PushDistance: 0
    - _RippleDeadzoneMax: 0
    - _RippleDeadzoneMin: 0
    - _RippleDistance: 0.3
    - _RippleSpeed: 200
    - _SmoothnessTextureChannel: 0
    - _SpecularHighlights: 1
    - _SphereNormals: 0
    - _SphereOffset: 0
    - _SrcBlend: 1
    - _SwayDistance: 0
    - _SwaySpeed: 15
    - _TwoSidedNormals: 1
    - _UVSec: 0
    - _ZWrite: 1
    m_Colors:
    - _Color: {r: 1, g: 1, b: 1, a: 1}
    - _EmissionColor: {r: 0, g: 0, b: 0, a: 1}
