%YAML 1.1
%TAG !u! tag:unity3d.com,2011:
--- !u!21 &2100000
Material:
  serializedVersion: 6
  m_CorrespondingSourceObject: {fileID: 0}
  m_PrefabInstance: {fileID: 0}
  m_PrefabAsset: {fileID: 0}
  m_Name: ghost_smoke
  m_Shader: {fileID: 4800000, guid: 7d8279dd217f82549a1263f50b9a187e, type: 3}
  m_ShaderKeywords: _ALPHABLEND_ON _FADING_ON
  m_LightmapFlags: 0
  m_EnableInstancingVariants: 0
  m_DoubleSidedGI: 0
  m_CustomRenderQueue: -1
  stringTagMap: {}
  disabledShaderPasses: []
  m_SavedProperties:
    serializedVersion: 3
    m_TexEnvs:
    - _MainTex:
        m_Texture: {fileID: 2800000, guid: 27c568f50254f1241946bc720a24cbbd, type: 3}
        m_Scale: {x: 1, y: 1}
        m_Offset: {x: 0, y: 0}
    - _NoiseTex:
        m_Texture: {fileID: 0}
        m_Scale: {x: 1, y: 1}
        m_Offset: {x: 0, y: 0}
    - _NormalTex:
        m_Texture: {fileID: 0}
        m_Scale: {x: 1, y: 1}
        m_Offset: {x: 0, y: 0}
    m_Floats:
    - _Billboard: 0
    - _BlendOp: 0
    - _BumpScale: 1
    - _CameraFadeDistanceMax: 0.1
    - _CameraFadeDistanceMin: 0
    - _CameraFadingEnabled: 0
    - _CameraFarFadeDistance: 2
    - _CameraNearFadeDistance: 1
    - _CameraYFadeDistance: 0
    - _Cull: 2
    - _Cutoff: 0.2
    - _DetailNormalMapScale: 1
    - _DistortionBlend: 0.5
    - _DistortionEnabled: 0
    - _DistortionStrength: 1
    - _DistortionStrengthScaled: 0.1
    - _DstBlend: 10
    - _EmissionEnabled: 0
    - _FlipbookMode: 0
    - _GlossMapScale: 1
    - _Glossiness: 0
    - _GlossyReflections: 1
    - _InvFade: 3
    - _LightNormalFactor: 0
    - _LightingEnabled: 1
    - _Metallic: 0
    - _Mode: 2
    - _OcclusionStrength: 1
    - _Parallax: 0.02
    - _SkyMask: 0
    - _SmoothnessTextureChannel: 0
    - _SoftParticlesEnabled: 1
    - _SoftParticlesFarFadeDistance: 0.1
    - _SoftParticlesNearFadeDistance: 0
    - _SpecularHighlights: 1
    - _SphereNormals: 0
    - _SrcBlend: 5
    - _UVSec: 0
    - _ZFadeDistance: 0.3
    - _ZWrite: 0
    m_Colors:
    - _CameraFadeParams: {r: 0, g: Infinity, b: 0, a: 0}
    - _Color: {r: 1, g: 1, b: 1, a: 1}
    - _EmisColor: {r: 0, g: 0, b: 0, a: 0}
    - _EmissionColor: {r: 0, g: 0, b: 0, a: 1}
    - _SoftParticleFadeParams: {r: 0, g: 10, b: 0, a: 0}
    - _TintColor: {r: 0.4338235, g: 0.4338235, b: 0.4338235, a: 1}
