%YAML 1.1
%TAG !u! tag:unity3d.com,2011:
--- !u!21 &2100000
Material:
  serializedVersion: 6
  m_CorrespondingSourceObject: {fileID: 0}
  m_PrefabInstance: {fileID: 0}
  m_PrefabAsset: {fileID: 0}
  m_Name: oozebomb
  m_Shader: {fileID: 4800000, guid: 95c20c9df485c2d4a8c6e954c5e9654a, type: 3}
  m_ShaderKeywords: _NORMALMAP
  m_LightmapFlags: 4
  m_EnableInstancingVariants: 1
  m_DoubleSidedGI: 0
  m_CustomRenderQueue: -1
  stringTagMap: {}
  disabledShaderPasses: []
  m_SavedProperties:
    serializedVersion: 3
    m_TexEnvs:
    - _BumpMap:
        m_Texture: {fileID: 2800000, guid: 1bbc88398202fe34fb14efe9c9ada4e2, type: 3}
        m_Scale: {x: 1, y: 1}
        m_Offset: {x: 0, y: 0}
    - _EmissionMap:
        m_Texture: {fileID: 0}
        m_Scale: {x: 1, y: 1}
        m_Offset: {x: 0, y: 0}
    - _MainTex:
        m_Texture: {fileID: 0}
        m_Scale: {x: 1, y: 1}
        m_Offset: {x: 0, y: 0}
    - _MetallicGlossMap:
        m_Texture: {fileID: 0}
        m_Scale: {x: 1, y: 1}
        m_Offset: {x: 0, y: 0}
    - _StyleTex:
        m_Texture: {fileID: 0}
        m_Scale: {x: 1, y: 1}
        m_Offset: {x: 0, y: 0}
    m_Floats:
    - _AddRain: 0
    - _BumpScale: 1
    - _Cull: 2
    - _Cutoff: 0
    - _DetailNormalMapScale: 1
    - _DstBlend: 0
    - _GlossMapScale: 0.79
    - _Glossiness: 0.09
    - _GlossyReflections: 1
    - _Hue: 0
    - _MetalGloss: 0
    - _Metallic: 0
    - _Mode: 0
    - _OcclusionStrength: 1
    - _Parallax: 0.02
    - _Saturation: 0
    - _SmoothnessTextureChannel: 0
    - _SpecularHighlights: 1
    - _SrcBlend: 1
    - _Style: 0
    - _TwoSidedNormals: 0
    - _UVSec: 0
    - _UseStyles: 0
    - _Value: 0
    - _ZWrite: 1
    m_Colors:
    - _Color: {r: 0.5441177, g: 0.3957822, b: 0.208045, a: 1}
    - _EmissionColor: {r: 0, g: 0, b: 0, a: 1}
    - _MetalColor: {r: 1, g: 1, b: 1, a: 1}
