%YAML 1.1
%TAG !u! tag:unity3d.com,2011:
--- !u!21 &2100000
Material:
  serializedVersion: 6
  m_CorrespondingSourceObject: {fileID: 0}
  m_PrefabInstance: {fileID: 0}
  m_PrefabAsset: {fileID: 0}
  m_Name: Pine_tree_small
  m_Shader: {fileID: 4800000, guid: 93165b67aadb0204f8aaf4da0d851d88, type: 3}
  m_ShaderKeywords: _ADDSNOW_ON _NORMALMAP _SPECGLOSSMAP
  m_LightmapFlags: 4
  m_EnableInstancingVariants: 1
  m_DoubleSidedGI: 0
  m_CustomRenderQueue: -1
  stringTagMap: {}
  disabledShaderPasses: []
  m_SavedProperties:
    serializedVersion: 3
    m_TexEnvs:
    - _BumpMap:
        m_Texture: {fileID: 2800000, guid: 1e3e7975ae0c44b47b139e3ea68635e0, type: 3}
        m_Scale: {x: 1, y: 1}
        m_Offset: {x: 0, y: 0}
    - _EmissiveTex:
        m_Texture: {fileID: 0}
        m_Scale: {x: 1, y: 1}
        m_Offset: {x: 0, y: 0}
    - _MainTex:
        m_Texture: {fileID: 2800000, guid: 37d2024537fed5442be713376ab13eb9, type: 3}
        m_Scale: {x: 1, y: 1}
        m_Offset: {x: 0, y: 0}
    - _MossTex:
        m_Texture: {fileID: 0}
        m_Scale: {x: 1, y: 1}
        m_Offset: {x: 0, y: 0}
    m_Floats:
    - _AddRain: 1
    - _AddSnow: 1
    - _BumpScale: 1.8
    - _CamCull: 0
    - _Cull: 0
    - _Cutoff: 0.51
    - _DetailNormalMapScale: 1
    - _DstBlend: 0
    - _EmissionScaleUI: 0
    - _GlossMapScale: 1
    - _Glossiness: 0.05
    - _GlossyReflections: 1
    - _Height: 10
    - _Metallic: 0
    - _Mode: 0
    - _MossAlpha: 0
    - _MossBlend: 0
    - _MossNormal: 0.5
    - _MossTransition: 0.1
    - _OcclusionStrength: 1
    - _Parallax: 0.02
    - _PushDistance: 0
    - _RippleDeadzoneMax: 2
    - _RippleDeadzoneMin: 0.3
    - _RippleDistance: 2
    - _RippleSpeed: 150
    - _SmoothnessTextureChannel: 0
    - _SpecularHighlights: 1
    - _SphereNormals: 0
    - _SphereOffset: 0
    - _SrcBlend: 1
    - _SwayDistance: 5
    - _SwaySpeed: 20
    - _TwoSidedNormals: 0
    - _UVSec: 0
    - _ZWrite: 1
    m_Colors:
    - _Color: {r: 1, g: 1, b: 1, a: 1}
    - _EmissionColor: {r: 0, g: 0, b: 0, a: 0}
    - _EmissionColorUI: {r: 1, g: 1, b: 1, a: 1}
    - _SpecColor: {r: 0.2, g: 0.2, b: 0.2, a: 1}
