%YAML 1.1
%TAG !u! tag:unity3d.com,2011:
--- !u!21 &2100000
Material:
  serializedVersion: 6
  m_CorrespondingSourceObject: {fileID: 0}
  m_PrefabInstance: {fileID: 0}
  m_PrefabAsset: {fileID: 0}
  m_Name: PineTree_01
  m_Shader: {fileID: 4800000, guid: 93165b67aadb0204f8aaf4da0d851d88, type: 3}
  m_ShaderKeywords: _ADDSNOW_ON _ALPHAPREMULTIPLY_ON
  m_LightmapFlags: 4
  m_EnableInstancingVariants: 1
  m_DoubleSidedGI: 0
  m_CustomRenderQueue: -1
  stringTagMap: {}
  disabledShaderPasses: []
  m_SavedProperties:
    serializedVersion: 3
    m_TexEnvs:
    - _BumpMap:
        m_Texture: {fileID: 2800000, guid: 4b655402747537a4a860f83d647bf881, type: 3}
        m_Scale: {x: 1, y: 1}
        m_Offset: {x: 0, y: 0}
    - _EmissiveTex:
        m_Texture: {fileID: 0}
        m_Scale: {x: 1, y: 1}
        m_Offset: {x: 0, y: 0}
    - _MainTex:
        m_Texture: {fileID: 2800000, guid: dc5069e3c1f5bf14ea55256dbbc39667, type: 3}
        m_Scale: {x: 1, y: 1}
        m_Offset: {x: 0, y: 0}
    - _MossTex:
        m_Texture: {fileID: 0}
        m_Scale: {x: 1, y: 1}
        m_Offset: {x: 0, y: 0}
    m_Floats:
    - _AddRain: 1
    - _AddSnow: 1
    - _BumpScale: 1
    - _CamCull: 0
    - _Cull: 0
    - _Cutoff: 0.5
    - _DetailNormalMapScale: 1
    - _DstBlend: 10
    - _GlossMapScale: 1
    - _Glossiness: 0.1
    - _GlossyReflections: 1
    - _Height: 100
    - _Metallic: 0
    - _Mode: 3
    - _MossAlpha: 0
    - _MossBlend: 0
    - _MossNormal: 0.5
    - _MossTransition: 0.1
    - _OcclusionStrength: 1
    - _Parallax: 0.02
    - _PushDistance: 0
    - _RippleDeadzoneMax: 2.65
    - _RippleDeadzoneMin: 0.47
    - _RippleDistance: 1.5
    - _RippleSpeed: 150
    - _SmoothnessTextureChannel: 0
    - _SpecularHighlights: 1
    - _SphereNormals: 0
    - _SphereOffset: 0
    - _SrcBlend: 1
    - _SwayDistance: 120
    - _SwaySpeed: 15
    - _TwoSidedNormals: 0
    - _UVSec: 0
    - _ZWrite: 0
    m_Colors:
    - _Color: {r: 1, g: 1, b: 1, a: 1}
    - _EmissionColor: {r: 0, g: 0, b: 0, a: 0}
