%YAML 1.1
%TAG !u! tag:unity3d.com,2011:
--- !u!21 &2100000
Material:
  serializedVersion: 6
  m_CorrespondingSourceObject: {fileID: 0}
  m_PrefabInstance: {fileID: 0}
  m_PrefabAsset: {fileID: 0}
  m_Name: rain_soft
  m_Shader: {fileID: 4800000, guid: 7d8279dd217f82549a1263f50b9a187e, type: 3}
  m_ShaderKeywords: _ALPHABLEND_ON _FADING_ON _SKYMASK_ON
  m_LightmapFlags: 0
  m_EnableInstancingVariants: 0
  m_DoubleSidedGI: 0
  m_CustomRenderQueue: -1
  stringTagMap: {}
  disabledShaderPasses: []
  m_SavedProperties:
    serializedVersion: 3
    m_TexEnvs:
    - _MainTex:
        m_Texture: {fileID: 2800000, guid: cf0819787c6987744b6e2b0f0e923be2, type: 3}
        m_Scale: {x: 1, y: 1}
        m_Offset: {x: 0, y: 0}
    - _NoiseTex:
        m_Texture: {fileID: 2800000, guid: 5ecaf6a7e8c94f8469a0364757842726, type: 3}
        m_Scale: {x: 1, y: 1}
        m_Offset: {x: 0, y: 0}
    - _NormalTex:
        m_Texture: {fileID: 2800000, guid: 2361c3b3f1ca1c846854edcbc73a41fa, type: 3}
        m_Scale: {x: 1, y: 1}
        m_Offset: {x: 0, y: 0}
    m_Floats:
    - PixelSnap: 0
    - _Billboard: 0
    - _BlendOp: 0
    - _BumpScale: 1
    - _CameraFadeDistanceMax: 15
    - _CameraFadeDistanceMin: 10
    - _CameraFadingEnabled: 1
    - _CameraFarFadeDistance: 35
    - _CameraNearFadeDistance: 25
    - _CameraYFadeDistance: 0
    - _ColorMode: 0
    - _Cull: 0
    - _Cutoff: 0.5
    - _Darkening: 1
    - _DetailNormalMapScale: 1
    - _DistortionBlend: 0.486
    - _DistortionEnabled: 0
    - _DistortionStrength: 2
    - _DistortionStrengthScaled: 0.2
    - _DstBlend: 10
    - _EmissionEnabled: 0
    - _EnableExternalAlpha: 0
    - _FlipbookMode: 0
    - _GlossMapScale: 1
    - _Glossiness: 1
    - _GlossyReflections: 1
    - _InvFade: 1.72
    - _LightNormalFactor: 0.23
    - _LightingEnabled: 1
    - _Metallic: 0
    - _Mode: 2
    - _NormalPower: 1
    - _OcclusionStrength: 1
    - _Opacity: 1
    - _Parallax: 0.02
    - _SkyMask: 1
    - _SmoothnessTextureChannel: 0
    - _SoftParticlesEnabled: 1
    - _SoftParticlesFarFadeDistance: 5
    - _SoftParticlesNearFadeDistance: 0
    - _SpecularHighlights: 1
    - _Speed: 1
    - _SrcBlend: 5
    - _UVScale: 0.1
    - _UVSec: 0
    - _ZFadeDistance: 2
    - _ZWrite: 0
    m_Colors:
    - _CameraFadeParams: {r: 25, g: 0.1, b: 0, a: 0}
    - _Color: {r: 1, g: 1, b: 1, a: 0.509}
    - _ColorAddSubDiff: {r: 0, g: 0, b: 0, a: 0}
    - _EmisColor: {r: 1, g: 1, b: 1, a: 1}
    - _EmissionColor: {r: 0, g: 0, b: 0, a: 1}
    - _Flip: {r: 1, g: 1, b: 1, a: 1}
    - _RendererColor: {r: 1, g: 1, b: 1, a: 1}
    - _SoftParticleFadeParams: {r: 0, g: 0.2, b: 0, a: 0}
    - _TintColor: {r: 1, g: 1, b: 1, a: 0.534}
