%YAML 1.1
%TAG !u! tag:unity3d.com,2011:
--- !u!21 &2100000
Material:
  serializedVersion: 6
  m_CorrespondingSourceObject: {fileID: 0}
  m_PrefabInstance: {fileID: 0}
  m_PrefabAsset: {fileID: 0}
  m_Name: roundlog_new
  m_Shader: {fileID: 4800000, guid: 869d2715e60647941a1310fc7ce01026, type: 3}
  m_ShaderKeywords: _ADDRAIN_ON _ADDSNOW_ON _NORMALMAP
  m_LightmapFlags: 4
  m_EnableInstancingVariants: 1
  m_DoubleSidedGI: 0
  m_CustomRenderQueue: -1
  stringTagMap: {}
  disabledShaderPasses: []
  m_SavedProperties:
    serializedVersion: 3
    m_TexEnvs:
    - _BumpMap:
        m_Texture: {fileID: 2800000, guid: 0a64d45de8ea2f54b9790e4e698c101d, type: 3}
        m_Scale: {x: 1, y: 1}
        m_Offset: {x: 0, y: 0}
    - _MainTex:
        m_Texture: {fileID: 2800000, guid: ec5b8463f8c6faf4fa6bdd3fe130b6d1, type: 3}
        m_Scale: {x: 1, y: 1}
        m_Offset: {x: 0, y: 0}
    - _MetallicTex:
        m_Texture: {fileID: 0}
        m_Scale: {x: 1, y: 1}
        m_Offset: {x: 0, y: 0}
    - _NoiseTex:
        m_Texture: {fileID: 2800000, guid: 5ecaf6a7e8c94f8469a0364757842726, type: 3}
        m_Scale: {x: 1, y: 1}
        m_Offset: {x: 0, y: 0}
    m_Floats:
    - _AddRain: 1
    - _AddSnow: 1
    - _BumpScale: 2
    - _Cull: 2
    - _Cutoff: 0.5
    - _DetailNormalMapScale: 1
    - _DstBlend: 0
    - _GlossMapScale: 1
    - _Glossiness: 0
    - _GlossyReflections: 1
    - _MetalGloss: 0
    - _Metallic: 0
    - _MetallicAlphaGloss: 0
    - _Mode: 0
    - _MossAlpha: 0
    - _MossBlend: 0
    - _MossNormal: 0.5
    - _MossTransition: 0
    - _OcclusionStrength: 1
    - _Parallax: 0.02
    - _RippleDistance: 0
    - _RippleFreq: 3
    - _SmoothnessTextureChannel: 0
    - _SpecularHighlights: 1
    - _SrcBlend: 1
    - _TwoSidedNormals: 0
    - _UVSec: 0
    - _ValueNoise: 0.5
    - _ValueNoiseVertex: 0
    - _WaterlineOffset: 0
    - _ZWrite: 1
    m_Colors:
    - _Color: {r: 0.7450981, g: 0.7450981, b: 0.7450981, a: 1}
    - _EmissionColor: {r: 0, g: 0, b: 0, a: 1}
    - _MetalColor: {r: 1, g: 1, b: 1, a: 1}
    - _MossColor: {r: 0.7843137, g: 0.7843137, b: 0.7843137, a: 1}
