%YAML 1.1
%TAG !u! tag:unity3d.com,2011:
--- !u!21 &2100000
Material:
  serializedVersion: 6
  m_CorrespondingSourceObject: {fileID: 0}
  m_PrefabInstance: {fileID: 0}
  m_PrefabAsset: {fileID: 0}
  m_Name: ship_water
  m_Shader: {fileID: 4800000, guid: ccf3c8ad280f63c49b59ea6f133f3f12, type: 3}
  m_ShaderKeywords: GEOM_TYPE_BRANCH GEOM_TYPE_FROND _ALPHABLEND_ON
  m_LightmapFlags: 4
  m_EnableInstancingVariants: 1
  m_DoubleSidedGI: 0
  m_CustomRenderQueue: -1
  stringTagMap: {}
  disabledShaderPasses: []
  m_SavedProperties:
    serializedVersion: 3
    m_TexEnvs:
    - _BumpMap:
        m_Texture: {fileID: 0}
        m_Scale: {x: 1, y: 1}
        m_Offset: {x: 0, y: 0}
    - _MainTex:
        m_Texture: {fileID: 2800000, guid: 058969ec007e56c49be9bce87a4b5369, type: 3}
        m_Scale: {x: 1, y: 1}
        m_Offset: {x: 0, y: 0}
    m_Floats:
    - _AddLightsPerPixel: 1
    - _AlphaInfluence: 1.07
    - _Billboard: 0
    - _BumpScale: 0.99
    - _CameraFadeDistanceMax: 0.1
    - _CameraFadeDistanceMin: 0
    - _CameraYFadeDistance: 0
    - _Cutoff: 0.32
    - _DetailNormalMapScale: 1
    - _DstBlend: 10
    - _EmissionScale: 1
    - _EnableAlbedo: 0
    - _EnableEmission: 0
    - _EnableFlipbookBlending: 0
    - _EnableShadows: 1
    - _GlossMapScale: 1
    - _Glossiness: 0
    - _GlossyReflections: 1
    - _HelpFlip: 0
    - _InvFade: 1
    - _LightNormalFactor: 0
    - _LocalAmbientLighting: 0
    - _Metallic: 0
    - _Mode: 2
    - _OcclusionStrength: 1
    - _Parallax: 0.02
    - _PerPixelAmbientLighting: 0
    - _ShadowDensity: 1
    - _ShadowExtrude: 1
    - _ShadowsPerPixel: 0
    - _SkyMask: 0
    - _SmoothnessTextureChannel: 0
    - _SpecularHighlights: 1
    - _SrcBlend: 5
    - _Translucency: 0.5
    - _UVSec: 0
    - _WrappedDiffuse: 1
    - _ZFadeDistance: 1
    - _ZWrite: 0
    m_Colors:
    - _CamFadeDistance: {r: 4, g: 150, b: 25, a: 0}
    - _Color: {r: 0.7830189, g: 0.7830189, b: 0.7830189, a: 0.8392157}
    - _EmisColor: {r: 0.5073529, g: 0.5073529, b: 0.5073529, a: 1}
    - _EmissionColor: {r: 0, g: 0, b: 0, a: 1}
    - _TintColor: {r: 1, g: 1, b: 1, a: 1}
