%YAML 1.1
%TAG !u! tag:unity3d.com,2011:
--- !u!21 &2100000
Material:
  serializedVersion: 6
  m_CorrespondingSourceObject: {fileID: 0}
  m_PrefabInstance: {fileID: 0}
  m_PrefabAsset: {fileID: 0}
  m_Name: stonepillar
  m_Shader: {fileID: 4800000, guid: 01074e0da4f24eb4ea651f0b405d16bb, type: 3}
  m_ShaderKeywords: _ADDSNOW_ON
  m_LightmapFlags: 4
  m_EnableInstancingVariants: 1
  m_DoubleSidedGI: 0
  m_CustomRenderQueue: -1
  stringTagMap: {}
  disabledShaderPasses: []
  m_SavedProperties:
    serializedVersion: 3
    m_TexEnvs:
    - _BumpMap:
        m_Texture: {fileID: 2800000, guid: 5c3c0853f7d21954c817f4afe1a97962, type: 3}
        m_Scale: {x: 1, y: 1}
        m_Offset: {x: 0, y: 0}
    - _EmissiveTex:
        m_Texture: {fileID: 0}
        m_Scale: {x: 1, y: 1}
        m_Offset: {x: 0, y: 0}
    - _MainTex:
        m_Texture: {fileID: 2800000, guid: 8f629d6d60513b34e8c315eb5befbd2d, type: 3}
        m_Scale: {x: 1, y: 1}
        m_Offset: {x: 0, y: 0}
    - _MetalTex:
        m_Texture: {fileID: 0}
        m_Scale: {x: 1, y: 1}
        m_Offset: {x: 0, y: 0}
    - _MossTex:
        m_Texture: {fileID: 2800000, guid: 84054151c750e2647a9c27e5ed541706, type: 3}
        m_Scale: {x: 1, y: 1}
        m_Offset: {x: 0, y: 0}
    m_Floats:
    - _AddRain: 1
    - _AddSnow: 1
    - _BumpScale: 1
    - _Cutoff: 0.5
    - _DetailNormalMapScale: 1
    - _DstBlend: 0
    - _GlossMapScale: 1
    - _Glossiness: 0.25
    - _GlossyReflections: 1
    - _MetalGloss: 0
    - _Metallic: 0
    - _Mode: 0
    - _MossAlpha: 1
    - _MossBlend: 0
    - _MossNormal: 0
    - _MossTextureBlend: 5
    - _MossTransition: 0.3
    - _OcclusionStrength: 1
    - _Parallax: 0.02
    - _RippleDistance: 0.1
    - _RippleFreq: 1.5
    - _SmoothnessTextureChannel: 0
    - _SpecularHighlights: 1
    - _SrcBlend: 1
    - _UVSec: 0
    - _WaterlineOffset: 0
    - _ZWrite: 1
    m_Colors:
    - _Color: {r: 0.7132353, g: 0.7132353, b: 0.7132353, a: 1}
    - _EmissionColor: {r: 0, g: 0, b: 0, a: 1}
    - _MossColor: {r: 1, g: 1, b: 1, a: 1}
