%YAML 1.1
%TAG !u! tag:unity3d.com,2011:
--- !u!21 &2100000
Material:
  serializedVersion: 6
  m_CorrespondingSourceObject: {fileID: 0}
  m_PrefabInstance: {fileID: 0}
  m_PrefabAsset: {fileID: 0}
  m_Name: swamptree2_branch
  m_Shader: {fileID: 4800000, guid: 93165b67aadb0204f8aaf4da0d851d88, type: 3}
  m_ShaderKeywords: _ADDSNOW_ON _NORMALMAP _TWOSIDEDNORMALS_ON
  m_LightmapFlags: 4
  m_EnableInstancingVariants: 1
  m_DoubleSidedGI: 0
  m_CustomRenderQueue: -1
  stringTagMap: {}
  disabledShaderPasses: []
  m_SavedProperties:
    serializedVersion: 3
    m_TexEnvs:
    - _BumpMap:
        m_Texture: {fileID: 2800000, guid: 9bfe7408e9461fb4caac77f0e05b06d7, type: 3}
        m_Scale: {x: 1, y: 1}
        m_Offset: {x: 0, y: 0}
    - _EmissiveTex:
        m_Texture: {fileID: 0}
        m_Scale: {x: 1, y: 1}
        m_Offset: {x: 0, y: 0}
    - _MainTex:
        m_Texture: {fileID: 2800000, guid: 175f3e14c62452e4d8da53cb7621559b, type: 3}
        m_Scale: {x: 1, y: 1}
        m_Offset: {x: 0, y: 0}
    - _MossTex:
        m_Texture: {fileID: 0}
        m_Scale: {x: 2, y: 2}
        m_Offset: {x: 0, y: 0}
    m_Floats:
    - _AddRain: 0
    - _AddSnow: 1
    - _BumpScale: 1
    - _CamCull: 1
    - _Cull: 0
    - _Cutoff: 0.5
    - _DetailNormalMapScale: 1
    - _DstBlend: 0
    - _GlossMapScale: 1
    - _Glossiness: 0.14
    - _GlossyReflections: 1
    - _Height: 5
    - _Metallic: 0
    - _Mode: 0
    - _MossAlpha: 0
    - _MossBlend: 0
    - _MossNormal: 0.1
    - _MossTransition: 0.24
    - _OcclusionStrength: 1
    - _Parallax: 0.02
    - _PushDistance: 0
    - _RippleDeadzoneMax: 0.1
    - _RippleDeadzoneMin: 0.01
    - _RippleDistance: 0.02
    - _RippleFreq: 1
    - _RippleSpeed: 50
    - _SmoothnessTextureChannel: 0
    - _SpecularHighlights: 1
    - _SphereNormals: 0
    - _SphereOffset: 0
    - _SrcBlend: 1
    - _SwayDistance: 2000
    - _SwaySpeed: 10
    - _TwoSidedNormals: 1
    - _UVSec: 0
    - _ZWrite: 1
    m_Colors:
    - _Color: {r: 0.5426933, g: 0.5647059, b: 0.3607843, a: 1}
    - _EmissionColor: {r: 0, g: 0, b: 0, a: 1}
