%YAML 1.1
%TAG !u! tag:unity3d.com,2011:
--- !u!21 &2100000
Material:
  serializedVersion: 6
  m_CorrespondingSourceObject: {fileID: 0}
  m_PrefabInstance: {fileID: 0}
  m_PrefabAsset: {fileID: 0}
  m_Name: water_lod
  m_Shader: {fileID: 4800000, guid: ff69f4a52a929614f95f5ab55e19308c, type: 3}
  m_ShaderKeywords: _ISLOD_ON _NORMALMAP
  m_LightmapFlags: 4
  m_EnableInstancingVariants: 0
  m_DoubleSidedGI: 0
  m_CustomRenderQueue: -1
  stringTagMap: {}
  disabledShaderPasses: []
  m_SavedProperties:
    serializedVersion: 3
    m_TexEnvs:
    - _FoamHighTex:
        m_Texture: {fileID: 2800000, guid: 8a7a9d9f5ddb1c94e9f83d12654ab232, type: 3}
        m_Scale: {x: 1, y: 1}
        m_Offset: {x: 0, y: 0}
    - _FoamTex:
        m_Texture: {fileID: 2800000, guid: 6723a169c59b9324281ca17c74f089a9, type: 3}
        m_Scale: {x: 1, y: 1}
        m_Offset: {x: 0, y: 0}
    - _Normal:
        m_Texture: {fileID: 2800000, guid: d5aacb29572eaa649858eb170f6634ac, type: 3}
        m_Scale: {x: 1, y: 1}
        m_Offset: {x: 0, y: 0}
    - _NormalFine:
        m_Texture: {fileID: 2800000, guid: 947a1d44074d31643bbdee4e20c1ee89, type: 3}
        m_Scale: {x: 1, y: 1}
        m_Offset: {x: 0, y: 0}
    - _RandomFoamTex:
        m_Texture: {fileID: 2800000, guid: 92f239c98e4b16b47995e2c095cd3bf7, type: 3}
        m_Scale: {x: 1, y: 1}
        m_Offset: {x: 0, y: 0}
    m_Floats:
    - _BumpScale: 0.26
    - _Cutoff: 0.5
    - _DepthFade: 15
    - _DetailNormalMapScale: 1
    - _DstBlend: 0
    - _FoamDepth: 0.2
    - _GlossMapScale: 1
    - _Glossiness: 0.94
    - _GlossyReflections: 1
    - _IsLod: 1
    - _LodHideDistance: 120
    - _Metallic: 0
    - _Mode: 0
    - _NormalPower: 0.5
    - _NormalScale: 0.04
    - _OcclusionStrength: 1
    - _Parallax: 0.02
    - _RefractionMax: 0.01
    - _RefractionScale: 0.1
    - _ShoreFade: 1.3
    - _SmoothnessTextureChannel: 0
    - _SpecularHighlights: 1
    - _SrcBlend: 1
    - _Tess: 1
    - _TessHeight: 0.1
    - _UVSec: 0
    - _VisibleMaxDistance: 120
    - _WaterEdge: 10500
    - _WaveFoam: 4
    - _WaveHeight: 1
    - _WaveLength: 1
    - _WaveSpeed: 1
    - _WaveVel: 1
    - _WetDarken: 1
    - _ZWrite: 1
    - _visibleMinDistance: 100
    m_Colors:
    - _Color: {r: 0.1764706, g: 0.1764706, b: 0.1764706, a: 1}
    - _ColorBottom: {r: 0.09770352, g: 0.1958953, b: 0.1685359, a: 1}
    - _ColorBottomShallow: {r: 0.1958953, g: 0.1763485, b: 0.1055161, a: 1}
    - _ColorTop: {r: 0.09770352, g: 0.1958953, b: 0.1685359, a: 1}
    - _DepthColor: {r: 0.06617647, g: 0.06617647, b: 0.06617647, a: 1}
    - _EmissionColor: {r: 0, g: 0, b: 0, a: 1}
    - _FoamColor: {r: 0.8382353, g: 0.8382353, b: 0.8382353, a: 1}
    - _SurfaceColor: {r: 0.7279412, g: 0.7279412, b: 0.7279412, a: 1}
