%YAML 1.1
%TAG !u! tag:unity3d.com,2011:
--- !u!21 &2100000
Material:
  serializedVersion: 6
  m_CorrespondingSourceObject: {fileID: 0}
  m_PrefabInstance: {fileID: 0}
  m_PrefabAsset: {fileID: 0}
  m_Name: yggdrasil_branch_leafs
  m_Shader: {fileID: 4800000, guid: dbeea491dcf3740468f0304a3daa224b, type: 3}
  m_ShaderKeywords: _ADDSNOW_ON _ALPHATEST_ON _NORMALMAP
  m_LightmapFlags: 4
  m_EnableInstancingVariants: 1
  m_DoubleSidedGI: 0
  m_CustomRenderQueue: -1
  stringTagMap: {}
  disabledShaderPasses: []
  m_SavedProperties:
    serializedVersion: 3
    m_TexEnvs:
    - _BumpMap:
        m_Texture: {fileID: 2800000, guid: 62d74e9ab4feba24485b80d56aaeb3e6, type: 3}
        m_Scale: {x: 1, y: 1}
        m_Offset: {x: 0, y: 0}
    - _EmissiveMaskTex:
        m_Texture: {fileID: 0}
        m_Scale: {x: 1, y: 1}
        m_Offset: {x: 0, y: 0}
    - _EmissiveTex:
        m_Texture: {fileID: 0}
        m_Scale: {x: 1, y: 1}
        m_Offset: {x: 0, y: 0}
    - _MainTex:
        m_Texture: {fileID: 2800000, guid: 5bdcdb437eb144f409944a8d3bc742c7, type: 3}
        m_Scale: {x: 1, y: 1}
        m_Offset: {x: 0, y: 0}
    - _MossTex:
        m_Texture: {fileID: 0}
        m_Scale: {x: 1, y: 1}
        m_Offset: {x: 0, y: 0}
    - _RefractionNormal:
        m_Texture: {fileID: 0}
        m_Scale: {x: 1, y: 1}
        m_Offset: {x: 0, y: 0}
    m_Floats:
    - _AddSnow: 1
    - _BumpScale: 1
    - _CamCull: 1
    - _Cull: 0
    - _Cutoff: 0.5
    - _DetailNormalMapScale: 1
    - _DstBlend: 0
    - _EmissBlend: 0
    - _EmissiveScroll: 1
    - _FogAmount: 1
    - _FogDistanceScale: 1
    - _FogEnd: 15000
    - _FogPower: 1
    - _FogStart: 0
    - _GlossMapScale: 1
    - _Glossiness: 0
    - _GlossyReflections: 1
    - _Height: 20
    - _Metallic: 0
    - _Mode: 1
    - _MossAlpha: 0
    - _MossBlend: 1
    - _MossEmissive: 0
    - _MossEmissivePower: 1
    - _MossNormal: 0
    - _MossTransition: 1
    - _OcclusionStrength: 1
    - _Parallax: 0.02
    - _RefractionIntensity: 1
    - _RefractionScale: 1
    - _RefractionSpeed: 1
    - _RippleDeadzoneMax: 3
    - _RippleDeadzoneMin: 2
    - _RippleDistance: 2.5
    - _RippleSpeed: 100
    - _SmoothnessTextureChannel: 0
    - _SpecularHighlights: 1
    - _SphereNormals: 0
    - _SphereOffset: 10
    - _SrcBlend: 1
    - _SwayDistance: 2
    - _SwaySpeed: 8
    - _TwoSidedNormals: 0
    - _UVSec: 0
    - _ZWrite: 1
    m_Colors:
    - _Color: {r: 1, g: 1, b: 1, a: 1}
    - _EmissionColor: {r: 0, g: 0, b: 0, a: 0}
    - _MossColor: {r: 1, g: 1, b: 1, a: 1}
