%YAML 1.1
%TAG !u! tag:unity3d.com,2011:
--- !u!90 &9000000
Avatar:
  m_CorrespondingSourceObject: {fileID: 0}
  m_PrefabInstance: {fileID: 0}
  m_PrefabAsset: {fileID: 0}
  m_Name: _draugr_baseAvatar
  m_AvatarSize: 7452
  m_Avatar:
    serializedVersion: 3
    m_AvatarSkeleton:
      data:
        m_Node:
        - m_ParentId: -1
          m_AxesId: -1
        - m_ParentId: 0
          m_AxesId: -1
        - m_ParentId: 1
          m_AxesId: -1
        - m_ParentId: 2
          m_AxesId: -1
        - m_ParentId: 3
          m_AxesId: -1
        - m_ParentId: 4
          m_AxesId: -1
        - m_ParentId: 5
          m_AxesId: -1
        - m_ParentId: 6
          m_AxesId: -1
        - m_ParentId: 7
          m_AxesId: -1
        - m_ParentId: 8
          m_AxesId: -1
        - m_ParentId: 9
          m_AxesId: -1
        - m_ParentId: 5
          m_AxesId: -1
        - m_ParentId: 11
          m_AxesId: -1
        - m_ParentId: 5
          m_AxesId: -1
        - m_ParentId: 13
          m_AxesId: -1
        - m_ParentId: 14
          m_AxesId: -1
        - m_ParentId: 15
          m_AxesId: -1
        - m_ParentId: 16
          m_AxesId: -1
        - m_ParentId: 2
          m_AxesId: -1
        - m_ParentId: 18
          m_AxesId: -1
        - m_ParentId: 19
          m_AxesId: -1
        - m_ParentId: 20
          m_AxesId: -1
        - m_ParentId: 21
          m_AxesId: -1
        - m_ParentId: 2
          m_AxesId: -1
        - m_ParentId: 23
          m_AxesId: -1
        - m_ParentId: 24
          m_AxesId: -1
        - m_ParentId: 25
          m_AxesId: -1
        - m_ParentId: 26
          m_AxesId: -1
        - m_ParentId: 0
          m_AxesId: -1
        m_ID: 00000000b28d6c7da8964ed4c15deb1c195cd3057678ea73ef3c0184e0246ba1dad03912bdf2dbf84bc0639e292b48dbe9862dde6eef5a2d64de5697b844cd9f968187773ceba51e41ebed4a5ace019d30bf1b64648fa0517110bb8ec120395b63d9b24d2418ce20f33dfed141339cbdd3b89082
        m_AxesArray: []
    m_AvatarSkeletonPose:
      data:
        m_X:
        - t: {x: 0, y: 0, z: 0}
          q: {x: 0, y: 0, z: 0, w: 1}
          s: {x: 1, y: 1, z: 1}
        - t: {x: 0.02464076, y: -0.02252861, z: 0.04832818}
          q: {x: -0.001563423, y: 0.7227661, z: 0.6909748, w: -0.01267349}
          s: {x: 100, y: 100, z: 100}
        - t: {x: 0, y: 0, z: 0}
          q: {x: 0.7071068, y: 0, z: 0, w: 0.7071068}
          s: {x: 1, y: 1, z: 1}
        - t: {x: 0, y: 0.01010862, z: 0}
          q: {x: -0.01081791, y: 0.002448055, z: 0.0008416108, w: 0.9999382}
          s: {x: 1, y: 1, z: 1}
        - t: {x: 0, y: 0.002199409, z: 0}
          q: {x: -0.01237809, y: 0.02560973, z: 0.002643815, w: 0.9995919}
          s: {x: 1, y: 1, z: 1}
        - t: {x: 0, y: 0.001924719, z: 0}
          q: {x: -0.01226062, y: 0.02553815, z: 0.003196561, w: 0.9995936}
          s: {x: 1, y: 1, z: 1}
        - t: {x: 0, y: 0.001625713, z: 0}
          q: {x: -0.5114602, y: 0.4961738, z: 0.4645444, w: 0.5257552}
          s: {x: 0.9999999, y: 0.9999999, z: 0.9999999}
        - t: {x: -6.439293E-17, y: 0.002945988, z: 8.568167E-10}
          q: {x: -0.03347996, y: 0.169364, z: -0.01858916, w: 0.9848093}
          s: {x: 1, y: 0.9999999, z: 1}
        - t: {x: 3.552714E-17, y: 0.003049846, z: -2.980232E-10}
          q: {x: 0.009718394, y: -0.002621859, z: -0.02522372, w: 0.9996312}
          s: {x: 1, y: 1, z: 0.9999999}
        - t: {x: -7.105427E-17, y: 0.002431401, z: -2.980231E-10}
          q: {x: 0.003102082, y: -0.0313118, z: 0.1382791, w: 0.9898934}
          s: {x: 1, y: 0.9999999, z: 1}
        - t: {x: 0, y: 0.001090614, z: 0}
          q: {x: 0, y: 0, z: 0, w: 1}
          s: {x: 1, y: 1, z: 1}
        - t: {x: 0, y: 0.001625713, z: 0}
          q: {x: -0.007070013, y: -0.7166779, z: -0.0124433, w: 0.6972575}
          s: {x: 1, y: 1, z: 1}
        - t: {x: 0, y: 0.004069482, z: 0}
          q: {x: 0, y: 0, z: 0, w: 1}
          s: {x: 1, y: 1, z: 1}
        - t: {x: 0, y: 0.001625713, z: 0}
          q: {x: 0.5175595, y: 0.4810543, z: -0.4641072, w: 0.5341567}
          s: {x: 0.9999999, y: 0.9999998, z: 0.9999999}
        - t: {x: 2.664535E-17, y: 0.002945988, z: -8.195639E-10}
          q: {x: 0.02441397, y: -0.2204762, z: -0.009407206, w: 0.9750414}
          s: {x: 1, y: 1, z: 1}
        - t: {x: -2.131628E-16, y: 0.003049848, z: -1.490116E-09}
          q: {x: -0.008704878, y: 0.002247005, z: -0.02545452, w: 0.9996356}
          s: {x: 1, y: 1, z: 0.9999999}
        - t: {x: -1.731948E-16, y: 0.002431401, z: 9.325873E-17}
          q: {x: 0.08829799, y: 0.006141688, z: 0.1194839, w: 0.9888829}
          s: {x: 1, y: 1, z: 1}
        - t: {x: 0, y: 0.001090614, z: 0}
          q: {x: 0, y: 0, z: 0, w: 1}
          s: {x: 1, y: 1, z: 1}
        - t: {x: 0, y: 0.01010862, z: 0}
          q: {x: 0.5323091, y: 0.4654536, z: -0.5323091, w: 0.4654536}
          s: {x: 1, y: 0.9999999, z: 1}
        - t: {x: -1.784683E-16, y: 0.001224976, z: 3.725291E-11}
          q: {x: 0.02516374, y: 0.7724798, z: 0.6301104, w: -0.07485089}
          s: {x: 1, y: 1, z: 1}
        - t: {x: -9.403589E-16, y: 0.004704622, z: -5.587124E-11}
          q: {x: 0.01769953, y: 0.07860572, z: -0.2228213, w: 0.9715238}
          s: {x: 1, y: 1, z: 1}
        - t: {x: 1.598721E-16, y: 0.004942052, z: 1.456699E-11}
          q: {x: 0.5144092, y: -0.4355917, z: 0.532669, w: 0.5117682}
          s: {x: 0.9999999, y: 0.9999999, z: 1}
        - t: {x: 0, y: 0.001378601, z: 0}
          q: {x: 0, y: 0, z: 0, w: 1}
          s: {x: 1, y: 1, z: 1}
        - t: {x: 0, y: 0.01010862, z: 0}
          q: {x: 0.5323091, y: -0.4654536, z: -0.5323091, w: -0.4654536}
          s: {x: 1, y: 0.9999999, z: 1}
        - t: {x: -3.996803E-17, y: 0.001224976, z: -3.72529E-11}
          q: {x: -0.01458261, y: 0.7750282, z: -0.6215579, w: 0.113068}
          s: {x: 1, y: 1, z: 1}
        - t: {x: -7.105427E-17, y: 0.004704622, z: 1.350497E-10}
          q: {x: -0.00745679, y: -0.02735594, z: -0.1916669, w: 0.9810504}
          s: {x: 1, y: 1, z: 1}
        - t: {x: 1.395342E-15, y: 0.004942052, z: -1.511932E-11}
          q: {x: 0.5287685, y: -0.5215326, z: 0.489558, w: 0.4568814}
          s: {x: 0.9999999, y: 0.9999999, z: 0.9999999}
        - t: {x: 0, y: 0.001378601, z: 0}
          q: {x: 0, y: 0, z: 0, w: 1}
          s: {x: 1, y: 1, z: 1}
        - t: {x: 0, y: 0, z: 0}
          q: {x: -0.7071068, y: 0, z: 0, w: 0.7071068}
          s: {x: 100, y: 100, z: 100}
    m_DefaultPose:
      data:
        m_X:
        - t: {x: 0, y: 0, z: 0}
          q: {x: 0, y: 0, z: 0, w: 1}
          s: {x: 1, y: 1, z: 1}
        - t: {x: 0.02426358, y: -0.02132294, z: 0.04232546}
          q: {x: -0.002891751, y: 0.7208194, z: 0.6930287, w: -0.01105327}
          s: {x: 100, y: 100, z: 100}
        - t: {x: 0, y: 0, z: 0}
          q: {x: 0.7071068, y: 0, z: 0, w: 0.7071068}
          s: {x: 1, y: 1, z: 1}
        - t: {x: 0, y: 0.01010862, z: 0}
          q: {x: -0.01008991, y: 0.002039226, z: 0.0006504921, w: 0.9999468}
          s: {x: 1, y: 1, z: 1}
        - t: {x: 0, y: 0.002199409, z: 0}
          q: {x: -0.01130397, y: 0.02438973, z: 0.002164539, w: 0.9996363}
          s: {x: 1, y: 1, z: 1}
        - t: {x: 0, y: 0.001924719, z: 0}
          q: {x: -0.0112064, y: 0.02433146, z: 0.002663648, w: 0.9996376}
          s: {x: 1, y: 1, z: 1}
        - t: {x: 0, y: 0.001625713, z: 0}
          q: {x: -0.5018159, y: 0.5051647, z: 0.4604291, w: 0.5300893}
          s: {x: 0.9999999, y: 0.9999999, z: 0.9999999}
        - t: {x: -6.439293E-17, y: 0.002945988, z: 8.568167E-10}
          q: {x: -0.6005694, y: 0.1303641, z: -0.1658719, w: 0.771238}
          s: {x: 1, y: 0.9999999, z: 1}
        - t: {x: 3.552714E-17, y: 0.003049846, z: -2.980232E-10}
          q: {x: -3.735989E-07, y: 1.366457E-07, z: -0.2524439, w: 0.9676116}
          s: {x: 1, y: 1, z: 0.9999999}
        - t: {x: -7.105427E-17, y: 0.002431401, z: -2.980231E-10}
          q: {x: -0.0007394485, y: -0.02734714, z: 0.1353065, w: 0.9904261}
          s: {x: 1, y: 0.9999999, z: 1}
        - t: {x: 0, y: 0.001090614, z: 0}
          q: {x: 0, y: 0, z: 0, w: 1}
          s: {x: 1, y: 1, z: 1}
        - t: {x: 0, y: 0.001625713, z: 0}
          q: {x: -0.00284184, y: -0.7152778, z: -0.01703223, w: 0.6986269}
          s: {x: 1, y: 1, z: 1}
        - t: {x: 0, y: 0.004069482, z: 0}
          q: {x: 0, y: 0, z: 0, w: 1}
          s: {x: 1, y: 1, z: 1}
        - t: {x: 0, y: 0.001625713, z: 0}
          q: {x: 0.5171589, y: 0.4814751, z: -0.4599897, w: 0.5377155}
          s: {x: 0.9999999, y: 0.9999998, z: 0.9999999}
        - t: {x: 2.664535E-17, y: 0.002945988, z: -8.195639E-10}
          q: {x: 0.5972537, y: -0.1625557, z: -0.1596465, w: 0.7690101}
          s: {x: 1, y: 1, z: 1}
        - t: {x: -2.131628E-16, y: 0.003049848, z: -1.490116E-09}
          q: {x: -3.328495E-08, y: 6.869126E-08, z: -0.2508755, w: 0.9680194}
          s: {x: 1, y: 1, z: 0.9999999}
        - t: {x: -1.731948E-16, y: 0.002431401, z: 9.325873E-17}
          q: {x: 0.09401599, y: -0.013668, z: 0.1218724, w: 0.9879885}
          s: {x: 1, y: 1, z: 1}
        - t: {x: 0, y: 0.001090614, z: 0}
          q: {x: 0, y: 0, z: 0, w: 1}
          s: {x: 1, y: 1, z: 1}
        - t: {x: 0, y: 0.01010862, z: 0}
          q: {x: 0.5323091, y: 0.4654536, z: -0.5323091, w: 0.4654536}
          s: {x: 1, y: 0.9999999, z: 1}
        - t: {x: -1.784683E-16, y: 0.001224976, z: 3.725291E-11}
          q: {x: 0.0270838, y: 0.7708787, z: 0.6318924, w: -0.07566017}
          s: {x: 1, y: 1, z: 1}
        - t: {x: -9.403589E-16, y: 0.004704622, z: -5.587124E-11}
          q: {x: 0.01651972, y: 0.07838285, z: -0.2175578, w: 0.9727548}
          s: {x: 1, y: 1, z: 1}
        - t: {x: 1.598721E-16, y: 0.004942052, z: 1.456699E-11}
          q: {x: 0.513206, y: -0.4416555, z: 0.5306399, w: 0.5098835}
          s: {x: 0.9999999, y: 0.9999999, z: 1}
        - t: {x: 0, y: 0.001378601, z: 0}
          q: {x: 0, y: 0, z: 0, w: 1}
          s: {x: 1, y: 1, z: 1}
        - t: {x: 0, y: 0.01010862, z: 0}
          q: {x: 0.5323091, y: -0.4654536, z: -0.5323091, w: -0.4654536}
          s: {x: 1, y: 0.9999999, z: 1}
        - t: {x: -3.996803E-17, y: 0.001224976, z: -3.72529E-11}
          q: {x: -0.01826797, y: 0.775332, z: -0.619628, w: 0.1207793}
          s: {x: 1, y: 1, z: 1}
        - t: {x: -7.105427E-17, y: 0.004704622, z: 1.350497E-10}
          q: {x: -0.007156737, y: -0.02934189, z: -0.1838304, w: 0.9824939}
          s: {x: 1, y: 1, z: 1}
        - t: {x: 1.395342E-15, y: 0.004942052, z: -1.511932E-11}
          q: {x: -0.5223117, y: 0.5291116, z: -0.4875136, w: -0.4577794}
          s: {x: 0.9999999, y: 0.9999999, z: 0.9999999}
        - t: {x: 0, y: 0.001378601, z: 0}
          q: {x: 0, y: 0, z: 0, w: 1}
          s: {x: 1, y: 1, z: 1}
        - t: {x: 0, y: 0, z: 0}
          q: {x: -0.7071068, y: 0, z: 0, w: 0.7071068}
          s: {x: 100, y: 100, z: 100}
    m_SkeletonNameIDArray: 00000000b28d6c7d1106d1ded8ca3ef84efa398ff4ab3016e54706f627f7b36baaa15772304df9753e13ef20a259c107569d1d85a860462dda0a83eb803ab9896cf375b67334affb1696622ef083611701f40d06708898583b19a615eb6b52ae91127f75fc093d862c36149b763ee6ced3b89082
    m_Human:
      data:
        serializedVersion: 2
        m_RootX:
          t: {x: 0.008060877, y: 1.056533, z: 0.01229582}
          q: {x: -0.004714991, y: 0.01343854, z: 0.006121873, w: 0.9998799}
          s: {x: 1, y: 1, z: 1}
        m_Skeleton:
          data:
            m_Node:
            - m_ParentId: -1
              m_AxesId: -1
            - m_ParentId: 0
              m_AxesId: 0
            - m_ParentId: 1
              m_AxesId: 1
            - m_ParentId: 2
              m_AxesId: 2
            - m_ParentId: 3
              m_AxesId: 3
            - m_ParentId: 4
              m_AxesId: 4
            - m_ParentId: 5
              m_AxesId: 5
            - m_ParentId: 6
              m_AxesId: 6
            - m_ParentId: 7
              m_AxesId: 7
            - m_ParentId: 4
              m_AxesId: 8
            - m_ParentId: 4
              m_AxesId: 9
            - m_ParentId: 10
              m_AxesId: 10
            - m_ParentId: 11
              m_AxesId: 11
            - m_ParentId: 12
              m_AxesId: 12
            - m_ParentId: 1
              m_AxesId: -1
            - m_ParentId: 14
              m_AxesId: 13
            - m_ParentId: 15
              m_AxesId: 14
            - m_ParentId: 16
              m_AxesId: 15
            - m_ParentId: 1
              m_AxesId: -1
            - m_ParentId: 18
              m_AxesId: 16
            - m_ParentId: 19
              m_AxesId: 17
            - m_ParentId: 20
              m_AxesId: 18
            m_ID: b28d6c7da8964ed4c15deb1c195cd3057678ea73ef3c0184e0246ba1dad03912bdf2dbf8292b48db6eef5a2d64de5697b844cd9f9681877741ebed4a5ace019d30bf1b64648fa051c120395b63d9b24d2418ce20f33dfed1
            m_AxesArray:
            - m_PreQ: {x: -0.5058156, y: -0.4936515, z: 0.5162833, w: 0.4836427}
              m_PostQ: {x: -0.4961711, y: -0.496171, z: -0.5037999, w: -0.5037999}
              m_Sgn: {x: 1, y: 1, z: 1, w: 0}
              m_Limit:
                m_Min: {x: -0.6981317, y: -0.6981317, z: -0.6981317}
                m_Max: {x: 0.6981317, y: 0.6981317, z: 0.6981317}
              m_Length: 1.010862
              m_Type: 1
            - m_PreQ: {x: -0.4901552, y: -0.5019167, z: -0.4989465, w: -0.5088024}
              m_PostQ: {x: -0.49483, y: -0.49483, z: -0.5051171, w: -0.5051171}
              m_Sgn: {x: 1, y: 1, z: 1, w: 0}
              m_Limit:
                m_Min: {x: -0.6981317, y: -0.6981317, z: -0.6981317}
                m_Max: {x: 0.6981317, y: 0.6981317, z: 0.6981317}
              m_Length: 0.2199409
              m_Type: 1
            - m_PreQ: {x: 0.4870148, y: 0.5023781, z: 0.5005757, w: 0.5097616}
              m_PostQ: {x: 0.4816345, y: 0.4816344, z: 0.5177146, w: 0.5177144}
              m_Sgn: {x: 1, y: 1, z: 1, w: 0}
              m_Limit:
                m_Min: {x: -0.6981317, y: -0.6981317, z: -0.6981317}
                m_Max: {x: 0.6981317, y: 0.6981317, z: 0.6981317}
              m_Length: 0.1924719
              m_Type: 1
            - m_PreQ: {x: 0.4735556, y: 0.4895425, z: 0.5136698, w: 0.5217631}
              m_PostQ: {x: 0.4682069, y: 0.4682069, z: 0.529889, w: 0.529889}
              m_Sgn: {x: 1, y: 1, z: 1, w: 0}
              m_Limit:
                m_Min: {x: -0.3490658, y: -0.3490658, z: -0.3490658}
                m_Max: {x: 0.3490658, y: 0.3490658, z: 0.3490658}
              m_Length: 0.1625712
              m_Type: 1
            - m_PreQ: {x: -0.02207148, y: -0.9989001, z: -0.01443774, w: -0.03876939}
              m_PostQ: {x: -0.488303, y: -0.4883029, z: -0.5114296, w: -0.5114295}
              m_Sgn: {x: 1, y: 1, z: 1, w: 0}
              m_Limit:
                m_Min: {x: 0, y: -0.2617994, z: -0.2617994}
                m_Max: {x: 0, y: 0.2617994, z: 0.5235988}
              m_Length: 0.2945988
              m_Type: 1
            - m_PreQ: {x: -0.3939412, y: -0.4903308, z: -0.142907, w: -0.7641752}
              m_PostQ: {x: -0.3952931, y: -0.3952932, z: -0.5862962, w: -0.5862964}
              m_Sgn: {x: -1, y: 1, z: 1, w: 0}
              m_Limit:
                m_Min: {x: -1.570796, y: -1.745329, z: -1.047198}
                m_Max: {x: 1.570796, y: 1.745329, z: 1.745329}
              m_Length: 0.3049847
              m_Type: 1
            - m_PreQ: {x: 0.000635981, y: 0.1795956, z: -0.06139726, w: -0.9818226}
              m_PostQ: {x: 0.1329767, y: 0.1329764, z: -0.6944906, w: -0.6944906}
              m_Sgn: {x: -1, y: 1, z: 1, w: 0}
              m_Limit:
                m_Min: {x: -1.570796, y: 0, z: -1.396263}
                m_Max: {x: 1.570796, y: 0, z: 1.396263}
              m_Length: 0.2431402
              m_Type: 1
            - m_PreQ: {x: -0.3968286, y: -0.3968288, z: -0.5852581, w: -0.5852582}
              m_PostQ: {x: -0.4642011, y: -0.3580861, z: -0.4847577, w: -0.6490777}
              m_Sgn: {x: 1, y: 1, z: 1, w: 0}
              m_Limit:
                m_Min: {x: 0, y: -0.6981317, z: -1.396263}
                m_Max: {x: 0, y: 0.6981317, z: 1.396263}
              m_Length: 0.06078504
              m_Type: 1
            - m_PreQ: {x: -0.4731938, y: -0.4631666, z: -0.5372323, w: -0.5224421}
              m_PostQ: {x: -0.7128909, y: -0.699459, z: -0.04523717, w: -0.02230495}
              m_Sgn: {x: 1, y: 1, z: 1, w: 0}
              m_Limit:
                m_Min: {x: -0.6981317, y: -0.6981317, z: -0.6981317}
                m_Max: {x: 0.6981317, y: 0.6981317, z: 0.6981317}
              m_Length: 0.08875371
              m_Type: 1
            - m_PreQ: {x: -0.9983745, y: -0.01736656, z: -0.05308651, w: 0.01133594}
              m_PostQ: {x: -0.5055581, y: -0.505558, z: -0.4943796, w: -0.4943795}
              m_Sgn: {x: 1, y: 1, z: -1, w: 0}
              m_Limit:
                m_Min: {x: 0, y: -0.2617994, z: -0.2617994}
                m_Max: {x: 0, y: 0.2617994, z: 0.5235988}
              m_Length: 0.2945988
              m_Type: 1
            - m_PreQ: {x: -0.7615842, y: -0.1581725, z: -0.4921547, w: -0.3908386}
              m_PostQ: {x: -0.6023445, y: -0.6023447, z: -0.3703795, w: -0.3703797}
              m_Sgn: {x: 1, y: 1, z: -1, w: 0}
              m_Limit:
                m_Min: {x: -1.570796, y: -1.745329, z: -1.047198}
                m_Max: {x: 1.570796, y: 1.745329, z: 1.745329}
              m_Length: 0.3049848
              m_Type: 1
            - m_PreQ: {x: -0.9740829, y: -0.0614683, z: 0.2176383, w: 0.004211729}
              m_PostQ: {x: -0.6883411, y: -0.6883411, z: 0.1618226, w: 0.1618229}
              m_Sgn: {x: 1, y: 1, z: -1, w: 0}
              m_Limit:
                m_Min: {x: -1.570796, y: 0, z: -1.396263}
                m_Max: {x: 1.570796, y: 0, z: 1.396263}
              m_Length: 0.2431402
              m_Type: 1
            - m_PreQ: {x: -0.6015796, y: -0.6015793, z: -0.3716211, w: -0.3716209}
              m_PostQ: {x: -0.6316751, y: -0.5535435, z: -0.2736635, w: -0.4687052}
              m_Sgn: {x: 1, y: 1, z: -1, w: 0}
              m_Limit:
                m_Min: {x: 0, y: -0.6981317, z: -1.396263}
                m_Max: {x: 0, y: 0.6981317, z: 1.396263}
              m_Length: 0.06078505
              m_Type: 1
            - m_PreQ: {x: -0.5776315, y: 0.2639199, z: -0.3539706, w: -0.6865807}
              m_PostQ: {x: 0.7067618, y: 0.7067617, z: 0.02208936, w: 0.02208933}
              m_Sgn: {x: 1, y: 1, z: 1, w: 0}
              m_Limit:
                m_Min: {x: -1.047198, y: -1.047198, z: -1.570796}
                m_Max: {x: 1.047198, y: 1.047198, z: 0.8726646}
              m_Length: 0.4704624
              m_Type: 1
            - m_PreQ: {x: -0.9892693, y: 0.1376959, z: -0.04346241, w: -0.02230247}
              m_PostQ: {x: -0.7020285, y: -0.7020286, z: -0.08459271, w: -0.08459274}
              m_Sgn: {x: 1, y: 1, z: -1, w: 0}
              m_Limit:
                m_Min: {x: -1.570796, y: 0, z: -1.396263}
                m_Max: {x: 1.570796, y: 0, z: 1.396263}
              m_Length: 0.4942055
              m_Type: 1
            - m_PreQ: {x: -0.6019033, y: -0.7895061, z: -0.0652199, w: -0.1006923}
              m_PostQ: {x: -0.7051926, y: -0.1608394, z: 0.6885715, w: -0.05199399}
              m_Sgn: {x: 1, y: 1, z: 1, w: 0}
              m_Limit:
                m_Min: {x: 0, y: -0.5235988, z: -0.8726646}
                m_Max: {x: 0, y: 0.5235988, z: 0.8726646}
              m_Length: 0.0299136
              m_Type: 1
            - m_PreQ: {x: 0.572153, y: -0.2636036, z: -0.3643587, w: -0.6858549}
              m_PostQ: {x: 0.7036665, y: 0.7036666, z: -0.06966642, w: -0.06966648}
              m_Sgn: {x: -1, y: -1, z: 1, w: 0}
              m_Limit:
                m_Min: {x: -1.047198, y: -1.047198, z: -1.570796}
                m_Max: {x: 1.047198, y: 1.047198, z: 0.8726646}
              m_Length: 0.4704624
              m_Type: 1
            - m_PreQ: {x: -0.9853343, y: 0.1062751, z: 0.123558, w: 0.05055215}
              m_PostQ: {x: -0.7000161, y: -0.7000161, z: 0.09988695, w: 0.09988698}
              m_Sgn: {x: -1, y: 1, z: -1, w: 0}
              m_Limit:
                m_Min: {x: -1.570796, y: 0, z: -1.396263}
                m_Max: {x: 1.570796, y: 0, z: 1.396263}
              m_Length: 0.4942055
              m_Type: 1
            - m_PreQ: {x: -0.6222001, y: -0.7697589, z: 0.07304629, w: 0.1224849}
              m_PostQ: {x: -0.6877834, y: 0.05541896, z: 0.7049319, w: 0.1641761}
              m_Sgn: {x: 1, y: -1, z: 1, w: 0}
              m_Limit:
                m_Min: {x: 0, y: -0.5235988, z: -0.8726646}
                m_Max: {x: 0, y: 0.5235988, z: 0.8726646}
              m_Length: 0.02991295
              m_Type: 1
        m_SkeletonPose:
          data:
            m_X:
            - t: {x: 0, y: 0, z: 0}
              q: {x: 0, y: 0, z: 0, w: 1}
              s: {x: 1, y: 1, z: 1}
            - t: {x: 0.02464076, y: -0.02252861, z: 0.04832818}
              q: {x: -0.01006701, y: 0.9996659, z: -0.02247986, w: -0.007856001}
              s: {x: 100, y: 100, z: 100}
            - t: {x: 9.313225E-11, y: 0.01010862, z: 2.235174E-10}
              q: {x: -0.01081791, y: 0.002448057, z: 0.0008416111, w: 0.9999384}
              s: {x: 1, y: 1, z: 1}
            - t: {x: 2.328306E-11, y: 0.002199409, z: 2.793968E-11}
              q: {x: -0.01237809, y: 0.02560974, z: 0.002643816, w: 0.9995921}
              s: {x: 1, y: 1, z: 1}
            - t: {x: 6.984919E-12, y: 0.001924719, z: -8.731149E-13}
              q: {x: -0.01226062, y: 0.02553815, z: 0.003196563, w: 0.9995937}
              s: {x: 1, y: 1, z: 1}
            - t: {x: 7.566996E-12, y: 0.001625712, z: -4.190951E-11}
              q: {x: -0.5114604, y: 0.496174, z: 0.4645445, w: 0.5257553}
              s: {x: 0.9999999, y: 0.9999998, z: 0.9999999}
            - t: {x: -8.195639E-10, y: 0.002945989, z: 2.04891E-10}
              q: {x: -0.03347996, y: 0.1693641, z: -0.01858914, w: 0.9848096}
              s: {x: 1, y: 0.9999999, z: 1}
            - t: {x: -7.82311E-10, y: 0.003049848, z: -1.089647E-09}
              q: {x: 0.009718388, y: -0.002621859, z: -0.02522375, w: 0.9996315}
              s: {x: 1, y: 1, z: 1}
            - t: {x: -5.960465E-10, y: 0.002431403, z: -8.6613E-10}
              q: {x: 0.003102079, y: -0.03131181, z: 0.1382791, w: 0.9898937}
              s: {x: 1, y: 0.9999999, z: 1}
            - t: {x: 7.566996E-12, y: 0.001625712, z: -4.190951E-11}
              q: {x: -0.007070014, y: -0.7166781, z: -0.0124433, w: 0.6972576}
              s: {x: 1, y: 1, z: 1}
            - t: {x: 7.566996E-12, y: 0.001625712, z: -4.190951E-11}
              q: {x: 0.5175596, y: 0.4810544, z: -0.4641074, w: 0.5341569}
              s: {x: 0.9999999, y: 0.9999998, z: 0.9999999}
            - t: {x: 8.661301E-10, y: 0.002945989, z: 4.004687E-10}
              q: {x: 0.02441397, y: -0.2204762, z: -0.009407222, w: 0.9750416}
              s: {x: 1, y: 1, z: 1}
            - t: {x: 8.195639E-10, y: 0.00304985, z: -1.103617E-09}
              q: {x: -0.008704841, y: 0.002246991, z: -0.02545452, w: 0.9996359}
              s: {x: 1, y: 1, z: 0.9999999}
            - t: {x: 1.508743E-09, y: 0.002431403, z: 9.872021E-10}
              q: {x: 0.08829799, y: 0.006141707, z: 0.1194839, w: 0.9888833}
              s: {x: 1, y: 1, z: 1}
            - t: {x: 9.313225E-11, y: 0.01010862, z: 2.235174E-10}
              q: {x: 0.5323092, y: 0.4654537, z: -0.5323092, w: 0.4654537}
              s: {x: 1, y: 0.9999999, z: 1}
            - t: {x: 1.97906E-10, y: 0.001224977, z: 4.097819E-10}
              q: {x: 0.02516374, y: 0.77248, z: 0.6301105, w: -0.07485092}
              s: {x: 1, y: 1, z: 1}
            - t: {x: 2.980232E-10, y: 0.004704626, z: -2.980232E-10}
              q: {x: 0.01769952, y: 0.07860574, z: -0.2228213, w: 0.9715241}
              s: {x: 1, y: 1, z: 1}
            - t: {x: -2.654269E-10, y: 0.004942058, z: 3.72529E-10}
              q: {x: 0.5144094, y: -0.4355919, z: 0.5326691, w: 0.5117684}
              s: {x: 0.9999999, y: 0.9999999, z: 1}
            - t: {x: 9.313225E-11, y: 0.01010862, z: 2.235174E-10}
              q: {x: 0.5323093, y: -0.4654537, z: -0.5323093, w: -0.4654537}
              s: {x: 1, y: 0.9999998, z: 1}
            - t: {x: -4.353933E-10, y: 0.001224977, z: -7.171184E-10}
              q: {x: -0.01458265, y: 0.7750285, z: -0.6215581, w: 0.113068}
              s: {x: 1, y: 1, z: 1}
            - t: {x: 7.45058E-11, y: 0.004704628, z: 1.117587E-10}
              q: {x: -0.007456785, y: -0.02735594, z: -0.1916669, w: 0.9810507}
              s: {x: 1, y: 1, z: 1}
            - t: {x: -3.72529E-10, y: 0.00494206, z: 5.960464E-10}
              q: {x: 0.5287687, y: -0.5215328, z: 0.4895582, w: 0.4568815}
              s: {x: 0.9999998, y: 0.9999999, z: 0.9999999}
        m_LeftHand:
          data:
            m_HandBoneIndex: ffffffffffffffffffffffffffffffffffffffffffffffffffffffffffffffffffffffffffffffffffffffffffffffffffffffffffffffffffffffff
        m_RightHand:
          data:
            m_HandBoneIndex: ffffffffffffffffffffffffffffffffffffffffffffffffffffffffffffffffffffffffffffffffffffffffffffffffffffffffffffffffffffffff
        m_Handles: []
        m_ColliderArray: []
        m_HumanBoneIndex: 010000000f0000001300000010000000140000001100000015000000020000000300000004000000ffffffff090000000a000000050000000b000000060000000c000000070000000d00000008000000ffffffffffffffffffffffffffffffffffffffff
        m_HumanBoneMass:
        - 0.1454546
        - 0.1212121
        - 0.1212121
        - 0.04848485
        - 0.04848485
        - 0.01212121
        - 0.01212121
        - 0.03030303
        - 0.1454546
        - 0.1575758
        - 0
        - 0.04848485
        - 0.006060607
        - 0.006060607
        - 0.02424243
        - 0.02424243
        - 0.01818182
        - 0.01818182
        - 0.006060607
        - 0.006060607
        - 0
        - 0
        - 0
        - 0
        - 0
        m_ColliderIndex:
        m_Scale: 1.056533
        m_ArmTwist: 0.5
        m_ForeArmTwist: 0.5
        m_UpperLegTwist: 0.5
        m_LegTwist: 0.5
        m_ArmStretch: 0.05
        m_LegStretch: 0.05
        m_FeetSpacing: 0
        m_HasLeftHand: 0
        m_HasRightHand: 0
        m_HasTDoF: 0
    m_HumanSkeletonIndexArray: 0100000002000000030000000400000005000000060000000700000008000000090000000b0000000d0000000e0000000f00000010000000120000001300000014000000150000001700000018000000190000001a000000
    m_HumanSkeletonReverseIndexArray: ffffffff000000000100000002000000030000000400000005000000060000000700000008000000ffffffff09000000ffffffff0a0000000b0000000c0000000d000000ffffffff0e0000000f0000001000000011000000ffffffff12000000130000001400000015000000ffffffffffffffff
    m_RootMotionBoneIndex: -1
    m_RootMotionBoneX:
      t: {x: 0, y: 0, z: 0}
      q: {x: 0, y: 0, z: 0, w: 1}
      s: {x: 1, y: 1, z: 1}
    m_RootMotionSkeleton:
      data:
        m_Node: []
        m_ID:
        m_AxesArray: []
    m_RootMotionSkeletonPose:
      data:
        m_X: []
    m_RootMotionSkeletonIndexArray:
  m_TOS:
    485187009: Armature/Hips/Spine0
    3561920168: Armature/Hips
    1944746102: Armature/Hips/Spine0/Spine1/Spine2
    1257106241: Armature/Hips/LeftHip
    2190522579: Cube.001
    2634141274: Armature/Hips/LeftHip/LeftUpLeg
    1369476964: Armature/Hips/LeftHip/LeftUpLeg/LeftLeg/LeftFoot
    97737753: Armature/Hips/Spine0/Spine1
    3181130561: Armature/Hips/RightHip/RightUpLeg/RightLeg/RightFoot/RightFoot_end
    3727525609: Armature/Hips/Spine0/Spine1/Spine2/Head/Head_end
    514190140: Armature/Hips/Spine0/Spine1/Spine2/LeftShoulder/LeftArm/LeftForeArm/LeftHand/LeftHand_end
    3523100147: Armature/Hips/RightHip/RightUpLeg/RightLeg/RightFoot
    2708153568: Armature/Hips/Spine0/Spine1/Spine2/RightShoulder/RightArm
    2657337419: Armature/Hips/Spine0/Spine1/Spine2/RightShoulder/RightArm/RightForeArm/RightHand/RightHand_end
    760934254: Armature/Hips/Spine0/Spine1/Spine2/LeftShoulder
    2681029816: Armature/Hips/Spine0/Spine1/Spine2/LeftShoulder/LeftArm/LeftForeArm
    2214673647: Armature/Hips/Spine0/Spine1/Spine2/RightShoulder
    1679540016: Armature/Hips/LeftHip/LeftUpLeg/LeftLeg
    0:
    550377508: Armature/Hips/RightHip/RightUpLeg/RightLeg
    4175164093: Armature/Hips/Spine0/Spine1/Spine2/RightShoulder/RightArm/RightForeArm/RightHand
    2394624113: Armature/Hips/LeftHip/LeftUpLeg/LeftLeg/LeftFoot/LeftFoot_end
    305778906: Armature/Hips/Spine0/Spine1/Spine2/RightShoulder/RightArm/RightForeArm
    2005369238: Armature/Hips/Spine0/Spine1/Spine2/LeftShoulder/LeftArm/LeftForeArm/LeftHand
    1530470593: Armature/Hips/RightHip
    1303566691: Armature/Hips/RightHip/RightUpLeg
    3678939945: Armature/Hips/Spine0/Spine1/Spine2/Head
    2539052644: Armature/Hips/Spine0/Spine1/Spine2/LeftShoulder/LeftArm
    2104266162: Armature
  m_HumanDescription:
    serializedVersion: 3
    m_Human:
    - m_BoneName: Hips
      m_HumanName: Hips
      m_Limit:
        m_Min: {x: 0, y: 0, z: 0}
        m_Max: {x: 0, y: 0, z: 0}
        m_Value: {x: 0, y: 0, z: 0}
        m_Length: 0
        m_Modified: 0
    - m_BoneName: LeftUpLeg
      m_HumanName: LeftUpperLeg
      m_Limit:
        m_Min: {x: 0, y: 0, z: 0}
        m_Max: {x: 0, y: 0, z: 0}
        m_Value: {x: 0, y: 0, z: 0}
        m_Length: 0
        m_Modified: 0
    - m_BoneName: RightUpLeg
      m_HumanName: RightUpperLeg
      m_Limit:
        m_Min: {x: 0, y: 0, z: 0}
        m_Max: {x: 0, y: 0, z: 0}
        m_Value: {x: 0, y: 0, z: 0}
        m_Length: 0
        m_Modified: 0
    - m_BoneName: LeftLeg
      m_HumanName: LeftLowerLeg
      m_Limit:
        m_Min: {x: 0, y: 0, z: 0}
        m_Max: {x: 0, y: 0, z: 0}
        m_Value: {x: 0, y: 0, z: 0}
        m_Length: 0
        m_Modified: 0
    - m_BoneName: RightLeg
      m_HumanName: RightLowerLeg
      m_Limit:
        m_Min: {x: 0, y: 0, z: 0}
        m_Max: {x: 0, y: 0, z: 0}
        m_Value: {x: 0, y: 0, z: 0}
        m_Length: 0
        m_Modified: 0
    - m_BoneName: LeftFoot
      m_HumanName: LeftFoot
      m_Limit:
        m_Min: {x: 0, y: 0, z: 0}
        m_Max: {x: 0, y: 0, z: 0}
        m_Value: {x: 0, y: 0, z: 0}
        m_Length: 0
        m_Modified: 0
    - m_BoneName: RightFoot
      m_HumanName: RightFoot
      m_Limit:
        m_Min: {x: 0, y: 0, z: 0}
        m_Max: {x: 0, y: 0, z: 0}
        m_Value: {x: 0, y: 0, z: 0}
        m_Length: 0
        m_Modified: 0
    - m_BoneName: Spine0
      m_HumanName: Spine
      m_Limit:
        m_Min: {x: 0, y: 0, z: 0}
        m_Max: {x: 0, y: 0, z: 0}
        m_Value: {x: 0, y: 0, z: 0}
        m_Length: 0
        m_Modified: 0
    - m_BoneName: Spine1
      m_HumanName: Chest
      m_Limit:
        m_Min: {x: 0, y: 0, z: 0}
        m_Max: {x: 0, y: 0, z: 0}
        m_Value: {x: 0, y: 0, z: 0}
        m_Length: 0
        m_Modified: 0
    - m_BoneName: Head
      m_HumanName: Head
      m_Limit:
        m_Min: {x: 0, y: 0, z: 0}
        m_Max: {x: 0, y: 0, z: 0}
        m_Value: {x: 0, y: 0, z: 0}
        m_Length: 0
        m_Modified: 0
    - m_BoneName: LeftShoulder
      m_HumanName: LeftShoulder
      m_Limit:
        m_Min: {x: 0, y: 0, z: 0}
        m_Max: {x: 0, y: 0, z: 0}
        m_Value: {x: 0, y: 0, z: 0}
        m_Length: 0
        m_Modified: 0
    - m_BoneName: RightShoulder
      m_HumanName: RightShoulder
      m_Limit:
        m_Min: {x: 0, y: 0, z: 0}
        m_Max: {x: 0, y: 0, z: 0}
        m_Value: {x: 0, y: 0, z: 0}
        m_Length: 0
        m_Modified: 0
    - m_BoneName: LeftArm
      m_HumanName: LeftUpperArm
      m_Limit:
        m_Min: {x: 0, y: 0, z: 0}
        m_Max: {x: 0, y: 0, z: 0}
        m_Value: {x: 0, y: 0, z: 0}
        m_Length: 0
        m_Modified: 0
    - m_BoneName: RightArm
      m_HumanName: RightUpperArm
      m_Limit:
        m_Min: {x: 0, y: 0, z: 0}
        m_Max: {x: 0, y: 0, z: 0}
        m_Value: {x: 0, y: 0, z: 0}
        m_Length: 0
        m_Modified: 0
    - m_BoneName: LeftForeArm
      m_HumanName: LeftLowerArm
      m_Limit:
        m_Min: {x: 0, y: 0, z: 0}
        m_Max: {x: 0, y: 0, z: 0}
        m_Value: {x: 0, y: 0, z: 0}
        m_Length: 0
        m_Modified: 0
    - m_BoneName: RightForeArm
      m_HumanName: RightLowerArm
      m_Limit:
        m_Min: {x: 0, y: 0, z: 0}
        m_Max: {x: 0, y: 0, z: 0}
        m_Value: {x: 0, y: 0, z: 0}
        m_Length: 0
        m_Modified: 0
    - m_BoneName: LeftHand
      m_HumanName: LeftHand
      m_Limit:
        m_Min: {x: 0, y: 0, z: 0}
        m_Max: {x: 0, y: 0, z: 0}
        m_Value: {x: 0, y: 0, z: 0}
        m_Length: 0
        m_Modified: 0
    - m_BoneName: RightHand
      m_HumanName: RightHand
      m_Limit:
        m_Min: {x: 0, y: 0, z: 0}
        m_Max: {x: 0, y: 0, z: 0}
        m_Value: {x: 0, y: 0, z: 0}
        m_Length: 0
        m_Modified: 0
    - m_BoneName: Spine2
      m_HumanName: UpperChest
      m_Limit:
        m_Min: {x: 0, y: 0, z: 0}
        m_Max: {x: 0, y: 0, z: 0}
        m_Value: {x: 0, y: 0, z: 0}
        m_Length: 0
        m_Modified: 0
    m_Skeleton:
    - m_Name: _playertest_serk_base(Clone)
      m_ParentName:
      m_Position: {x: 0, y: 0, z: 0}
      m_Rotation: {x: 0, y: 0, z: 0, w: 1}
      m_Scale: {x: 1, y: 1, z: 1}
    - m_Name: Armature
      m_ParentName: _playertest_serk_base(Clone)
      m_Position: {x: 0.02464076, y: -0.02252861, z: 0.04832818}
      m_Rotation: {x: -0.001563423, y: 0.7227661, z: 0.6909748, w: -0.01267349}
      m_Scale: {x: 100, y: 100, z: 100}
    - m_Name: Hips
      m_ParentName: Armature
      m_Position: {x: 0, y: 0, z: 0}
      m_Rotation: {x: 0.7071068, y: 0, z: 0, w: 0.7071068}
      m_Scale: {x: 1, y: 1, z: 1}
    - m_Name: Spine0
      m_ParentName: Hips
      m_Position: {x: 0, y: 0.01010862, z: 0}
      m_Rotation: {x: -0.01081791, y: 0.002448055, z: 0.0008416108, w: 0.9999382}
      m_Scale: {x: 1, y: 1, z: 1}
    - m_Name: Spine1
      m_ParentName: Spine0
      m_Position: {x: 0, y: 0.002199409, z: 0}
      m_Rotation: {x: -0.01237809, y: 0.02560973, z: 0.002643815, w: 0.9995919}
      m_Scale: {x: 1, y: 1, z: 1}
    - m_Name: Spine2
      m_ParentName: Spine1
      m_Position: {x: 0, y: 0.001924719, z: 0}
      m_Rotation: {x: -0.01226062, y: 0.02553815, z: 0.003196561, w: 0.9995936}
      m_Scale: {x: 1, y: 1, z: 1}
    - m_Name: RightShoulder
      m_ParentName: Spine2
      m_Position: {x: 0, y: 0.001625713, z: 0}
      m_Rotation: {x: -0.5114602, y: 0.4961738, z: 0.4645444, w: 0.5257552}
      m_Scale: {x: 0.9999999, y: 0.9999999, z: 0.9999999}
    - m_Name: RightArm
      m_ParentName: RightShoulder
      m_Position: {x: -6.439293E-17, y: 0.002945988, z: 8.568167E-10}
      m_Rotation: {x: -0.03347996, y: 0.169364, z: -0.01858916, w: 0.9848093}
      m_Scale: {x: 1, y: 0.9999999, z: 1}
    - m_Name: RightForeArm
      m_ParentName: RightArm
      m_Position: {x: 3.552714E-17, y: 0.003049846, z: -2.980232E-10}
      m_Rotation: {x: 0.009718394, y: -0.002621859, z: -0.02522372, w: 0.9996312}
      m_Scale: {x: 1, y: 1, z: 0.9999999}
    - m_Name: RightHand
      m_ParentName: RightForeArm
      m_Position: {x: -7.105427E-17, y: 0.002431401, z: -2.980231E-10}
      m_Rotation: {x: 0.003102082, y: -0.0313118, z: 0.1382791, w: 0.9898934}
      m_Scale: {x: 1, y: 0.9999999, z: 1}
    - m_Name: RightHand_end
      m_ParentName: RightHand
      m_Position: {x: 0, y: 0.001090614, z: 0}
      m_Rotation: {x: 0, y: 0, z: 0, w: 1}
      m_Scale: {x: 1, y: 1, z: 1}
    - m_Name: Head
      m_ParentName: Spine2
      m_Position: {x: 0, y: 0.001625713, z: 0}
      m_Rotation: {x: -0.007070013, y: -0.7166779, z: -0.0124433, w: 0.6972575}
      m_Scale: {x: 1, y: 1, z: 1}
    - m_Name: Head_end
      m_ParentName: Head
      m_Position: {x: 0, y: 0.004069482, z: 0}
      m_Rotation: {x: 0, y: 0, z: 0, w: 1}
      m_Scale: {x: 1, y: 1, z: 1}
    - m_Name: LeftShoulder
      m_ParentName: Spine2
      m_Position: {x: 0, y: 0.001625713, z: 0}
      m_Rotation: {x: 0.5175595, y: 0.4810543, z: -0.4641072, w: 0.5341567}
      m_Scale: {x: 0.9999999, y: 0.9999998, z: 0.9999999}
    - m_Name: LeftArm
      m_ParentName: LeftShoulder
      m_Position: {x: 2.664535E-17, y: 0.002945988, z: -8.195639E-10}
      m_Rotation: {x: 0.02441397, y: -0.2204762, z: -0.009407206, w: 0.9750414}
      m_Scale: {x: 1, y: 1, z: 1}
    - m_Name: LeftForeArm
      m_ParentName: LeftArm
      m_Position: {x: -2.131628E-16, y: 0.003049848, z: -1.490116E-09}
      m_Rotation: {x: -0.008704878, y: 0.002247005, z: -0.02545452, w: 0.9996356}
      m_Scale: {x: 1, y: 1, z: 0.9999999}
    - m_Name: LeftHand
      m_ParentName: LeftForeArm
      m_Position: {x: -1.731948E-16, y: 0.002431401, z: 9.325873E-17}
      m_Rotation: {x: 0.08829799, y: 0.006141688, z: 0.1194839, w: 0.9888829}
      m_Scale: {x: 1, y: 1, z: 1}
    - m_Name: LeftHand_end
      m_ParentName: LeftHand
      m_Position: {x: 0, y: 0.001090614, z: 0}
      m_Rotation: {x: 0, y: 0, z: 0, w: 1}
      m_Scale: {x: 1, y: 1, z: 1}
    - m_Name: LeftHip
      m_ParentName: Hips
      m_Position: {x: 0, y: 0.01010862, z: 0}
      m_Rotation: {x: 0.5323091, y: 0.4654536, z: -0.5323091, w: 0.4654536}
      m_Scale: {x: 1, y: 0.9999999, z: 1}
    - m_Name: LeftUpLeg
      m_ParentName: LeftHip
      m_Position: {x: -1.784683E-16, y: 0.001224976, z: 3.725291E-11}
      m_Rotation: {x: 0.02516374, y: 0.7724798, z: 0.6301104, w: -0.07485089}
      m_Scale: {x: 1, y: 1, z: 1}
    - m_Name: LeftLeg
      m_ParentName: LeftUpLeg
      m_Position: {x: -9.403589E-16, y: 0.004704622, z: -5.587124E-11}
      m_Rotation: {x: 0.01769953, y: 0.07860572, z: -0.2228213, w: 0.9715238}
      m_Scale: {x: 1, y: 1, z: 1}
    - m_Name: LeftFoot
      m_ParentName: LeftLeg
      m_Position: {x: 1.598721E-16, y: 0.004942052, z: 1.456699E-11}
      m_Rotation: {x: 0.5144092, y: -0.4355917, z: 0.532669, w: 0.5117682}
      m_Scale: {x: 0.9999999, y: 0.9999999, z: 1}
    - m_Name: LeftFoot_end
      m_ParentName: LeftFoot
      m_Position: {x: 0, y: 0.001378601, z: 0}
      m_Rotation: {x: 0, y: 0, z: 0, w: 1}
      m_Scale: {x: 1, y: 1, z: 1}
    - m_Name: RightHip
      m_ParentName: Hips
      m_Position: {x: 0, y: 0.01010862, z: 0}
      m_Rotation: {x: 0.5323091, y: -0.4654536, z: -0.5323091, w: -0.4654536}
      m_Scale: {x: 1, y: 0.9999999, z: 1}
    - m_Name: RightUpLeg
      m_ParentName: RightHip
      m_Position: {x: -3.996803E-17, y: 0.001224976, z: -3.72529E-11}
      m_Rotation: {x: -0.01458261, y: 0.7750282, z: -0.6215579, w: 0.113068}
      m_Scale: {x: 1, y: 1, z: 1}
    - m_Name: RightLeg
      m_ParentName: RightUpLeg
      m_Position: {x: -7.105427E-17, y: 0.004704622, z: 1.350497E-10}
      m_Rotation: {x: -0.00745679, y: -0.02735594, z: -0.1916669, w: 0.9810504}
      m_Scale: {x: 1, y: 1, z: 1}
    - m_Name: RightFoot
      m_ParentName: RightLeg
      m_Position: {x: 1.395342E-15, y: 0.004942052, z: -1.511932E-11}
      m_Rotation: {x: 0.5287685, y: -0.5215326, z: 0.489558, w: 0.4568814}
      m_Scale: {x: 0.9999999, y: 0.9999999, z: 0.9999999}
    - m_Name: RightFoot_end
      m_ParentName: RightFoot
      m_Position: {x: 0, y: 0.001378601, z: 0}
      m_Rotation: {x: 0, y: 0, z: 0, w: 1}
      m_Scale: {x: 1, y: 1, z: 1}
    - m_Name: Cube.001
      m_ParentName: _playertest_serk_base(Clone)
      m_Position: {x: 0, y: 0, z: 0}
      m_Rotation: {x: -0.7071068, y: 0, z: 0, w: 0.7071068}
      m_Scale: {x: 100, y: 100, z: 100}
    m_ArmTwist: 0.5
    m_ForeArmTwist: 0.5
    m_UpperLegTwist: 0.5
    m_LegTwist: 0.5
    m_ArmStretch: 0.05
    m_LegStretch: 0.05
    m_FeetSpacing: 0
    m_GlobalScale: 1
    m_RootMotionBoneName:
    m_HasTranslationDoF: 0
    m_HasExtraRoot: 1
    m_SkeletonHasParents: 1
