%YAML 1.1
%TAG !u! tag:unity3d.com,2011:
--- !u!90 &9000000
Avatar:
  m_CorrespondingSourceObject: {fileID: 0}
  m_PrefabInstance: {fileID: 0}
  m_PrefabAsset: {fileID: 0}
  m_Name: SpinningWheelAvatar
  m_AvatarSize: 2060
  m_Avatar:
    serializedVersion: 3
    m_AvatarSkeleton:
      data:
        m_Node:
        - m_ParentId: -1
          m_AxesId: -1
        - m_ParentId: 0
          m_AxesId: -1
        - m_ParentId: 1
          m_AxesId: -1
        - m_ParentId: 2
          m_AxesId: -1
        - m_ParentId: 3
          m_AxesId: -1
        - m_ParentId: 4
          m_AxesId: -1
        - m_ParentId: 2
          m_AxesId: -1
        - m_ParentId: 6
          m_AxesId: -1
        - m_ParentId: 7
          m_AxesId: -1
        - m_ParentId: 8
          m_AxesId: -1
        - m_ParentId: 9
          m_AxesId: -1
        - m_ParentId: 2
          m_AxesId: -1
        - m_ParentId: 11
          m_AxesId: -1
        - m_ParentId: 11
          m_AxesId: -1
        - m_ParentId: 0
          m_AxesId: -1
        m_ID: 00000000b28d6c7df080eb9f382d6f0c9a41f74712382634827c6695160eaadc69455e060d4351601a3653f80d880ce5da1c51ad4c2c56da269e8788
        m_AxesArray: []
    m_AvatarSkeletonPose:
      data:
        m_X:
        - t: {x: 0, y: 0, z: 0}
          q: {x: 0, y: 0, z: 0, w: 1}
          s: {x: 1, y: 1, z: 1}
        - t: {x: 0, y: 0, z: 0}
          q: {x: -0.7071068, y: 0, z: 0, w: 0.7071067}
          s: {x: 100, y: 100, z: 100}
        - t: {x: 0, y: 0, z: 0}
          q: {x: 0.7120133, y: -5.699804E-20, z: -9.350655E-17, w: 0.702166}
          s: {x: 1, y: 1, z: 1}
        - t: {x: -4.135903E-27, y: 0.006278351, z: 0}
          q: {x: -0.5783487, y: 5.707398E-17, z: 1.325263E-16, w: 0.8157897}
          s: {x: 1, y: 1, z: 1}
        - t: {x: -4.963084E-26, y: 0.009353085, z: -2.980232E-10}
          q: {x: 0.5770462, y: -4.061505E-17, z: -3.972808E-17, w: 0.8167115}
          s: {x: 1, y: 1, z: 0.9999999}
        - t: {x: -1.29247E-26, y: 0.001735001, z: 4.284084E-10}
          q: {x: 0.5022224, y: -0.5022218, z: -0.4977683, w: -0.4977677}
          s: {x: 0.9999999, y: 0.9999999, z: 0.9999999}
        - t: {x: -4.135903E-27, y: 0.006278351, z: 0}
          q: {x: 0.2983214, y: -1.137811E-07, z: -3.556269E-08, w: 0.9544654}
          s: {x: 1, y: 1, z: 0.9999999}
        - t: {x: -6.985904E-17, y: 0.01160309, z: -2.980232E-10}
          q: {x: -0.2293375, y: -2.599399E-15, z: 5.467832E-08, w: 0.973347}
          s: {x: 1, y: 1, z: 1}
        - t: {x: 7.22495E-17, y: 0.0006235079, z: 2.980232E-10}
          q: {x: 0.537598, y: -0.5374786, z: -0.4594744, w: -0.4593349}
          s: {x: 0.9999998, y: 0.9999996, z: 0.9999999}
        - t: {x: 4.754609E-10, y: 0.005467967, z: 1.63418E-10}
          q: {x: -0.04879522, y: 0.04796171, z: 0.9806099, w: 0.1836381}
          s: {x: 1, y: 1, z: 1}
        - t: {x: 1.490116E-10, y: 0.004013861, z: 1.229346E-09}
          q: {x: -0.07068162, y: -0.002477681, z: 0.8255157, w: 0.5599302}
          s: {x: 1, y: 1, z: 1}
        - t: {x: -4.135903E-27, y: 0.006278351, z: 0}
          q: {x: -0.01730544, y: -5.472099E-05, z: 0.01617786, w: 0.9997194}
          s: {x: 1, y: 0.9999999, z: 1}
        - t: {x: -1.893232E-11, y: 0.006740583, z: 1.649823E-11}
          q: {x: -0.4943391, y: 0.4943388, z: 0.5055978, w: 0.5055975}
          s: {x: 0.9999999, y: 1, z: 0.9999999}
        - t: {x: -1.893232E-11, y: 0.006740583, z: 1.649823E-11}
          q: {x: -0.4943391, y: -0.4943388, z: -0.5055978, w: 0.5055975}
          s: {x: 0.9999999, y: 1, z: 0.9999999}
        - t: {x: 0, y: 0, z: 0}
          q: {x: -0.7071068, y: 0, z: 0, w: 0.7071067}
          s: {x: 100, y: 100, z: 100}
    m_DefaultPose:
      data:
        m_X:
        - t: {x: 0, y: 0, z: 0}
          q: {x: 0, y: 0, z: 0, w: 1}
          s: {x: 1, y: 1, z: 1}
        - t: {x: 0, y: 0, z: 0}
          q: {x: -0.7071068, y: 0, z: 0, w: 0.7071067}
          s: {x: 100, y: 100, z: 100}
        - t: {x: 0, y: 0, z: 0}
          q: {x: 0.7120133, y: -5.699804E-20, z: -9.350655E-17, w: 0.702166}
          s: {x: 1, y: 1, z: 1}
        - t: {x: -4.135903E-27, y: 0.006278351, z: 0}
          q: {x: -0.5783487, y: 5.707398E-17, z: 1.325263E-16, w: 0.8157897}
          s: {x: 1, y: 1, z: 1}
        - t: {x: -4.963084E-26, y: 0.009353085, z: -2.980232E-10}
          q: {x: 0.5770462, y: -4.061505E-17, z: -3.972808E-17, w: 0.8167115}
          s: {x: 1, y: 1, z: 0.9999999}
        - t: {x: -1.29247E-26, y: 0.001735001, z: 4.284084E-10}
          q: {x: 0.5022224, y: -0.5022218, z: -0.4977683, w: -0.4977677}
          s: {x: 0.9999999, y: 0.9999999, z: 0.9999999}
        - t: {x: -4.135903E-27, y: 0.006278351, z: 0}
          q: {x: 0.2983214, y: -1.137811E-07, z: -3.556269E-08, w: 0.9544654}
          s: {x: 1, y: 1, z: 0.9999999}
        - t: {x: -6.985904E-17, y: 0.01160309, z: -2.980232E-10}
          q: {x: -0.2293375, y: -2.599399E-15, z: 5.467832E-08, w: 0.973347}
          s: {x: 1, y: 1, z: 1}
        - t: {x: 7.22495E-17, y: 0.0006235079, z: 2.980232E-10}
          q: {x: 0.537598, y: -0.5374786, z: -0.4594744, w: -0.4593349}
          s: {x: 0.9999998, y: 0.9999996, z: 0.9999999}
        - t: {x: 4.754609E-10, y: 0.005467967, z: 1.63418E-10}
          q: {x: -0.04879522, y: 0.04796171, z: 0.9806099, w: 0.1836381}
          s: {x: 1, y: 1, z: 1}
        - t: {x: 1.490116E-10, y: 0.004013861, z: 1.229346E-09}
          q: {x: -0.07068162, y: -0.002477681, z: 0.8255157, w: 0.5599302}
          s: {x: 1, y: 1, z: 1}
        - t: {x: -4.135903E-27, y: 0.006278351, z: 0}
          q: {x: -0.01730544, y: -5.472099E-05, z: 0.01617786, w: 0.9997194}
          s: {x: 1, y: 0.9999999, z: 1}
        - t: {x: -1.893232E-11, y: 0.006740583, z: 1.649823E-11}
          q: {x: -0.4943391, y: 0.4943388, z: 0.5055978, w: 0.5055975}
          s: {x: 0.9999999, y: 1, z: 0.9999999}
        - t: {x: -1.893232E-11, y: 0.006740583, z: 1.649823E-11}
          q: {x: -0.4943391, y: -0.4943388, z: -0.5055978, w: 0.5055975}
          s: {x: 0.9999999, y: 1, z: 0.9999999}
        - t: {x: 0, y: 0, z: 0}
          q: {x: -0.7071068, y: 0, z: 0, w: 0.7071067}
          s: {x: 100, y: 100, z: 100}
    m_SkeletonNameIDArray: 00000000b28d6c7d49107495b6bb56fa152e3264f78a4de30cea5f639ada581461ba4a94394f3c8aaf7f3bfd831e351312038a8384338df4269e8788
    m_Human:
      data:
        serializedVersion: 2
        m_RootX:
          t: {x: 0, y: 0, z: 0}
          q: {x: 0, y: 0, z: 0, w: 1}
          s: {x: 1, y: 1, z: 1}
        m_Skeleton:
          data:
            m_Node: []
            m_ID:
            m_AxesArray: []
        m_SkeletonPose:
          data:
            m_X: []
        m_LeftHand:
          data:
            m_HandBoneIndex: ffffffffffffffffffffffffffffffffffffffffffffffffffffffffffffffffffffffffffffffffffffffffffffffffffffffffffffffffffffffff
        m_RightHand:
          data:
            m_HandBoneIndex: ffffffffffffffffffffffffffffffffffffffffffffffffffffffffffffffffffffffffffffffffffffffffffffffffffffffffffffffffffffffff
        m_Handles: []
        m_ColliderArray: []
        m_HumanBoneIndex: ffffffffffffffffffffffffffffffffffffffffffffffffffffffffffffffffffffffffffffffffffffffffffffffffffffffffffffffffffffffffffffffffffffffffffffffffffffffffffffffffffffffffffffffffffffffffffffffffffffffff
        m_HumanBoneMass:
        - 0.1454546
        - 0.1212121
        - 0.1212121
        - 0.04848485
        - 0.04848485
        - 0.009696971
        - 0.009696971
        - 0.03030303
        - 0.1454546
        - 0.1454546
        - 0.01212121
        - 0.04848485
        - 0.006060607
        - 0.006060607
        - 0.02424243
        - 0.02424243
        - 0.01818182
        - 0.01818182
        - 0.006060607
        - 0.006060607
        - 0.002424243
        - 0.002424243
        - 0
        - 0
        - 0
        m_ColliderIndex:
        m_Scale: 1
        m_ArmTwist: 0.5
        m_ForeArmTwist: 0.5
        m_UpperLegTwist: 0.5
        m_LegTwist: 0.5
        m_ArmStretch: 0.05
        m_LegStretch: 0.05
        m_FeetSpacing: 0
        m_HasLeftHand: 0
        m_HasRightHand: 0
        m_HasTDoF: 0
    m_HumanSkeletonIndexArray:
    m_HumanSkeletonReverseIndexArray:
    m_RootMotionBoneIndex: -1
    m_RootMotionBoneX:
      t: {x: 0, y: 0, z: 0}
      q: {x: 0, y: 0, z: 0, w: 1}
      s: {x: 1, y: 1, z: 1}
    m_RootMotionSkeleton:
      data:
        m_Node: []
        m_ID:
        m_AxesArray: []
    m_RootMotionSkeletonPose:
      data:
        m_X: []
    m_RootMotionSkeletonIndexArray:
  m_TOS:
    2290589222: SpinningWheel
    874919954: Armature/Bone/Bone.001/Bone.006/Bone.011
    3663080524: Armature/Bone/Bone.007/Bone.009
    4166202906: Armature/Bone/Bone.002/Bone.003/Bone.010/Bone.004/Bone.005
    3702132246: Armature/Bone/Bone.002/Bone.003
    2506521730: Armature/Bone/Bone.002
    0:
    106841449: Armature/Bone/Bone.002/Bone.003/Bone.010
    1615938317: Armature/Bone/Bone.002/Bone.003/Bone.010/Bone.004
    3842803725: Armature/Bone/Bone.007
    2907774170: Armature/Bone/Bone.007/Bone.008
    208612664: Armature/Bone/Bone.001
    2683011312: Armature/Bone
    1207386522: Armature/Bone/Bone.001/Bone.006
    2104266162: Armature
  m_HumanDescription:
    serializedVersion: 3
    m_Human: []
    m_Skeleton: []
    m_ArmTwist: 0.5
    m_ForeArmTwist: 0.5
    m_UpperLegTwist: 0.5
    m_LegTwist: 0.5
    m_ArmStretch: 0.05
    m_LegStretch: 0.05
    m_FeetSpacing: 0
    m_GlobalScale: 1
    m_RootMotionBoneName:
    m_HasTranslationDoF: 0
    m_HasExtraRoot: 1
    m_SkeletonHasParents: 1
